{
    "DNDConfig": null,
    "__parentReadjusting__": false,
    "_height_": {
        "type": "string",
        "value": "50dp"
    },
    "_left_": {
        "type": "string",
        "value": "15dp"
    },
    "_margin_": [
        0,
        0,
        0,
        0
    ],
    "_orientation_": 6,
    "_padding_": [
        0,
        0,
        0,
        0
    ],
    "_percent_": true,
    "_skin_": "s388f0c575ef4d08ac3a5ed0a4b90085",
    "_top_": {
        "type": "string",
        "value": "260dp"
    },
    "_width_": {
        "type": "string",
        "value": "90%"
    },
    "allboxes": [],
    "autogrowmode": 0,
    "canUpdateUI": true,
    "children": [
        "lstDeliveryBranch",
        "CopybtnDropDown0cbbd92d7c84c4a",
        "lblDeliveryBranch",
        "CopyflxUnderlineBillerCategory0ef0fe8c3d30f4c"
    ],
    "clipbounds": true,
    "containerweight": 100,
    "enablescrolling": true,
    "id": "flxDeliveryBranch",
    "ide_onTouchStart": "AS_FlexContainer_h7764010e6804466b14a29571c910a9b",
    "info": null,
    "isvisible": false,
    "kuid": "d2cf29bf287e4f1d9014840707966098",
    "layouttype": 2,
    "name": "kony.ui.FlexContainer",
    "parent": "flxCardCancel",
    "pf": "frmCancelCardKA",
    "snapgridsize": 10,
    "snaptogrid": true,
    "wType": "FlexContainer",
    "widgetalignment": 1,
    "zindex": 3
}