{
    "@class": "com.kony.gen.viz.model.component.KVizButton",
    "DNDConfig": null,
    "__parentReadjusting__": false,
    "_height_": {
        "type": "string",
        "value": "9%"
    },
    "_margin_": [
        6,
        6,
        6,
        6
    ],
    "_padding_": [
        0,
        0,
        0,
        0
    ],
    "_skin_": "s51d68053cae4eba826625de179be4ae",
    "_text_": "Reset PIN",
    "_top_": {
        "type": "string",
        "value": "55%"
    },
    "_width_": {
        "type": "string",
        "value": "75%"
    },
    "canUpdateUI": true,
    "centerx": {
        "type": "string",
        "value": "50%"
    },
    "containerweight": 100,
    "contentalignment": 5,
    "displaytext": true,
    "focusskin": "s9dd8fe1ab7b4f26aad257d210a41f6e",
    "id": "btnSetResetPin",
    "ide_onClick": "AS_Button_g30c3e69c1b3478e86eac894cc65da1a",
    "info": null,
    "isvisible": false,
    "kuid": "i46fcafc8fe843dbbbea5448e517883d",
    "maxheight": {
        "type": "number",
        "value": "50"
    },
    "name": "kony.ui.Button",
    "parent": "flxBody",
    "pf": "frmUserSettingsPinLoginKA",
    "wType": "Button",
    "zindex": 1
}