{
    "@class": "com.kony.gen.viz.model.container.KVizHBox",
    "DNDConfig": null,
    "_margin_": [
        0,
        0,
        0,
        0
    ],
    "_orientation_": 1,
    "_padding_": [
        0,
        2,
        0,
        4
    ],
    "_percent_": true,
    "_position_": 3,
    "_skin_": "s066e1f55806426ca40936afa9e01f49",
    "allboxes": [],
    "canUpdateUI": true,
    "children": [
        "Label0f420ba73f3ba40",
        "btnSingleOkay",
        "CopyLabel0fc57b930c2d740"
    ],
    "containerweight": 100,
    "contextmenu": null,
    "id": "hbxSingleOk",
    "info": null,
    "isvisible": true,
    "kuid": "a7cb71e9a067482cb5c649192d3a249f",
    "layouttype": 0,
    "margininpixel": false,
    "name": "kony.ui.Box",
    "paddinginpixel": false,
    "parent": "popupCommonAlert",
    "pf": "popupCommonAlert",
    "wType": "HBox",
    "widgetalignment": 5
}