{
    "DNDConfig": null,
    "__parentReadjusting__": false,
    "_height_": {
        "type": "string",
        "value": "25dp"
    },
    "_margin_": [
        0,
        0,
        0,
        0
    ],
    "_orientation_": 6,
    "_padding_": [
        0,
        0,
        0,
        0
    ],
    "_percent_": true,
    "_right_": {
        "type": "string",
        "value": "5%"
    },
    "_skin_": "sbcfe7bb08044eec8c39d165593571dc",
    "_top_": {
        "type": "string",
        "value": "0dp"
    },
    "_width_": {
        "type": "string",
        "value": "44dp"
    },
    "allboxes": [],
    "autogrowmode": 0,
    "canUpdateUI": true,
    "centery": {
        "type": "string",
        "value": "50%"
    },
    "children": [
        "CopyflxInnerDisabled0c5c347424ad345",
        "CopyflxILineDisabled0fee99492e04442"
    ],
    "clipbounds": true,
    "containerweight": 100,
    "enablescrolling": true,
    "id": "flxAlertCheckClearedDisable",
    "ide_onClick": "AS_FlexContainer_d8060831cca84749893a5d07dfafc280",
    "info": null,
    "isvisible": false,
    "kuid": "if9d67d821f547a9a1b5c8d3f44a7805",
    "layouttype": 2,
    "name": "kony.ui.FlexContainer",
    "parent": "flxAlertCheckCleared",
    "pf": "frmAlertsKA",
    "snapgridsize": 10,
    "snaptogrid": true,
    "wType": "FlexContainer",
    "widgetalignment": 1,
    "zindex": 1
}