{
    "@class": "com.kony.gen.viz.model.component.KVizButton",
    "DNDConfig": null,
    "__parentReadjusting__": false,
    "_height_": {
        "type": "string",
        "value": "60dp"
    },
    "_left_": {
        "type": "string",
        "value": "70%"
    },
    "_margin_": [
        6,
        6,
        6,
        6
    ],
    "_padding_": [
        0,
        0,
        0,
        0
    ],
    "_skin_": "seca4ac3711c42bd959a60367a7a408c",
    "_text_": "F",
    "_width_": {
        "type": "string",
        "value": "60dp"
    },
    "canUpdateUI": true,
    "centery": {
        "type": "string",
        "value": "50%"
    },
    "containerweight": 100,
    "contentalignment": 5,
    "displaytext": true,
    "focusskin": "seca4ac3711c42bd959a60367a7a408c",
    "id": "btnOnboarding",
    "ide_onClick": "AS_Button_ad209bcab4cb48f7acf4c7f14c7d8202",
    "info": null,
    "iphone": {
        "psp": {
            "showProgressIndicator": false
        }
    },
    "iscustomlayout": true,
    "isvisible": true,
    "kuid": "d08bc73f6ba346cf959d093d03ba7ac6",
    "name": "kony.ui.Button",
    "onclick": "AS_Button_328c114136424552afae15f35f5f3837",
    "parent": "utilityLinks",
    "pf": "frmLoginKA",
    "retainflexpositionproperties": true,
    "showprogressindicator": false,
    "wType": "Button",
    "zindex": 1
}