{
    "@class": "com.kony.gen.viz.model.component.KVizButton",
    "DNDConfig": null,
    "__parentReadjusting__": false,
    "_height_": {
        "type": "string",
        "value": "75dp"
    },
    "_margin_": [
        6,
        6,
        6,
        6
    ],
    "_padding_": [
        0,
        0,
        0,
        0
    ],
    "_skin_": "s3ab10e73bc24d3687ec37d64d30f97c",
    "_text_": "2",
    "_top_": {
        "type": "string",
        "value": "2%"
    },
    "_width_": {
        "type": "string",
        "value": "75dp"
    },
    "android": {
        "psp": {}
    },
    "canUpdateUI": true,
    "centerx": {
        "type": "string",
        "value": "50%"
    },
    "containerweight": 100,
    "contentalignment": 5,
    "disabledSkins": {
        "pressedSkin": "s91eeaf3bdbd49be8c430a952a997520"
    },
    "displaytext": true,
    "focusskin": "s91eeaf3bdbd49be8c430a952a997520",
    "id": "btnTwo",
    "ide_onClick": "AS_Button_22217b3760214733b960c4365e49f74b",
    "info": null,
    "isvisible": true,
    "kuid": "427daab6ea134f7fb5c4e1e220631776",
    "name": "kony.ui.Button",
    "parent": "flxDialPad",
    "pf": "frmLoginKA",
    "wType": "Button",
    "zindex": 1
}