{
    "@class": "com.kony.gen.viz.model.component.KVizLabel",
    "DNDConfig": null,
    "__parentReadjusting__": false,
    "_height_": {
        "type": "string",
        "value": "100%"
    },
    "_margin_": [
        1,
        1,
        1,
        1
    ],
    "_padding_": [
        0,
        0,
        0,
        0
    ],
    "_skin_": "s307abc375f142b19ab1b81d6c9d2357",
    "_text_": "C",
    "_top_": {
        "type": "string",
        "value": "10%"
    },
    "_width_": {
        "type": "string",
        "value": "25%"
    },
    "_wrapping_": 2,
    "android": {
        "textStyle": {
            "letterSpacing": 0,
            "strikeThrough": false
        }
    },
    "canUpdateUI": true,
    "containerweight": 100,
    "contentalignment": 5,
    "id": "lblFaceidOnPassword",
    "ide_onTouchEnd": "AS_Label_c1da41fb016d460e8f0ce5e77138acc4",
    "info": null,
    "ipad": {
        "psp": {
            "wrapping": 2
        }
    },
    "iphone": {
        "psp": {
            "wrapping": 2
        }
    },
    "isvisible": false,
    "kuid": "d280ec145ded4ea7bf5eec0d46b53550",
    "name": "kony.ui.Label",
    "parent": "flxIconsNewPassword",
    "pf": "frmLoginKA",
    "textstyle": {},
    "tooltip": "",
    "wType": "Label",
    "zindex": 20
}