{
    "@class": "com.kony.gen.viz.model.component.KVizLabel",
    "DNDConfig": null,
    "__parentReadjusting__": false,
    "_height_": {
        "type": "ref",
        "value": "preferred"
    },
    "_left_": {
        "type": "string",
        "value": "2%"
    },
    "_margin_": [
        1,
        1,
        1,
        1
    ],
    "_padding_": [
        0,
        0,
        0,
        0
    ],
    "_skin_": "s22af183cc3a4fb9af42f3312f5394c1",
    "_text_": "Password",
    "_top_": {
        "type": "string",
        "value": "40%"
    },
    "_width_": {
        "type": "ref",
        "value": "preferred"
    },
    "_wrapping_": 2,
    "android": {
        "textStyle": {
            "letterSpacing": 0,
            "strikeThrough": false
        }
    },
    "canUpdateUI": true,
    "containerweight": 100,
    "contentalignment": 4,
    "id": "lblPassword",
    "info": null,
    "ipad": {
        "psp": {
            "wrapping": 2
        }
    },
    "iphone": {
        "psp": {
            "wrapping": 2
        }
    },
    "isvisible": true,
    "kuid": "b95d1b4fc74445cb8d9422a43440d094",
    "name": "kony.ui.Label",
    "parent": "passwordContainer",
    "pf": "frmLoginKA",
    "texti18n": "i18n.login.password",
    "textstyle": {},
    "tooltip": "",
    "wType": "Label",
    "zindex": 2
}