{
    "@class": "com.kony.gen.viz.model.component.KVizTextBox2",
    "DNDConfig": null,
    "__parentReadjusting__": false,
    "_height_": {
        "type": "string",
        "value": "45%"
    },
    "_left_": {
        "type": "string",
        "value": "5%"
    },
    "_margin_": [
        0,
        0,
        0,
        0
    ],
    "_padding_": [
        0,
        0,
        0,
        0
    ],
    "_placeholder_": "0.000",
    "_skin_": "s029998596d3421892d0917ea7492e1d",
    "_text_": "",
    "_top_": {
        "type": "string",
        "value": "40%"
    },
    "_width_": {
        "type": "string",
        "value": "90%"
    },
    "android": {
        "ide_onBeginEditing": "AS_TextField_ba8e9b7f1a554ac788564b1f34bb4bb7",
        "ide_onEndEditing": "AS_TextField_i319f55c90e64987809e0d624052414b",
        "psp": {
            "keyboardActionLabel": 1
        }
    },
    "autocapitalize": "none",
    "autocomplete": false,
    "autocorrect": false,
    "autofilter": false,
    "canUpdateUI": true,
    "containerheight": "",
    "containerheightmode": 1,
    "containerweight": 100,
    "contentalignment": 4,
    "focusskin": "sa25e426dcb94c13ab46f59a2b31a09a",
    "id": "txtFieldAmount",
    "ide_onDone": "AS_TextField_f0797600ac284aa3ab9f5d23f3cc5fa4",
    "ide_onTextChange": "AS_TextField_e6eb6e5b842b42f6a01a175ffc8cc746",
    "ide_onTouchStart": "AS_TextField_j831f8dd430448d49a824b01f760b46d",
    "info": null,
    "iphone": {
        "ide_onBeginEditing": "AS_TextField_h7ea174d3fdb447199890e1685eda7f5",
        "ide_onEndEditing": "AS_TextField_bac995ab61d747009936c9b961ac855c",
        "psp": {
            "keyboardActionLabel": 1,
            "showClearButton": false,
            "showCloseButton": false,
            "showProgressIndicator": false
        }
    },
    "isvisible": true,
    "keyboardactionlabel": 4,
    "keyboardstyle": "number",
    "keyboardtype": "A",
    "kuid": "j07a0d8166e04b7ca5f016e7e9230140",
    "maxtextlength": 9,
    "mode": "N",
    "name": "kony.ui.TextBox2",
    "paddinginpixel": false,
    "parent": "flxAmount",
    "pf": "frmJoMoPay",
    "securetextentry": false,
    "showclearbutton": false,
    "showoprogressindicator": false,
    "spa": {},
    "textinputmode": "N",
    "viewtype": "default",
    "wType": "TextField",
    "zindex": 1
}