{
    "DNDConfig": null,
    "_height_": {
        "type": "string",
        "value": "10%"
    },
    "_margin_": [
        0,
        0,
        0,
        0
    ],
    "_orientation_": 6,
    "_padding_": [
        0,
        0,
        0,
        0
    ],
    "_percent_": true,
    "_skin_": "s80e6857987f48a288568a48b807478f",
    "allboxes": [],
    "autogrowmode": 0,
    "canUpdateUI": true,
    "children": [
        "lblfrequency",
        "lblKey"
    ],
    "clipbounds": true,
    "containerId": true,
    "containerweight": 100,
    "enablescrolling": true,
    "id": "flxFrequencyTmp",
    "info": null,
    "isTemplate": true,
    "isvisible": true,
    "kuid": "e7269db4cc1d426087f30c838c59dc84",
    "layouttype": 2,
    "name": "kony.ui.FlexContainer",
    "parent": "tmpFrequrncyData",
    "pf": "tmpFrequrncyData",
    "snapgridsize": 10,
    "snaptogrid": true,
    "wType": "FlexContainer",
    "widgetalignment": 1
}