{
    "@class": "com.kony.gen.viz.model.component.KVizLabel",
    "DNDConfig": null,
    "__parentReadjusting__": false,
    "_height_": {
        "type": "ref",
        "value": "preferred"
    },
    "_margin_": [
        1,
        1,
        1,
        1
    ],
    "_padding_": [
        0,
        0,
        0,
        0
    ],
    "_skin_": "s20b8408b00a462991990e609ab78422",
    "_text_": "Cash Withdrawal by",
    "_top_": {
        "type": "string",
        "value": "5dp"
    },
    "_width_": {
        "type": "string",
        "value": "100%"
    },
    "_wrapping_": 2,
    "canUpdateUI": true,
    "centerx": {
        "type": "string",
        "value": "50%"
    },
    "containerweight": 100,
    "contentalignment": 5,
    "enabled": false,
    "id": "forCollectionLabel",
    "info": null,
    "ipad": {
        "psp": {
            "wrapping": 2
        }
    },
    "iphone": {
        "psp": {
            "wrapping": 2
        }
    },
    "isvisible": true,
    "kuid": "ec3c3f237e3f466183fa4986c2d0d5b8",
    "name": "kony.ui.Label",
    "parent": "innerFlexContainerWithdrawDetails",
    "pf": "frmConfirmCashWithDraw",
    "texti18n": "i18n.cashWithdraw.cashWithdrawalby",
    "tooltip": "",
    "wType": "Label",
    "zindex": 1
}