{
    "@class": "com.kony.gen.viz.model.container.KVizSegment2",
    "DNDConfig": null,
    "__markedForDelete__": true,
    "__parentReadjusting__": false,
    "_data_": [
        {
            "lblAmount": {
                "@class": "com.viz.ide.model.segment.SimpleTextSegmentData",
                "text": "Saving Account"
            },
            "lblDate": {
                "@class": "com.viz.ide.model.segment.SimpleTextSegmentData",
                "text": "00123458746"
            },
            "lblDescription": {
                "@class": "com.viz.ide.model.segment.SimpleTextSegmentData",
                "text": "60,005.0 JOB"
            }
        },
        {
            "lblAmount": {
                "@class": "com.viz.ide.model.segment.SimpleTextSegmentData",
                "text": "Saving Account"
            },
            "lblDate": {
                "@class": "com.viz.ide.model.segment.SimpleTextSegmentData",
                "text": "00123458746"
            },
            "lblDescription": {
                "@class": "com.viz.ide.model.segment.SimpleTextSegmentData",
                "text": "60,005.0 JOB"
            }
        },
        {
            "lblAmount": {
                "@class": "com.viz.ide.model.segment.SimpleTextSegmentData",
                "text": "Saving Account"
            },
            "lblDate": {
                "@class": "com.viz.ide.model.segment.SimpleTextSegmentData",
                "text": "00123458746"
            },
            "lblDescription": {
                "@class": "com.viz.ide.model.segment.SimpleTextSegmentData",
                "text": "60,005.0 JOB"
            }
        }
    ],
    "_enabled_": true,
    "_height_": {
        "type": "ref",
        "value": "preferred"
    },
    "_indicator_": "none",
    "_left_": 0,
    "_margin_": [
        0,
        0,
        0,
        0
    ],
    "_opacity_": 100,
    "_orientation_": 2,
    "_padding_": [
        0,
        0,
        0,
        0
    ],
    "_top_": 0,
    "_width_": {
        "type": "ref",
        "value": "preferred"
    },
    "autogrowmode": 1,
    "canUpdateUI": true,
    "containerweight": 100,
    "counter": "02",
    "focusedindex": null,
    "focuseditem": null,
    "groupcells": false,
    "hasSections": false,
    "id": "segDetails",
    "info": null,
    "ipad": {
        "psp": {
            "indicator": "rowselect"
        }
    },
    "iphone": {
        "psp": {
            "indicator": "rowselect"
        }
    },
    "isvisible": true,
    "kuid": "f418e219725f45f99249f07a01e039e5",
    "masterdata": {},
    "name": "kony.ui.SegmentedUI2",
    "needpageindicator": true,
    "paddinginpixel": true,
    "pageoffdotimage": "pageoffdot.png",
    "pageondotimage": "pageondot.png",
    "paginationconfig": {
        "position": "bottom"
    },
    "parent": "frmWatMenuListItemDetails",
    "pf": "frmWatMenuListItemDetails",
    "retainselection": false,
    "rowTemplateId": "bc1ca2f7cb174349a29c084786babd41",
    "rowcounter": 2,
    "rowtemplate": "grpMIDMain",
    "screenlevelwidget": false,
    "seccounter": 0,
    "sectionHeaderTemplateId": null,
    "selectedRows": null,
    "selectedState": false,
    "selectedindex": null,
    "selectedindices": null,
    "selecteditems": null,
    "selectedsectionindex": 0,
    "selectionbehavior": "default",
    "separatorcolor": "64646400",
    "separatorrequired": true,
    "separatorthickness": 1,
    "showscrollbars": false,
    "viewtype": "tableview",
    "wType": "Segment",
    "widgetalignment": 2,
    "widgetdatamap": {
        "Group0g101bd7177f34d": "Group0g101bd7177f34d",
        "grpContent": "grpContent",
        "grpMContent": "grpMContent",
        "grpMIDMain": "grpMIDMain",
        "lblAmount": "lblAmount",
        "lblDate": "lblDate",
        "lblDescription": "lblDescription"
    },
    "widgetskin": "s91aaf68d2604cdc9081ab992188a9a4"
}