{
    "@class": "com.kony.gen.viz.model.component.KVizButton",
    "DNDConfig": null,
    "__parentReadjusting__": false,
    "_height_": {
        "type": "string",
        "value": "50dp"
    },
    "_left_": {
        "type": "string",
        "value": "0dp"
    },
    "_margin_": [
        6,
        6,
        6,
        6
    ],
    "_padding_": [
        0,
        0,
        0,
        0
    ],
    "_skin_": "s42097848aa844c9a25e6237b1b50a5b",
    "_text_": "",
    "_top_": {
        "type": "string",
        "value": "0dp"
    },
    "_width_": {
        "type": "string",
        "value": "50dp"
    },
    "canUpdateUI": true,
    "containerweight": 100,
    "contentalignment": 5,
    "displaytext": true,
    "focusskin": "s86cba35d2a34a219807da2b84f4f553",
    "id": "backButton",
    "ide_onClick": "AS_Button_e28e2e4de4964da89c434f2a785bda2c",
    "info": null,
    "iphone": {
        "psp": {
            "showProgressIndicator": false
        }
    },
    "isvisible": true,
    "kuid": "9fe93ffc0238489db0acd52d2b497c5a",
    "name": "kony.ui.Button",
    "onclick": "AS_Button_28dbaec57daf4f039d5ba389e3784d0a",
    "parent": "titleBarAccountDetails",
    "pf": "frmSetUpPinSettings",
    "showprogressindicator": false,
    "wType": "Button",
    "zindex": 1
}