{
    "@class": "com.kony.gen.viz.model.component.KVizButton",
    "DNDConfig": null,
    "__parentReadjusting__": false,
    "_height_": {
        "type": "string",
        "value": "50%"
    },
    "_left_": {
        "type": "string",
        "value": "0%"
    },
    "_margin_": [
        6,
        6,
        6,
        6
    ],
    "_padding_": [
        0,
        0,
        0,
        0
    ],
    "_skin_": "sfdddcea6cff4d788f42120343a323ef",
    "_text_": "",
    "_top_": {
        "type": "string",
        "value": "35%"
    },
    "_width_": {
        "type": "string",
        "value": "100%"
    },
    "canUpdateUI": true,
    "containerweight": 100,
    "contentalignment": 6,
    "disabledSkins": {
        "focusSkin": "s10149300144466da99cbf92f4fdacc8"
    },
    "displaytext": true,
    "id": "btnAccountToAddInterestTo",
    "ide_onClick": "AS_Button_da1c826cb6c149bfa8267cadf2beb3d9",
    "info": null,
    "isvisible": true,
    "kuid": "faf2be70a08f4faea3d39019c7dc0a5e",
    "name": "kony.ui.Button",
    "parent": "flxInterestToAccount",
    "pf": "frmOpenTermDeposit",
    "texti18n": "i18n.common.reverseback",
    "wType": "Button",
    "zindex": 1
}