{
    "@class": "com.kony.gen.viz.model.component.KVizButton",
    "DNDConfig": null,
    "__parentReadjusting__": false,
    "_height_": {
        "type": "string",
        "value": "50%"
    },
    "_left_": {
        "type": "string",
        "value": "0%"
    },
    "_margin_": [
        6,
        6,
        6,
        6
    ],
    "_padding_": [
        0,
        0,
        0,
        0
    ],
    "_skin_": "sfdddcea6cff4d788f42120343a323ef",
    "_text_": "",
    "_top_": {
        "type": "string",
        "value": "45%"
    },
    "_width_": {
        "type": "string",
        "value": "100%"
    },
    "canUpdateUI": true,
    "containerweight": 100,
    "contentalignment": 6,
    "displaytext": true,
    "focusskin": "sfdddcea6cff4d788f42120343a323ef",
    "id": "btnMaturityInstruction",
    "ide_onClick": "AS_Button_fb69fe5b965842bbb251aaf6cd9ffc5f",
    "info": null,
    "isvisible": true,
    "kuid": "fe3332e70f6747dd9edcca643632f104",
    "name": "kony.ui.Button",
    "parent": "flxMaturityInstructions",
    "pf": "frmOpenTermDeposit",
    "texti18n": "i18n.common.reverseback",
    "wType": "Button",
    "zindex": 1
}