{
    "DNDConfig": null,
    "__markedForDelete__": true,
    "__parentReadjusting__": false,
    "_height_": {
        "type": "string",
        "value": "13%"
    },
    "_margin_": [
        0,
        0,
        0,
        0
    ],
    "_orientation_": 6,
    "_padding_": [
        0,
        0,
        0,
        0
    ],
    "_percent_": true,
    "_right_": {
        "type": "string",
        "value": "5%"
    },
    "_skin_": "s388f0c575ef4d08ac3a5ed0a4b90085",
    "_top_": {
        "type": "string",
        "value": "1%"
    },
    "_width_": {
        "type": "string",
        "value": "90%"
    },
    "allboxes": [],
    "autogrowmode": 0,
    "canUpdateUI": true,
    "children": [
        "lblDepositAmountTitle",
        "flxBorderDepositAmount",
        "txtDepositAmount",
        "lblDepositCurrency",
        "lblCurrencyCode"
    ],
    "clipbounds": false,
    "containerweight": 100,
    "defaultunit": 3,
    "enablescrolling": true,
    "id": "flxDepositAmount",
    "info": null,
    "isvisible": true,
    "kuid": "d0b705901eaf46f5bc23521cdf8d26a8",
    "layouttype": 2,
    "name": "kony.ui.FlexContainer",
    "parent": "flxDepositSelection",
    "pf": "frmOpenTermDeposit",
    "snapgridsize": 10,
    "snaptogrid": true,
    "wType": "FlexContainer",
    "widgetalignment": 1,
    "zindex": 1
}