{
    "@class": "com.kony.gen.viz.model.component.KVizTextBox2",
    "DNDConfig": null,
    "__markedForDelete__": true,
    "__parentReadjusting__": false,
    "_height_": {
        "type": "string",
        "value": "50%"
    },
    "_left_": {
        "type": "string",
        "value": "0%"
    },
    "_margin_": [
        0,
        0,
        0,
        0
    ],
    "_padding_": [
        0,
        0,
        0,
        0
    ],
    "_placeholder_": "",
    "_skin_": "sa25e426dcb94c13ab46f59a2b31a09a",
    "_text_": "",
    "_top_": {
        "type": "string",
        "value": "35%"
    },
    "_width_": {
        "type": "string",
        "value": "100%"
    },
    "android": {
        "ide_onBeginEditing": "AS_TextField_d89b9bc0ea7842c78f82648c3880e596",
        "ide_onEndEditing": "AS_TextField_ja3cb9115d214a4884d23d341c920840",
        "onEndEditing": "AS_TextField_e80f545b8ff04ac480dfd005e443789b",
        "psp": {
            "keyboardActionLabel": 1
        }
    },
    "autocapitalize": "none",
    "autocomplete": false,
    "autocorrect": false,
    "autofilter": false,
    "canUpdateUI": true,
    "containerheight": "",
    "containerheightmode": 1,
    "containerweight": 100,
    "contentalignment": 4,
    "focusskin": "sa25e426dcb94c13ab46f59a2b31a09a",
    "id": "txtDepositAmount",
    "ide_onDone": "AS_TextField_e80f545b8ff04ac480dfd005e443789b",
    "ide_onTextChange": "AS_TextField_fdf09c51ffe14e02bdded06b88a52786",
    "info": null,
    "iphone": {
        "ide_onBeginEditing": "AS_TextField_ace303c737234810833d1397ef96eb62",
        "ide_onEndEditing": "AS_TextField_a46f216012974bc9b18b5877204067c7",
        "onEndEditing": "AS_TextField_e80f545b8ff04ac480dfd005e443789b"
    },
    "isvisible": true,
    "keyboardactionlabel": 1,
    "keyboardstyle": "number",
    "keyboardtype": "A",
    "kuid": "c0d3f0969aa746c197eb79231b80eaff",
    "maxtextlength": "",
    "mode": "N",
    "name": "kony.ui.TextBox2",
    "paddinginpixel": false,
    "parent": "flxDepositAmount",
    "pf": "frmOpenTermDeposit",
    "securetextentry": false,
    "textinputmode": "N",
    "viewtype": "default",
    "wType": "TextField",
    "zindex": 1
}