{
    "NativeFunctionAPI": {
        "iOS": {
            "11.0": {
                "Kony_FileStorage-iOS-11.0": {
                    "title": "Kony_FileStorage",
                    "platform": "iOS",
                    "os": "11.0",
                    "isDefault": true,
                    "filepath": "Konyretalibanking\\nativebindings\\iOS\\11.0\\Kony_FileStorage-iOS-11.0.zip",
                    "nfiversion": "2.0",
                    "enable": true
                },
                "Kony_SyncV2-iOS-11.0": {
                    "title": "Kony_SyncV2",
                    "platform": "iOS",
                    "os": "11.0",
                    "isDefault": true,
                    "filepath": "Konyretalibanking\\nativebindings\\iOS\\11.0\\Kony_SyncV2-iOS-11.0.zip",
                    "nfiversion": "2.0",
                    "enable": true
                },
                "Kony_SDKCommons-iOS-11.0": {
                    "title": "Kony_SDKCommons",
                    "platform": "iOS",
                    "os": "11.0",
                    "isDefault": true,
                    "filepath": "Konyretalibanking\\nativebindings\\iOS\\11.0\\Kony_SDKCommons-iOS-11.0.zip",
                    "nfiversion": "2.0",
                    "enable": true
                }
            }
        },
        "Android": {
            "4.0": {
                "Kony_FileStorage-Android-4.0": {
                    "title": "Kony_FileStorage",
                    "platform": "Android",
                    "os": "4.0",
                    "isDefault": true,
                    "filepath": "Konyretalibanking\\nativebindings\\Android\\4.0\\Kony_FileStorage-Android-4.0.zip",
                    "enable": true
                },
                "Kony_SDKCommons-Android-4.0": {
                    "title": "Kony_SDKCommons",
                    "platform": "Android",
                    "os": "4.0",
                    "isDefault": true,
                    "filepath": "Konyretalibanking\\nativebindings\\Android\\4.0\\Kony_SDKCommons-Android-4.0.zip",
                    "enable": true
                },
                "Kony_SyncV2-Android-4.0": {
                    "title": "Kony_SyncV2",
                    "platform": "Android",
                    "os": "4.0",
                    "isDefault": true,
                    "filepath": "Konyretalibanking\\nativebindings\\Android\\4.0\\Kony_SyncV2-Android-4.0.zip",
                    "enable": true
                }
            },
            "API level 23": {
                "android.app-Android-API level 23": {
                    "title": "android.app",
                    "platform": "Android",
                    "os": "API level 23",
                    "url": "/visualizer/nativeframeworks/android/1.0/android.app-Android-4.0.zip",
                    "checksum": "e888b69438a74adad3c21577c08a5d062e23664a",
                    "projectName": "BojMobileApp",
                    "filepath": "D:\\BOJ\\BOJws\\BojMobileApp\\nativebindings\\Android\\API level 23\\android.app-Android-4.0.zip",
                    "enable": true,
                    "isDefault": false
                },
                "android.content-Android-API level 23": {
                    "title": "android.content",
                    "platform": "Android",
                    "os": "API level 23",
                    "url": "/visualizer/nativeframeworks/android/1.0/android.content-Android-4.0.zip",
                    "checksum": "3ce60c47b75c2ad0dc7449d6b43c2842d2b6f103",
                    "projectName": "BojMobileApp",
                    "filepath": "D:\\BOJ\\BOJws\\BojMobileApp\\nativebindings\\Android\\API level 23\\android.content-Android-4.0.zip",
                    "enable": true,
                    "isDefault": false
                },
                "android.graphics-Android-API level 23": {
                    "title": "android.graphics",
                    "platform": "Android",
                    "os": "API level 23",
                    "url": "/visualizer/nativeframeworks/android/1.0/android.graphics-Android-4.0.zip",
                    "checksum": "d96cf862c56ae666bd5f55901d3ebe263dfd9638",
                    "projectName": "BojMobileApp",
                    "filepath": "D:\\BOJ\\BOJws\\BojMobileApp\\nativebindings\\Android\\API level 23\\android.graphics-Android-4.0.zip",
                    "enable": true,
                    "isDefault": false
                },
                "android.net-Android-API level 23": {
                    "title": "android.net",
                    "platform": "Android",
                    "os": "API level 23",
                    "url": "/visualizer/nativeframeworks/android/1.0/android.net-Android-4.0.zip",
                    "checksum": "f20197e00555e1bc07d01e5d557ea448d2d06d7e",
                    "projectName": "BojMobileApp",
                    "filepath": "D:\\BOJ\\BOJws\\BojMobileApp\\nativebindings\\Android\\API level 23\\android.net-Android-4.0.zip",
                    "enable": true,
                    "isDefault": false
                },
                "java.io-Android-API level 23": {
                    "title": "java.io",
                    "platform": "Android",
                    "os": "API level 23",
                    "url": "/visualizer/nativeframeworks/android/1.0/java.io-Android-4.0.zip",
                    "checksum": "e0723cfa8b9544aa3acbed531d7d1ce656894f3f",
                    "projectName": "BojMobileApp",
                    "filepath": "D:\\BOJ\\BOJws\\BojMobileApp\\nativebindings\\Android\\API level 23\\java.io-Android-4.0.zip",
                    "enable": true,
                    "isDefault": false
                },
                "java.lang-Android-API level 23": {
                    "title": "java.lang",
                    "platform": "Android",
                    "os": "API level 23",
                    "url": "/visualizer/nativeframeworks/android/1.0/java.lang-Android-4.0.zip",
                    "checksum": "533a415b37960853c802e7f3224f45225d745029",
                    "projectName": "BojMobileApp",
                    "filepath": "D:\\BOJ\\BOJws\\BojMobileApp\\nativebindings\\Android\\API level 23\\java.lang-Android-4.0.zip",
                    "enable": true,
                    "isDefault": false
                }
            }
        }
    },
    "Metadata": {
        "Version": {
            "iOS": "2.0"
        }
    }
}