{
    "DNDConfig": null,
    "__parentReadjusting__": false,
    "_height_": {
        "type": "ref",
        "value": "preferred"
    },
    "_left_": {
        "type": "string",
        "value": "5%"
    },
    "_margin_": [
        0,
        0,
        0,
        0
    ],
    "_orientation_": 6,
    "_padding_": [
        0,
        0,
        0,
        0
    ],
    "_percent_": true,
    "_skin_": "scbac437d63645e999fd93a95dac609b",
    "_top_": {
        "type": "string",
        "value": "1%"
    },
    "_width_": {
        "type": "string",
        "value": "90%"
    },
    "allboxes": [],
    "autogrowmode": 1,
    "canUpdateUI": true,
    "children": [
        "lblOwnAccountTransferDiffCurrHintTitle",
        "lblOwnAccountTransferDiffCurrHint",
        "CopyFlexContainer0g15ed8ba819749"
    ],
    "clipbounds": true,
    "containerweight": 100,
    "enablescrolling": true,
    "id": "flxOwnAccountTransferDiffCurrHint",
    "info": null,
    "isvisible": true,
    "kuid": "h9a4ca478cef4b5e942fcf1a0885a42e",
    "layouttype": 4,
    "name": "kony.ui.FlexContainer",
    "parent": "flxTransferAmountHelp",
    "pf": "frmBrowser",
    "snapgridsize": 10,
    "snaptogrid": true,
    "wType": "FlexContainer",
    "widgetalignment": 1,
    "zindex": 1
}