{
    "@class": "com.kony.gen.viz.model.component.KVizUserWidget",
    "DNDConfig": null,
    "__parentReadjusting__": false,
    "_children_": [],
    "_height_": {
        "type": "string",
        "value": "100%"
    },
    "_left_": {
        "type": "string",
        "value": "0dp"
    },
    "_margin_": [
        0,
        0,
        0,
        0
    ],
    "_orientation_": 1,
    "_padding_": [
        0,
        0,
        0,
        0
    ],
    "_percent_": true,
    "_skin_": "sd7313af5a784726a8f85255d800d7ee",
    "_top_": {
        "type": "string",
        "value": "0dp"
    },
    "_width_": {
        "type": "string",
        "value": "100%"
    },
    "canUpdateUI": true,
    "clipbounds": true,
    "containerweight": 0,
    "data": {},
    "enablescrolling": true,
    "id": "piechart",
    "info": null,
    "isvisible": true,
    "kuid": "g4e34f804f7549359d7d23e52f6158e1",
    "layouttype": 2,
    "masterType": 1,
    "name": "kony.ui.UserWidgetInstance",
    "parent": "Form1",
    "pf": "Form1",
    "snapgridsize": 10,
    "snaptogrid": true,
    "sourceUserWidget": "b54a4d19936043159966940875ffd799",
    "wType": "UserWidgetInstance"
}