{
    "@class": "com.kony.gen.viz.model.component.KVizButton",
    "DNDConfig": null,
    "__parentReadjusting__": false,
    "_height_": {
        "type": "string",
        "value": "50dp"
    },
    "_left_": {
        "type": "string",
        "value": "0dp"
    },
    "_margin_": [
        6,
        6,
        6,
        6
    ],
    "_padding_": [
        0,
        0,
        0,
        0
    ],
    "_render_": true,
    "_skin_": "s42097848aa844c9a25e6237b1b50a5b",
    "_text_": "",
    "_top_": {
        "type": "string",
        "value": "0dp"
    },
    "_width_": {
        "type": "string",
        "value": "50dp"
    },
    "android": {
        "render": false
    },
    "canUpdateUI": true,
    "containerweight": 100,
    "contentalignment": 5,
    "displaytext": true,
    "focusskin": "s86cba35d2a34a219807da2b84f4f553",
    "id": "iOSBackButton",
    "ide_onClick": "AS_Button_7005aa0756094cb1958b7d7945ddf4ed",
    "info": null,
    "iphone": {
        "psp": {
            "showProgressIndicator": false
        },
        "render": true
    },
    "isvisible": true,
    "kuid": "373e19cf43ab498eaf3f5a6c1b3b875f",
    "name": "kony.ui.Button",
    "onclick": "AS_Button_090d7c7471fa4ff0ad2c02b5d40eb99c",
    "parent": "titleBarAccountDetails",
    "pf": "frmSearchResultsKA",
    "showprogressindicator": false,
    "spaan": {
        "render": false
    },
    "spabb": {
        "render": false
    },
    "spaip": {
        "render": true
    },
    "spawinphone8": {
        "render": false
    },
    "wType": "Button",
    "winphone8": {
        "render": false
    },
    "zindex": 1
}