{
    "DNDConfig": null,
    "__parentReadjusting__": false,
    "_height_": {
        "type": "ref",
        "value": "preferred"
    },
    "_left_": {
        "type": "string",
        "value": "0dp"
    },
    "_margin_": [
        0,
        0,
        0,
        0
    ],
    "_padding_": [
        0,
        0,
        0,
        0
    ],
    "_skin_": "s77117634aa14e58908cea4332c51ada",
    "_top_": {
        "type": "string",
        "value": "0%"
    },
    "_width_": {
        "type": "string",
        "value": "100%"
    },
    "allboxes": [],
    "autogrowmode": 1,
    "canUpdateUI": true,
    "children": [
        "fromAccountNumberKA",
        "divider2",
        "flxFrom",
        "flxAmount",
        "toAccountNumberKA",
        "frmAccBranchCode",
        "toAccBranchCode",
        "flxTo"
    ],
    "clipbounds": true,
    "containerweight": 100,
    "enabled": false,
    "enablescrolling": true,
    "id": "additionalDetails1",
    "info": null,
    "isvisible": true,
    "kuid": "46b8c88697794e4985eb1a3073cf594e",
    "layouttype": 4,
    "name": "kony.ui.FlexContainer",
    "orientation": 6,
    "parent": "flxTransfers",
    "percent": true,
    "pf": "frmConfirmTransferKA",
    "snapgridsize": 10,
    "snaptogrid": true,
    "wType": "FlexContainer",
    "widgetalignment": 1,
    "zindex": 1
}