{
    "DNDConfig": null,
    "__parentReadjusting__": false,
    "_height_": {
        "type": "string",
        "value": "92%"
    },
    "_left_": {
        "type": "string",
        "value": "0dp"
    },
    "_margin_": [
        0,
        0,
        0,
        0
    ],
    "_orientation_": 6,
    "_padding_": [
        0,
        0,
        0,
        0
    ],
    "_percent_": true,
    "_skin_": "sa605bd9dbb249219998c81a7358aa42",
    "_top_": {
        "type": "string",
        "value": "8%"
    },
    "_width_": {
        "type": "string",
        "value": "100%"
    },
    "allboxes": [],
    "autogrowmode": 0,
    "canUpdateUI": true,
    "children": [
        "flxCurrBal",
        "flxFrmAc",
        "flxWebAmt",
        "flxWebFee",
        "flxAfterTopup",
        "CopyFlexContainer0fc7f7685c2ae49"
    ],
    "clipbounds": true,
    "containerweight": 100,
    "enablescrolling": true,
    "id": "flxWebCharge",
    "info": null,
    "isvisible": true,
    "kuid": "f1e962a060224705bb2afa65e9ed6a6e",
    "layouttype": 4,
    "name": "kony.ui.FlexContainer",
    "parent": "frmConfirmTransferKA",
    "pf": "frmConfirmTransferKA",
    "snapgridsize": 10,
    "snaptogrid": true,
    "wType": "FlexContainer",
    "widgetalignment": 1,
    "zindex": 100
}