{
    "DNDConfig": null,
    "__parentReadjusting__": false,
    "_height_": {
        "type": "string",
        "value": "25dp"
    },
    "_margin_": [
        0,
        0,
        0,
        0
    ],
    "_orientation_": 6,
    "_padding_": [
        0,
        0,
        0,
        0
    ],
    "_percent_": true,
    "_right_": {
        "type": "string",
        "value": "5%"
    },
    "_skin_": "s5384c55ad894841ae78a8cff35309bf",
    "_top_": {
        "type": "string",
        "value": "0dp"
    },
    "_width_": {
        "type": "string",
        "value": "44dp"
    },
    "allboxes": [],
    "autogrowmode": 0,
    "canUpdateUI": true,
    "centery": {
        "type": "string",
        "value": "50%"
    },
    "children": [
        "flxRoundDBlueOff",
        "flxNaveenbhaiKiLakeer"
    ],
    "clipbounds": true,
    "containerweight": 100,
    "enablescrolling": true,
    "id": "flxArabicSwitchOff",
    "ide_onClick": "AS_FlexContainer_d42bb2ce97534efab5537e961e08bbfd",
    "info": null,
    "isvisible": true,
    "kuid": "c95277af40984b5db9d41f3eb0c9d541",
    "layouttype": 2,
    "name": "kony.ui.FlexContainer",
    "parent": "flxArabic",
    "pf": "frmSettingsKA",
    "snapgridsize": 10,
    "snaptogrid": true,
    "wType": "FlexContainer",
    "widgetalignment": 1,
    "zindex": 1
}