{
    "DNDConfig": null,
    "__parentReadjusting__": false,
    "_height_": {
        "type": "string",
        "value": "50dp"
    },
    "_left_": {
        "type": "string",
        "value": "0dp"
    },
    "_margin_": [
        0,
        0,
        0,
        0
    ],
    "_padding_": [
        0,
        0,
        0,
        0
    ],
    "_skin_": "s9c14c5cfa624594965bca8fa71d4023",
    "_top_": {
        "type": "string",
        "value": "0dp"
    },
    "_width_": {
        "type": "string",
        "value": "100%"
    },
    "allboxes": [],
    "autogrowmode": 0,
    "canUpdateUI": true,
    "children": [
        "CopylblSettingsNameKA0c1f0212a30cd44",
        "payment",
        "CopyimgProgressKey0e05de2940dd043"
    ],
    "clipbounds": true,
    "containerweight": 100,
    "enabled": false,
    "enablescrolling": true,
    "id": "FlxPaymentDue",
    "ide_onClick": "AS_FlexContainer_d0acb051ddef4b1fbeecf23ce4d42b13",
    "info": null,
    "isTemplate": true,
    "isvisible": true,
    "kuid": "4085f2ae0aaa4eb98b3aae3efe99c62b",
    "layouttype": 2,
    "name": "kony.ui.FlexContainer",
    "orientation": 6,
    "parent": "androidAlerts",
    "percent": true,
    "pf": "frmAccountAlertsKA",
    "snapgridsize": 10,
    "snaptogrid": true,
    "wType": "FlexContainer",
    "widgetalignment": 1
}