{
    "@class": "com.kony.gen.viz.model.component.KVizTextBox2",
    "DNDConfig": null,
    "__parentReadjusting__": false,
    "_bottom_": {
        "type": "string",
        "value": "4%"
    },
    "_height_": {
        "type": "string",
        "value": "60%"
    },
    "_margin_": [
        0,
        0,
        0,
        0
    ],
    "_padding_": [
        3,
        0,
        0,
        0
    ],
    "_placeholder_": "",
    "_skin_": "s029998596d3421892d0917ea7492e1d",
    "_text_": "",
    "_width_": {
        "type": "string",
        "value": "100%"
    },
    "accessibilityconfig": {
        "a11yLabel": "Enter your Username"
    },
    "android": {
        "ide_onEndEditing": "AS_TextField_bbf6affe7faa4cc0a3c3c310ad34a983",
        "onEndEditing": "AS_TextField_ja28486c7a3043998424fea66ecabfa6",
        "psp": {
            "keyboardActionLabel": 12
        }
    },
    "autocapitalize": "none",
    "autocomplete": false,
    "autocorrect": false,
    "autofilter": false,
    "canUpdateUI": true,
    "centerx": "50%",
    "containerheight": "",
    "containerheightmode": 1,
    "containerweight": 100,
    "contentalignment": 4,
    "disabledSkins": {},
    "focusskin": "s029998596d3421892d0917ea7492e1d",
    "id": "tbxAddressBank",
    "ide_onDone": "AS_TextField_a1a7a1ddf2664980aff9f3852c61bc7a",
    "ide_onTextChange": "AS_TextField_beae2cc3877a4d759b1db2321a58158e",
    "ide_onTouchEnd": "AS_TextField_d7783b0248124d92b2c443f3ce53e0e4",
    "info": null,
    "iphone": {
        "ide_onEndEditing": "AS_TextField_hd1921f8f21d4f06aa5983df19b82b7b",
        "onBeginEditing": "AS_TextField_c0713df9ccfc44dba27a3f28bca350b8",
        "onEndEditing": "AS_TextField_c0713df9ccfc44dba27a3f28bca350b8",
        "psp": {
            "keyboardActionLabel": 1
        }
    },
    "isvisible": true,
    "keyboardactionlabel": 1,
    "keyboardtype": "A",
    "kuid": "id6966a763f84c3591891902d16ec7a5",
    "maxtextlength": 75,
    "mode": "A",
    "name": "kony.ui.TextBox2",
    "parent": "flxAddressBank",
    "pf": "frmAddExternalAccountKA",
    "securetextentry": false,
    "textinputmode": "A",
    "viewtype": "default",
    "wType": "TextField",
    "zindex": 1
}