{
    "DNDConfig": null,
    "__parentReadjusting__": false,
    "_height_": {
        "type": "string",
        "value": "88%"
    },
    "_left_": {
        "type": "string",
        "value": "0%"
    },
    "_margin_": [
        0,
        0,
        0,
        0
    ],
    "_orientation_": 6,
    "_padding_": [
        0,
        0,
        0,
        0
    ],
    "_percent_": true,
    "_skin_": "sa605bd9dbb249219998c81a7358aa42",
    "_top_": {
        "type": "string",
        "value": "12%"
    },
    "_width_": {
        "type": "string",
        "value": "100%"
    },
    "allboxes": [],
    "autogrowmode": 0,
    "canUpdateUI": true,
    "children": [
        "btnRege",
        "imgBeneficiary",
        "lblMessageTitle",
        "lblMessage",
        "btnAddBene"
    ],
    "clipbounds": true,
    "containerweight": 100,
    "enablescrolling": true,
    "id": "flxCheckRegJomopay",
    "info": null,
    "isvisible": false,
    "kuid": "ba95f1bc13484c4ba09fcc9fdf6f94fe",
    "layouttype": 2,
    "name": "kony.ui.FlexContainer",
    "parent": "frmJoMoPayLanding",
    "pf": "frmJoMoPayLanding",
    "snapgridsize": 10,
    "snaptogrid": true,
    "wType": "FlexContainer",
    "widgetalignment": 1,
    "zindex": 6
}