{
    "@class": "com.kony.gen.viz.model.component.KVizLabel",
    "DNDConfig": null,
    "__parentReadjusting__": false,
    "_height_": {
        "type": "ref",
        "value": "preferred"
    },
    "_margin_": [
        1,
        1,
        1,
        1
    ],
    "_padding_": [
        0,
        0,
        0,
        0
    ],
    "_skin_": "sfa85a4ef8284e719cb4f28b81b09444",
    "_text_": " 4:33 PM",
    "_top_": {
        "type": "string",
        "value": "37dp"
    },
    "_width_": {
        "type": "ref",
        "value": "preferred"
    },
    "_wrapping_": 2,
    "canUpdateUI": true,
    "centerx": {
        "type": "string",
        "value": "50%"
    },
    "containerweight": 100,
    "contentalignment": 5,
    "enabled": false,
    "id": "CopyaccountDetailsTime0jb7b50b0fdb94d",
    "info": null,
    "ipad": {
        "psp": {
            "wrapping": 2
        }
    },
    "iphone": {
        "psp": {
            "wrapping": 2
        }
    },
    "isvisible": false,
    "kuid": "jd5bba251d2747359d62d81c6a32fbc1",
    "name": "kony.ui.Label",
    "parent": "flxDealsTopBar",
    "pf": "frmAccountDetailKA",
    "tooltip": "",
    "wType": "Label"
}