{
    "DNDConfig": null,
    "__parentReadjusting__": false,
    "_height_": {
        "type": "string",
        "value": "100%"
    },
    "_left_": {
        "type": "string",
        "value": "0dp"
    },
    "_margin_": [
        0,
        0,
        0,
        0
    ],
    "_orientation_": 6,
    "_padding_": [
        0,
        0,
        0,
        0
    ],
    "_percent_": true,
    "_skin_": "s388f0c575ef4d08ac3a5ed0a4b90085",
    "_top_": {
        "type": "string",
        "value": "0dp"
    },
    "_width_": {
        "type": "string",
        "value": "100%"
    },
    "allboxes": [],
    "autogrowmode": 0,
    "canUpdateUI": true,
    "children": [
        "CopyinterestEarnedLabel0g3277f09dbea43",
        "CopylblCcPaynowIcon0g68c0fdb1f2049",
        "CopylblEdit0cb8bdbb5180c41"
    ],
    "clipbounds": true,
    "containerweight": 100,
    "enablescrolling": true,
    "id": "CopyflxRight0d26c9310984f45",
    "ide_onClick": "AS_FlexContainer_a7f78f522d994143a2ed3d7942479db3",
    "info": null,
    "isvisible": true,
    "kuid": "cafff580881042c29a1c4d9216b3ffcb",
    "layouttype": 2,
    "name": "kony.ui.FlexContainer",
    "parent": "flxRequestStatement",
    "pf": "frmAccountDetailKA",
    "snapgridsize": 10,
    "snaptogrid": true,
    "wType": "FlexContainer",
    "widgetalignment": 1,
    "zindex": 1
}