{
    "DNDConfig": null,
    "__parentReadjusting__": false,
    "_height_": {
        "type": "string",
        "value": "100dp"
    },
    "_left_": {
        "type": "string",
        "value": "10%"
    },
    "_margin_": [
        0,
        0,
        0,
        0
    ],
    "_padding_": [
        0,
        0,
        0,
        0
    ],
    "_skin_": "sea3237c8c1f4d00a700dfbca8bea354",
    "_top_": {
        "type": "string",
        "value": "360dp"
    },
    "_width_": {
        "type": "string",
        "value": "33%"
    },
    "allboxes": [],
    "autogrowmode": 0,
    "canUpdateUI": true,
    "children": [
        "Copyflxm0i816106a1a5443",
        "CopyMorebtn0ba65aed5bb2944",
        "CopyMoreHiddenKey0g74fe996bdc942"
    ],
    "clipbounds": false,
    "containerweight": 100,
    "enabled": false,
    "enablescrolling": true,
    "id": "CopyflxMoreOption0b2846dabfe6446",
    "info": null,
    "isvisible": true,
    "kuid": "f3564a1a541f4bf1968f0ce28ee07705",
    "layouttype": 2,
    "name": "kony.ui.FlexContainer",
    "orientation": 6,
    "parent": "CopyflxMore0dcd89fda4fe54d",
    "percent": true,
    "pf": "frmAccountDetailKA",
    "snapgridsize": 10,
    "snaptogrid": true,
    "wType": "FlexContainer",
    "widgetalignment": 1,
    "zindex": 1
}