{
    "DNDConfig": null,
    "__parentReadjusting__": false,
    "_height_": {
        "type": "string",
        "value": "100dp"
    },
    "_left_": {
        "type": "string",
        "value": "0"
    },
    "_margin_": [
        0,
        0,
        0,
        0
    ],
    "_padding_": [
        0,
        0,
        0,
        0
    ],
    "_skin_": "s3eaae82ed2b4f849e66577b8bc7b07b",
    "_width_": {
        "type": "string",
        "value": "33%"
    },
    "allboxes": [],
    "autogrowmode": 0,
    "canUpdateUI": true,
    "centery": {
        "type": "string",
        "value": "50%"
    },
    "children": [
        "CopyaccountDetailsFlx0g3234d5eb5c249",
        "CopybuttonDivider0gfb5e73d34eb4a",
        "CopyAccountDetailsButton0f3c910d09abe41"
    ],
    "clipbounds": false,
    "containerweight": 100,
    "enabled": false,
    "enablescrolling": true,
    "id": "CopyAccountDetailsWrapper0c341cf3e0a544b",
    "info": null,
    "isvisible": false,
    "kuid": "afdbb97774e6414e9aabc47b9f41c583",
    "layouttype": 2,
    "masterType": 1,
    "name": "kony.ui.FlexContainer",
    "orientation": 6,
    "parent": "CopyactionWrapper0d3c3d4aa2a8548",
    "percent": true,
    "pf": "frmAccountDetailKA",
    "snapgridsize": 10,
    "snaptogrid": true,
    "wType": "FlexContainer",
    "widgetalignment": 1,
    "zindex": 1
}