{
    "@class": "com.kony.gen.viz.model.component.KVizButton",
    "DNDConfig": null,
    "__parentReadjusting__": false,
    "_height_": {
        "type": "string",
        "value": "80%"
    },
    "_margin_": [
        6,
        6,
        6,
        6
    ],
    "_padding_": [
        0,
        0,
        0,
        0
    ],
    "_skin_": "s51d68053cae4eba826625de179be4ae",
    "_text_": "",
    "_width_": {
        "type": "string",
        "value": "80%"
    },
    "canUpdateUI": true,
    "centerx": {
        "type": "string",
        "value": "50%"
    },
    "centery": {
        "type": "string",
        "value": "50%"
    },
    "containerweight": 100,
    "contentalignment": 5,
    "displaytext": true,
    "focusskin": "s9dd8fe1ab7b4f26aad257d210a41f6e",
    "id": "btnNewDeposit",
    "info": null,
    "isvisible": true,
    "kuid": "b08ac1367ed246adb27642f10cc9d913",
    "name": "kony.ui.Button",
    "parent": "flxNewDepositButton",
    "pf": "frmAccountsLandingKA",
    "wType": "Button",
    "zindex": 999
}