{
    "@class": "com.kony.gen.viz.model.component.KVizButton",
    "DNDConfig": null,
    "__parentReadjusting__": false,
    "_height_": {
        "type": "string",
        "value": "40dp"
    },
    "_left_": {
        "type": "string",
        "value": "57dp"
    },
    "_margin_": [
        6,
        6,
        6,
        6
    ],
    "_padding_": [
        0,
        0,
        0,
        0
    ],
    "_skin_": "s51d68053cae4eba826625de179be4ae",
    "_text_": "Next",
    "_top_": {
        "type": "string",
        "value": "5dp"
    },
    "_width_": {
        "type": "string",
        "value": "60%"
    },
    "canUpdateUI": true,
    "centerx": {
        "type": "string",
        "value": "50%"
    },
    "containerweight": 100,
    "contentalignment": 5,
    "disabledSkins": {},
    "displaytext": true,
    "focusskin": "sbe13586f59d4a768bfe23c1b619f8c6",
    "id": "btnnextuserdetails",
    "ide_onClick": "AS_Button_3f79fe5f9b354b35a72e79011b895ff7",
    "info": null,
    "isvisible": true,
    "kuid": "7eec6fd4928f481fb20484bc3e017d61",
    "name": "kony.ui.Button",
    "parent": "flxbottombtns",
    "pf": "frmEnrolluserLandingKA",
    "texti18n": "i18n.login.next",
    "wType": "Button"
}