{
    "@class": "com.kony.gen.viz.model.component.KVizImage2",
    "DNDConfig": null,
    "__parentReadjusting__": false,
    "_base64_": null,
    "_height_": {
        "type": "string",
        "value": "100%"
    },
    "_margin_": [
        0,
        0,
        0,
        0
    ],
    "_padding_": [
        0,
        0,
        0,
        0
    ],
    "_skin_": "sa625024fef740fea5133ed43bbfac5f",
    "_src_": "bg04.png",
    "_width_": {
        "type": "string",
        "value": "100%"
    },
    "canUpdateUI": true,
    "centerx": {
        "type": "string",
        "value": "50%"
    },
    "centery": {
        "type": "string",
        "value": "50%"
    },
    "containerweight": 100,
    "context": {
        "channel": "mobile",
        "formID": "frmEnrolluserLandingKA",
        "ispercent": true,
        "platform": "android",
        "templateType": "forms",
        "topLevelBox": null
    },
    "id": "imgBack",
    "imagescalemode": 0,
    "info": null,
    "invokedProperty": "src",
    "isvisible": false,
    "kuid": "cca3a8f9ce6147f9a7aac8f4005102be",
    "name": "kony.ui.Image2",
    "parent": "frmEnrolluserLandingKA",
    "pf": "frmEnrolluserLandingKA",
    "srcType": 1,
    "wType": "Image",
    "widgetalignment": 5,
    "zindex": 1
}