{
    "@class": "com.kony.gen.viz.model.component.KVizListBox",
    "DNDConfig": null,
    "__parentReadjusting__": false,
    "_height_": {
        "type": "string",
        "value": "40dp"
    },
    "_left_": {
        "type": "string",
        "value": "2.50%"
    },
    "_margin_": [
        0,
        0,
        0,
        0
    ],
    "_padding_": [
        0,
        0,
        0,
        0
    ],
    "_skin_": "s3d98d90f43443108f430d71c4c15ca7",
    "_top_": {
        "type": "string",
        "value": "10.80%"
    },
    "_width_": {
        "type": "string",
        "value": "270dp"
    },
    "canUpdateUI": true,
    "containerweight": 100,
    "contentalignment": 4,
    "context": {
        "channel": "mobile",
        "formID": "frmEnrolluserLandingKA",
        "ispercent": true,
        "platform": "android",
        "templateType": "forms",
        "topLevelBox": null
    },
    "dropdownimage": "dropdown.png",
    "groupcells": false,
    "id": "lstboxaccountype",
    "info": null,
    "isvisible": true,
    "kuid": "31936668403943cebea042530c16afcf",
    "masterdata": [
        [
            "lb1",
            "Select Account",
            "i18n.login.frmEnrolluserLandingKA.ListBox03b5234b26e6743.lb1"
        ],
        [
            "lb2",
            "Checking Account",
            "i18n.login.frmEnrolluserLandingKA.ListBox03b5234b26e6743.lb2"
        ],
        [
            "lb3",
            "Savings Account",
            "i18n.login.frmEnrolluserLandingKA.ListBox03b5234b26e6743.lb3"
        ],
        [
            "lb4",
            "Business Account",
            "i18n.login.frmEnrolluserLandingKA.ListBox03b5234b26e6743.lb4"
        ]
    ],
    "name": "kony.ui.ListBox",
    "parent": "flexbasicinfo",
    "pf": "frmEnrolluserLandingKA",
    "selectedkey": "lb3",
    "selectedkeys": null,
    "selectedkeyvalue": [
        "lb3",
        null
    ],
    "selectedkeyvalues": null,
    "size": 18,
    "viewconfig": {
        "toggleViewConfig": {
            "viewStyle": 0
        }
    },
    "viewtype": 0,
    "wType": "ListBox",
    "zindex": 1
}