{
    "@class": "com.kony.gen.viz.model.component.KVizLabel",
    "DNDConfig": null,
    "__parentReadjusting__": false,
    "_height_": {
        "type": "string",
        "value": "60%"
    },
    "_margin_": [
        1,
        1,
        1,
        1
    ],
    "_padding_": [
        0,
        0,
        0,
        0
    ],
    "_skin_": "s8de8228b4904625954321b9c3ede5a1",
    "_text_": "",
    "_width_": {
        "type": "string",
        "value": "60%"
    },
    "_wrapping_": 2,
    "android": {
        "textStyle": {
            "letterSpacing": 0,
            "strikeThrough": false
        }
    },
    "canUpdateUI": true,
    "centerx": {
        "type": "string",
        "value": "50%"
    },
    "centery": {
        "type": "string",
        "value": "50%"
    },
    "containerId": true,
    "containerweight": 100,
    "contentalignment": 5,
    "id": "CopylblIncommingRing0db621a02819242",
    "info": null,
    "ipad": {
        "psp": {
            "wrapping": 2
        }
    },
    "iphone": {
        "psp": {
            "wrapping": 2
        }
    },
    "iscustomlayout": false,
    "isvisible": true,
    "kuid": "hd50b48f2b3149e9b60953b67dc757ae",
    "name": "kony.ui.Label",
    "parent": "CopybtnNav0b0169acff9c84a",
    "pf": "tmpSegCardsLanding",
    "retainflexpositionproperties": false,
    "texti18n": "i18n.common.reverseback",
    "textstyle": {},
    "tooltip": "",
    "wType": "Label",
    "zindex": 2
}