{
    "@class": "com.kony.gen.viz.model.component.KVizLabel",
    "DNDConfig": null,
    "_margin_": [
        40,
        3,
        1,
        3
    ],
    "_padding_": [
        0,
        0,
        0,
        0
    ],
    "_skin_": "s22e125e32e949dca335f945f9ac0cab",
    "_text_": "Stop Card",
    "_wrapping_": 2,
    "android": {
        "textStyle": {
            "letterSpacing": 0,
            "strikeThrough": false
        }
    },
    "canUpdateUI": true,
    "containerweight": 100,
    "contentalignment": 4,
    "donotUpdateContainerWeight": false,
    "id": "lblTitle",
    "info": null,
    "ipad": {
        "psp": {
            "wrapping": 2
        }
    },
    "iphone": {
        "psp": {
            "wrapping": 2
        }
    },
    "isvisible": true,
    "kuid": "j9069e85f6a146eeadc7c554b29e6e5c",
    "margininpixel": false,
    "name": "kony.ui.Label",
    "paddInPixel": [
        0,
        0,
        0,
        0
    ],
    "parent": "CopyHBxTitle",
    "pf": "popupStopCard",
    "tooltip": "",
    "wType": "Label"
}