{
    "@class": "com.kony.gen.viz.model.container.KVizForm",
    "DNDConfig": null,
    "_margin_": [
        0,
        0,
        0,
        0
    ],
    "_orientation_": 1,
    "_padding_": [
        0,
        0,
        0,
        0
    ],
    "_percent_": true,
    "_skin_": "sac3203c6540497284615c23ffe67264",
    "_title_": null,
    "addWidgetsdone": false,
    "allboxes": [],
    "android": {
        "psp": {
            "windowSoftInputMode": 2
        }
    },
    "canUpdateUI": true,
    "children": [
        "CopyHBxTitle",
        "HBxTitle",
        "HBxCardCancelReason",
        "HBxSubmit"
    ],
    "containerweight": 90,
    "currentLocale": "default",
    "desktopweb": {
        "psp": {
            "titleBarConfig": {
                "closeIcon": "close.png",
                "maxIcon": "max.png",
                "minIcon": "min.png"
            }
        }
    },
    "device": "iPhone6",
    "displayorientation": 3,
    "enabledforidletimeout": false,
    "id": "popupStopCard",
    "info": null,
    "initdone": false,
    "inputaccessoryviewtype": 4,
    "ismodal": true,
    "isvisible": true,
    "kuid": "jcf5b63bf56e4bb187f679c598c3caf4",
    "name": "kony.ui.Popup",
    "paddinginpixel": false,
    "platform": "iphone",
    "prevDevice": "iPhone6",
    "prevPlatform": "iphone",
    "retainscrollposition": false,
    "shellCSS": "iOS_iPhone6",
    "titlebar": true,
    "transparencybehindthepopup": 25,
    "wType": "Popup"
}