{
    "@class": "com.kony.gen.viz.model.component.KVizTextBox2",
    "DNDConfig": null,
    "__parentReadjusting__": false,
    "_height_": {
        "type": "string",
        "value": "45%"
    },
    "_left_": {
        "type": "string",
        "value": "3%"
    },
    "_margin_": [
        0,
        0,
        0,
        0
    ],
    "_padding_": [
        3,
        0,
        0,
        0
    ],
    "_placeholder_": "Enter Card Number",
    "_skin_": "sec55cbbe41949f89bfa1bc2b2e10505",
    "_text_": "",
    "_top_": {
        "type": "string",
        "value": "40%"
    },
    "_width_": {
        "type": "string",
        "value": "90%"
    },
    "autocapitalize": "none",
    "autocomplete": false,
    "autocorrect": false,
    "autofilter": false,
    "canUpdateUI": true,
    "containerheight": "",
    "containerheightmode": 1,
    "containerweight": 100,
    "contentalignment": 4,
    "focusskin": "sec55cbbe41949f89bfa1bc2b2e10505",
    "id": "txtBoxOtherCard",
    "ide_onTextChange": "AS_TextField_b4450214b4fa4eddaaeef3b478ce03a6",
    "info": null,
    "isvisible": false,
    "keyboardstyle": "digitpad",
    "keyboardtype": "A",
    "kuid": "c41042b8494a40b887531ad6b8b71df5",
    "maxtextlength": 16,
    "mode": "N",
    "name": "kony.ui.TextBox2",
    "parent": "flxCardDetails",
    "pf": "frmCreditCardPayment",
    "placeholderi18n": "i18n.card.entercardnumber",
    "securetextentry": false,
    "textinputmode": "N",
    "viewtype": "default",
    "wType": "TextField",
    "zindex": 2
}