{
    "@class": "com.kony.gen.viz.model.component.KVizButton",
    "DNDConfig": null,
    "__parentReadjusting__": false,
    "_height_": {
        "type": "string",
        "value": "0%"
    },
    "_left_": {
        "type": "string",
        "value": "0%"
    },
    "_margin_": [
        6,
        6,
        6,
        6
    ],
    "_padding_": [
        0,
        0,
        0,
        0
    ],
    "_skin_": "s1d911d4badb463ca23420ba1f664d71",
    "_text_": "",
    "_top_": {
        "type": "string",
        "value": "0%"
    },
    "_width_": {
        "type": "string",
        "value": "0%"
    },
    "canUpdateUI": true,
    "containerweight": 100,
    "contentalignment": 5,
    "displaytext": true,
    "focusskin": "s10149300144466da99cbf92f4fdacc8",
    "id": "btn",
    "info": null,
    "isvisible": true,
    "kuid": "f70e553215db4b21aa5edd87d417472d",
    "name": "kony.ui.Button",
    "parent": "flxBack",
    "pf": "frmRequestStatementAccounts",
    "wType": "Button",
    "zindex": 1
}