{
    "@class": "com.kony.gen.viz.model.component.KVizDateField",
    "DNDConfig": null,
    "Image": "tran.png",
    "__parentReadjusting__": false,
    "_data_": null,
    "_date_": "22/11/2018",
    "_height_": {
        "type": "string",
        "value": "50%"
    },
    "_left_": {
        "type": "string",
        "value": "84.51%"
    },
    "_margin_": [
        0,
        0,
        0,
        0
    ],
    "_padding_": [
        0,
        0,
        0,
        0
    ],
    "_skin_": "s7f6aa6f95d44e4bb173038bc3bc2911",
    "_top_": {
        "type": "string",
        "value": "28%"
    },
    "_width_": {
        "type": "string",
        "value": "12.49%"
    },
    "advview": "default",
    "calendaricon": "tran.png",
    "canUpdateUI": true,
    "containerweight": 100,
    "contentalignment": 5,
    "datecomponents": [
        22,
        11,
        2018,
        0,
        0,
        0
    ],
    "dateeditable": true,
    "dateformat": "MM/dd/yyyy",
    "day": 22,
    "daytextalignmentincell": 5,
    "focusskin": "s7f6aa6f95d44e4bb173038bc3bc2911",
    "format": "MM/dd/yyyy",
    "formatteddate": "11/22/2018",
    "hidedaysheader": false,
    "hidemonthsheader": false,
    "hour": 0,
    "id": "CalFrom",
    "ide_onSelection": "AS_Calendar_h74d563d409144b382240b5fef7ffd4e",
    "info": null,
    "isvisible": true,
    "kuid": "i9632e18b33b48a1a456888188050653",
    "minutes": 0,
    "month": 11,
    "name": "kony.ui.Calendar",
    "noofmonths": 1,
    "pagedate": "/2018",
    "parent": "flxFrom",
    "pf": "frmRequestStatementAccounts",
    "seconds": 0,
    "selectdate": "//2018",
    "viewtype": "default",
    "wType": "Calendar",
    "widgetalignment": 5,
    "year": 2018,
    "zindex": 10
}