{
    "@class": "com.kony.gen.viz.model.component.KVizLabel",
    "DNDConfig": null,
    "__parentReadjusting__": false,
    "_bottom_": {
        "type": "string",
        "value": "0%"
    },
    "_height_": {
        "type": "string",
        "value": "48%"
    },
    "_left_": {
        "type": "string",
        "value": "5%"
    },
    "_margin_": [
        1,
        1,
        1,
        1
    ],
    "_padding_": [
        0,
        0,
        0,
        0
    ],
    "_skin_": "s4f9b513285f445db95f5bd98732b550",
    "_text_": "Account Number",
    "_top_": {
        "type": "string",
        "value": "28%"
    },
    "_width_": {
        "type": "string",
        "value": "88%"
    },
    "_wrapping_": 2,
    "accessibilityconfig": {},
    "android": {
        "textStyle": {
            "letterSpacing": 0,
            "strikeThrough": false
        }
    },
    "canUpdateUI": true,
    "containerweight": 100,
    "contentalignment": 4,
    "id": "lblNumber",
    "ide_onTouchEnd": "AS_Label_afeefa94cac342979c854345abc52ace",
    "info": null,
    "ipad": {
        "psp": {
            "wrapping": 2
        }
    },
    "iphone": {
        "psp": {
            "textCopyable": false,
            "wrapping": 2
        }
    },
    "isvisible": true,
    "kuid": "h55eb0152327463b81229639629f3ae9",
    "name": "kony.ui.Label",
    "paddinginpixel": false,
    "parent": "flxAccountNumber",
    "pf": "frmRequestStatementAccounts",
    "tooltip": "",
    "wType": "Label",
    "zindex": 1
}