{
    "@class": "com.kony.gen.viz.model.container.KVizSegment2",
    "DNDConfig": null,
    "__parentReadjusting__": false,
    "_bounces_": false,
    "_data_": [
        [
            {
                "lblTitle": {
                    "@class": "com.viz.ide.model.segment.SimpleTextSegmentData",
                    "text": "Label"
                }
            },
            [
                {
                    "lblAccountName": {
                        "@class": "com.viz.ide.model.segment.SimpleTextSegmentData",
                        "text": "test"
                    },
                    "lblAccountNickName": {
                        "@class": "com.viz.ide.model.segment.SimpleTextSegmentData",
                        "text": "test"
                    },
                    "lblAccountNumber": {
                        "@class": "com.viz.ide.model.segment.SimpleTextSegmentData",
                        "text": "test"
                    },
                    "lblDefaultAccounts": {
                        "@class": "com.viz.ide.model.segment.SimpleTextSegmentData",
                        "text": ""
                    },
                    "lblLinkAccounts": {
                        "@class": "com.viz.ide.model.segment.SimpleTextSegmentData",
                        "text": ""
                    },
                    "lblTick": {
                        "@class": "com.viz.ide.model.segment.SimpleTextSegmentData",
                        "text": "r"
                    }
                },
                {
                    "lblAccountName": {
                        "@class": "com.viz.ide.model.segment.SimpleTextSegmentData",
                        "text": "test"
                    },
                    "lblAccountNickName": {
                        "@class": "com.viz.ide.model.segment.SimpleTextSegmentData",
                        "text": "test"
                    },
                    "lblAccountNumber": {
                        "@class": "com.viz.ide.model.segment.SimpleTextSegmentData",
                        "text": "test"
                    },
                    "lblDefaultAccounts": {
                        "@class": "com.viz.ide.model.segment.SimpleTextSegmentData",
                        "text": ""
                    },
                    "lblLinkAccounts": {
                        "@class": "com.viz.ide.model.segment.SimpleTextSegmentData",
                        "text": ""
                    },
                    "lblTick": {
                        "@class": "com.viz.ide.model.segment.SimpleTextSegmentData",
                        "text": "r"
                    }
                }
            ]
        ],
        [
            {
                "lblTitle": {
                    "@class": "com.viz.ide.model.segment.SimpleTextSegmentData",
                    "text": "Label"
                }
            },
            [
                {
                    "lblAccountName": {
                        "@class": "com.viz.ide.model.segment.SimpleTextSegmentData",
                        "text": "test"
                    },
                    "lblAccountNickName": {
                        "@class": "com.viz.ide.model.segment.SimpleTextSegmentData",
                        "text": "test"
                    },
                    "lblAccountNumber": {
                        "@class": "com.viz.ide.model.segment.SimpleTextSegmentData",
                        "text": "test"
                    },
                    "lblDefaultAccounts": {
                        "@class": "com.viz.ide.model.segment.SimpleTextSegmentData",
                        "text": ""
                    },
                    "lblLinkAccounts": {
                        "@class": "com.viz.ide.model.segment.SimpleTextSegmentData",
                        "text": ""
                    },
                    "lblTick": {
                        "@class": "com.viz.ide.model.segment.SimpleTextSegmentData",
                        "text": "r"
                    }
                },
                {
                    "lblAccountName": {
                        "@class": "com.viz.ide.model.segment.SimpleTextSegmentData",
                        "text": "test"
                    },
                    "lblAccountNickName": {
                        "@class": "com.viz.ide.model.segment.SimpleTextSegmentData",
                        "text": "test"
                    },
                    "lblAccountNumber": {
                        "@class": "com.viz.ide.model.segment.SimpleTextSegmentData",
                        "text": "test"
                    },
                    "lblDefaultAccounts": {
                        "@class": "com.viz.ide.model.segment.SimpleTextSegmentData",
                        "text": ""
                    },
                    "lblLinkAccounts": {
                        "@class": "com.viz.ide.model.segment.SimpleTextSegmentData",
                        "text": ""
                    },
                    "lblTick": {
                        "@class": "com.viz.ide.model.segment.SimpleTextSegmentData",
                        "text": "r"
                    }
                }
            ]
        ]
    ],
    "_height_": {
        "type": "string",
        "value": "85%"
    },
    "_indicator_": "none",
    "_left_": {
        "type": "string",
        "value": "0%"
    },
    "_margin_": [
        0,
        0,
        0,
        0
    ],
    "_orientation_": 2,
    "_padding_": [
        0,
        0,
        0,
        0
    ],
    "_top_": {
        "type": "string",
        "value": "0%"
    },
    "_width_": {
        "type": "string",
        "value": "100%"
    },
    "autogrowmode": 0,
    "canUpdateUI": true,
    "containerweight": 100,
    "counter": "11",
    "focusedindex": null,
    "focuseditem": null,
    "groupcells": false,
    "hasSections": true,
    "id": "segLinkedAccounts",
    "info": null,
    "ipad": {
        "psp": {
            "indicator": "rowselect"
        }
    },
    "iphone": {
        "psp": {
            "bounces": false,
            "indicator": "none",
            "showProgressIndicator": false
        }
    },
    "isvisible": true,
    "kuid": "e8f3b54bde7d4fb3bd1f8101d65ff457",
    "masterdata": {},
    "name": "kony.ui.SegmentedUI2",
    "needpageindicator": true,
    "pageoffdotimage": "pageoffdot.png",
    "pageondotimage": "pageondot.png",
    "paginationconfig": {
        "position": "bottom"
    },
    "parent": "flxBody",
    "pf": "frmCardLinkedAccountsConfirm",
    "retainselection": false,
    "rowTemplateId": "ga54dd6d57f945839065f3f22ca7c667",
    "rowcounter": 1,
    "rowfocusskin": "s27c76e85b844e03945d12f1113a8f87",
    "rowskin": "s27c76e85b844e03945d12f1113a8f87",
    "rowtemplate": "flxtemplateLinkedAccounts",
    "screenlevelwidget": false,
    "seccounter": 1,
    "sectionHeaderTemplateId": "09354b96ead74a75a4ec01ad2917d8e5",
    "sectionheaderskin": "s67621b8a82d49f285da06b4f5a0c993",
    "sectionheadertemplate": "FlexContainer06d150d0ad52f42",
    "selectedRows": null,
    "selectedState": false,
    "selectedindex": null,
    "selectedindices": null,
    "selecteditems": null,
    "selectedsectionindex": 0,
    "selectionbehavior": "default",
    "separatorrequired": false,
    "separatorthickness": 0,
    "showprogressindicator": false,
    "showscrollbars": false,
    "viewtype": "tableview",
    "vizProps": {},
    "wType": "Segment",
    "widgetalignment": 5,
    "widgetdatamap": {
        "Copydivider0c263b496ea8345": "Copydivider0c263b496ea8345",
        "FlexContainer06d150d0ad52f42": "FlexContainer06d150d0ad52f42",
        "flxAccountDetails": "flxAccountDetails",
        "flxAccountLinkOptions": "flxAccountLinkOptions",
        "flxDefaultAccounts": "flxDefaultAccounts",
        "flxDivider": "flxDivider",
        "flxILineDisabled": "flxILineDisabled",
        "flxIcon1": "flxIcon1",
        "flxInnerDisabled": "flxInnerDisabled",
        "flxInnerEnabled": "flxInnerEnabled",
        "flxLineEnabled": "flxLineEnabled",
        "flxLinkAccounts": "flxLinkAccounts",
        "flxLinkedAccountsDisabled": "flxLinkedAccountsDisabled",
        "flxLinkedAccountsEnable": "flxLinkedAccountsEnable",
        "flxtemplateLinkedAccounts": "flxtemplateLinkedAccounts",
        "lblAccountName": "lblAccountName",
        "lblAccountNickName": "lblAccountNickName",
        "lblAccountNumber": "lblAccountNumber",
        "lblDefaultAccounts": "lblDefaultAccounts",
        "lblLinkAccounts": "lblLinkAccounts",
        "lblTick": "lblTick",
        "lblTitle": "lblTitle"
    },
    "zindex": 1
}