{
    "@class": "com.kony.gen.viz.model.component.KVizTextBox2",
    "DNDConfig": null,
    "__parentReadjusting__": false,
    "_height_": {
        "type": "string",
        "value": "96%"
    },
    "_left_": {
        "type": "string",
        "value": "13%"
    },
    "_margin_": [
        0,
        0,
        0,
        0
    ],
    "_padding_": [
        3,
        0,
        0,
        0
    ],
    "_placeholder_": "",
    "_skin_": "sac0e30474b94a11a212b03515324871",
    "_text_": "",
    "_top_": {
        "type": "string",
        "value": "0%"
    },
    "_width_": {
        "type": "string",
        "value": "80%"
    },
    "autocapitalize": "none",
    "autocomplete": false,
    "autocorrect": false,
    "autofilter": false,
    "canUpdateUI": true,
    "containerheight": "",
    "containerheightmode": 1,
    "containerweight": 100,
    "contentalignment": 4,
    "focusskin": "sac0e30474b94a11a212b03515324871",
    "id": "txtSearch",
    "ide_onTextChange": "AS_TextField_a125f69b88174470a998be56345fd45a",
    "info": null,
    "isvisible": true,
    "keyboardtype": "A",
    "kuid": "a45f6aa77ba34e4790ca4a73062287b4",
    "mode": "A",
    "name": "kony.ui.TextBox2",
    "parent": "flxSearch",
    "pf": "frmJomopayContacts",
    "placeholderi18n": "i18n.transfer.searchPlh",
    "securetextentry": false,
    "textinputmode": "A",
    "viewtype": "default",
    "wType": "TextField",
    "zindex": 2
}