{
    "@class": "com.kony.gen.viz.model.container.KVizScrollFlexForm",
    "DNDConfig": null,
    "_footers_": [],
    "_headers_": [],
    "_margin_": [
        0,
        0,
        0,
        0
    ],
    "_padding_": [
        0,
        0,
        0,
        0
    ],
    "_skin_": "saccb95b58984589af381140b9870839",
    "_title_": "",
    "addWidgetsdone": false,
    "allboxes": [],
    "allowhorizontalbounce": true,
    "allowverticalbounce": true,
    "android": {
        "ide_onDeviceBack": "AS_Form_b83b869f88684d768caf00545b527b5a",
        "inTransitionConfig": {
            "formAnimation": 0
        },
        "needAppMenu": false,
        "outTransitionConfig": {
            "formAnimation": 0
        },
        "psp": {
            "onDeviceMenu": "AS_Form_7bd60054fde04526964c31664fdb2cd9"
        }
    },
    "bounces": true,
    "canUpdateUI": true,
    "children": [
        "mainContainer",
        "FlexContainer0bf4a82f408fe42",
        "flxMain",
        "flxPOTPopup"
    ],
    "configurestatusbarstyle": true,
    "containerweight": 100,
    "currentLocale": "ar",
    "desktopweb": {
        "needAppMenu": false
    },
    "device": "GalaxyS5",
    "displayorientation": 1,
    "enabled": false,
    "enabledforidletimeout": true,
    "enablescrolling": true,
    "footer": "frmNewTransferKA_footer",
    "header": "frmNewTransferKA_header",
    "id": "frmNewTransferKA",
    "ide_preShow": "AS_Form_2c6c2ada167640f3aad28042887d1f94",
    "info": null,
    "initdone": false,
    "inputaccessoryviewtype": 3,
    "invokedProperty": "footers",
    "ipad": {
        "psp": {
            "inputAccessoryViewType": 4
        }
    },
    "iphone": {
        "inTransitionConfig": {
            "transitionDirection": "none",
            "transitionDuration": 0.3,
            "transitionEffect": "none"
        },
        "needAppMenu": false,
        "outTransitionConfig": {
            "transitionDirection": "none",
            "transitionDuration": 0.3,
            "transitionEffect": "none"
        },
        "psp": {
            "configureStatusBarStyle": true,
            "inputAccessoryViewType": 1,
            "maxZoomScale": 1,
            "minZoomScale": 1,
            "statusBarHidden": false,
            "statusBarStyle": "STATUS_BAR_STYLE_LIGHT_CONTENT",
            "titleBarAttributes": {
                "barStyle": 0,
                "hidesBackButton": true,
                "kuid": "a78939ef2e7342f98ad8d8430a75305d",
                "leftBarButtonItems": [],
                "leftItemsSupplementBackButton": true,
                "prompt": "",
                "renderTitleText": true,
                "rightBarButtonItems": [
                    {
                        "enabled": true,
                        "info": {
                            "title": "Cancel"
                        },
                        "kuid": "ea2185d6837e4b26bfa67b9ae40a8ddb",
                        "style": 0,
                        "tintColor": "33333300",
                        "type": 1
                    }
                ],
                "tintColor": "33333300",
                "translucent": true
            },
            "zoomScale": 1
        },
        "titleBar": false
    },
    "isvisible": true,
    "kuid": "2ac343500306428da0ceef91a3b44d18",
    "layouttype": 2,
    "maxZoomScale": 1,
    "minZoomScale": 1,
    "name": "kony.ui.Form2",
    "needappmenu": true,
    "onhide": "AS_Form_e24df0c038f444599c7d3788090a82cd",
    "orientation": 1,
    "paddinginpixel": false,
    "percent": true,
    "platform": "android",
    "postshow": "AS_Form_90d3d729d35e44bc97c0fda666091e5f",
    "preshow": "AS_Form_7f64d729628d48e383b3e7bb1c1a5416",
    "prevDevice": "iPhoneXS",
    "prevPlatform": "iphone",
    "retainscrollposition": false,
    "shellCSS": "and_GalaxyS5",
    "snapgridsize": 10,
    "snaptogrid": true,
    "spa": {
        "inTransitionConfig": {
            "formTransition": "none"
        },
        "outTransitionConfig": {
            "formTransition": "none"
        }
    },
    "spaan": {
        "needAppMenu": false
    },
    "spabb": {
        "needAppMenu": false
    },
    "spaip": {
        "needAppMenu": false
    },
    "spawinphone8": {
        "needAppMenu": false
    },
    "statusbarstyle": "STATUS_BAR_STYLE_LIGHT_CONTENT",
    "titleBarSkin": "se84cf96156c48bca40ac7667fa12b5c",
    "titlebar": true,
    "type": 3,
    "wType": "Form",
    "winphone8": {
        "inTransitionConfig": {
            "inTransition": "none",
            "transitionMode": "none",
            "transitionSpeed": 0
        },
        "needAppMenu": false,
        "outTransitionConfig": {
            "outTransition": "none",
            "transitionMode": "none",
            "transitionSpeed": 0
        }
    },
    "zoomScale": 1
}