{
    "@class": "com.kony.gen.viz.model.component.KVizTextBox2",
    "DNDConfig": null,
    "__parentReadjusting__": false,
    "_height_": {
        "type": "string",
        "value": "38dp"
    },
    "_left_": {
        "type": "string",
        "value": "5%"
    },
    "_margin_": [
        0,
        0,
        0,
        0
    ],
    "_padding_": [
        0,
        2,
        0,
        0
    ],
    "_placeholder_": "Enter Number of Recurrence",
    "_skin_": "sa553cd2e37a454d99f55466e489f5a4",
    "_text_": "",
    "_top_": {
        "type": "string",
        "value": "0dp"
    },
    "_width_": {
        "type": "string",
        "value": "96%"
    },
    "android": {
        "ide_onEndEditing": "AS_TextField_3a810bdc955242e8ab94af3a3ea47d27",
        "psp": {
            "keyboardActionLabel": 12
        }
    },
    "autocapitalize": "none",
    "autocomplete": false,
    "autocorrect": false,
    "autofilter": false,
    "canUpdateUI": true,
    "closebuttontext": "Done",
    "containerheight": "",
    "containerheightmode": 1,
    "containerweight": 100,
    "contentalignment": 4,
    "enabled": false,
    "focusskin": "sa553cd2e37a454d99f55466e489f5a4",
    "id": "tbxNumberOfTimes",
    "ide_onDone": "AS_TextField_674ba3f5a92b4b92aa00d87c16dc1304",
    "info": null,
    "iphone": {
        "ide_onEndEditing": "AS_TextField_4c3b50331ae24954ad6c6d6e4c9e957b",
        "onEndEditing": "AS_TextField_521006bc43bb469d9a715663c364ce11",
        "psp": {
            "closeButtonText": "Done",
            "showCloseButton": true
        }
    },
    "isvisible": true,
    "keyboardactionlabel": 12,
    "keyboardstyle": "number",
    "keyboardtype": "A",
    "kuid": "5ed001977e5b4ef4953d4c16c3f729c1",
    "maxtextlength": "",
    "mode": "N",
    "name": "kony.ui.TextBox2",
    "ondone": "AS_TextField_8a9be1b814cf473194c618b6b871bb16",
    "ontextchange": "AS_TextField_91b4005ad4ab47a0a7421f31088a5d49",
    "paddinginpixel": false,
    "parent": "flexNumberOfTimes",
    "pf": "frmNewTransferKA",
    "placeholderskin": "sa553cd2e37a454d99f55466e489f5a4",
    "securetextentry": false,
    "showclosebutton": false,
    "textinputmode": "N",
    "viewtype": "default",
    "wType": "TextField",
    "zindex": 1
}