{
    "@class": "com.kony.gen.viz.model.component.KVizImage2",
    "DNDConfig": null,
    "__parentReadjusting__": false,
    "_base64_": null,
    "_height_": {
        "type": "string",
        "value": "39%"
    },
    "_left_": {
        "type": "string",
        "value": "0dp"
    },
    "_margin_": [
        0,
        0,
        0,
        0
    ],
    "_padding_": [
        0,
        0,
        0,
        0
    ],
    "_skin_": "sa625024fef740fea5133ed43bbfac5f",
    "_src_": "facebig.png",
    "_top_": {
        "type": "string",
        "value": "47%"
    },
    "_width_": {
        "type": "string",
        "value": "28%"
    },
    "canUpdateUI": true,
    "centerx": {
        "type": "string",
        "value": "50.00%"
    },
    "containerweight": 100,
    "context": {
        "channel": "mobile",
        "formID": "frmFacialAuthEnable",
        "platform": "iphone",
        "templateType": "forms",
        "topLevelBox": null
    },
    "id": "imgsetFaceID",
    "imagescalemode": 1,
    "info": null,
    "invokedProperty": "src",
    "isvisible": true,
    "kuid": "b3598ef57f08454f8bde53e28d8b473a",
    "name": "kony.ui.Image2",
    "parent": "flxHeader",
    "pf": "frmFacialAuthEnable",
    "srcType": 1,
    "wType": "Image",
    "widgetalignment": 5,
    "zindex": 1
}