{
    "@class": "com.kony.gen.viz.model.component.KVizButton",
    "DNDConfig": null,
    "__parentReadjusting__": false,
    "_height_": {
        "type": "string",
        "value": "50%"
    },
    "_left_": {
        "type": "string",
        "value": "0%"
    },
    "_margin_": [
        6,
        6,
        6,
        6
    ],
    "_padding_": [
        0,
        0,
        0,
        0
    ],
    "_skin_": "sfdddcea6cff4d788f42120343a323ef",
    "_text_": "d",
    "_top_": {
        "type": "string",
        "value": "35%"
    },
    "_width_": {
        "type": "string",
        "value": "100%"
    },
    "canUpdateUI": true,
    "containerweight": 100,
    "contentalignment": 6,
    "displaytext": true,
    "focusskin": "sfdddcea6cff4d788f42120343a323ef",
    "id": "btnUpgradeCard",
    "ide_onClick": "AS_Button_de0624bb628d4b769328fe20d9627607",
    "info": null,
    "isvisible": true,
    "kuid": "c9394a9260ca4d4192e1b2af0b9853a6",
    "name": "kony.ui.Button",
    "parent": "flxUpgradeCard",
    "pf": "frmApplyNewCardsKA",
    "wType": "Button",
    "zindex": 2
}