{
    "DNDConfig": null,
    "__parentReadjusting__": false,
    "_height_": {
        "type": "string",
        "value": "91%"
    },
    "_left_": {
        "type": "string",
        "value": "0.00%"
    },
    "_margin_": [
        0,
        0,
        0,
        0
    ],
    "_orientation_": 6,
    "_padding_": [
        0,
        0,
        0,
        0
    ],
    "_percent_": true,
    "_skin_": "s388f0c575ef4d08ac3a5ed0a4b90085",
    "_top_": {
        "type": "string",
        "value": "9%"
    },
    "_width_": {
        "type": "string",
        "value": "100%"
    },
    "allboxes": [],
    "autogrowmode": 0,
    "canUpdateUI": true,
    "children": [
        "CopyLabel0ba8b18300a1c45",
        "CopyFlexContainer0b07914c0869044",
        "CopyFlexContainer0b17fc240a90540",
        "CopyFlexContainer0j63b912471fe4f",
        "CopyFlexContainer0c22eb7f7721d41",
        "CopyFlexContainer0i25ca93dcafe43",
        "lblSetCustomDateRange",
        "CopyFlexContainer0f90c1916338042"
    ],
    "clipbounds": true,
    "containerweight": 100,
    "enablescrolling": true,
    "id": "flxDatePicker",
    "info": null,
    "isvisible": false,
    "kuid": "i01bcde0806643afba2cea35ad9b88e5",
    "layouttype": 4,
    "name": "kony.ui.FlexContainer",
    "parent": "frmFilterTransaction",
    "pf": "frmFilterTransaction",
    "snapgridsize": 10,
    "snaptogrid": true,
    "wType": "FlexContainer",
    "widgetalignment": 1,
    "zindex": 2
}