{
  "background_color": "ffffffff",
  "bg_type": "one",
  "border_color": "00000000",
  "border_radius": 10,
  "border_style": "custom",
  "border_type": 0,
  "border_width": 1,
  "isDefaultSkin": false,
  "kuid": "s2e98715ff3c49d69686164b964d0260",
  "wType": "FlexContainer"
}