{
  "background_color": "0000005e",
  "bg_type": "one",
  "border_color": "000000ff",
  "border_style": "plain",
  "border_type": 0,
  "border_width": 0,
  "isDefaultSkin": false,
  "kuid": "sd27835629d242aa8af54b52d99a861d",
  "wType": "FlexContainer"
}