{
  "background_image": "headerbig.png",
  "bg_type": "image",
  "border_color": "000000ff",
  "border_style": "plain",
  "border_type": 0,
  "border_width": 0,
  "isDefaultSkin": false,
  "kuid": "s603e0e04428446eb44015290d1ecf0c",
  "wType": "FlexContainer"
}