{
  "background_color": "00000000",
  "bg_type": "one",
  "border_color": "00000035",
  "border_style": "plain",
  "border_type": 0,
  "border_width": 1,
  "isDefaultSkin": false,
  "kuid": "s2d1520b5e5d4031a003ce67fd69b036",
  "wType": "FlexContainer"
}