{
  "android": {
    "font_size": 43,
    "isForked": false
  },
  "background_color": "00000000",
  "bg_type": "one",
  "border_color": "424242ff",
  "border_style": "plain",
  "border_type": 0,
  "border_width": 0,
  "desktopweb": {
    "font_size": 113,
    "isForked": false
  },
  "fontSizeInPx": true,
  "font_color": "ffffffcc",
  "font_name": "System",
  "font_size": 64,
  "font_style": "normal",
  "font_weight": "normal",
  "ipad": {
    "font_size": 64,
    "isForked": false
  },
  "iphone": {
    "font_size": 64,
    "isForked": false
  },
  "isDefaultSkin": false,
  "kiosk": {
    "font_size": 113,
    "isForked": false
  },
  "kuid": "s733f083ed8c499cac6080109a5e962f",
  "spaan": {
    "font_size": 60,
    "isForked": false
  },
  "spaandroidtablet": {
    "font_size": 56,
    "isForked": false
  },
  "spabb": {
    "font_size": 75,
    "isForked": false
  },
  "spaip": {
    "font_size": 64,
    "isForked": false
  },
  "spaipad": {
    "font_size": 53,
    "isForked": false
  },
  "spawindowstablet": {
    "font_size": 53,
    "isForked": false
  },
  "spawinphone8": {
    "font_size": 75,
    "isForked": false
  },
  "tabrcandroid": {
    "font_size": 107,
    "isForked": false
  },
  "wType": "Label",
  "watchos": {
    "font_name": "Cairo-Regular",
    "font_size": 64,
    "isForked": false
  },
  "windows8": {
    "font_size": 44,
    "isForked": false
  },
  "winphone8": {
    "font_size": 60,
    "isForked": false
  }
}