{
  "android": {
    "font_name": "cairo"
  },
  "background_color": "ffffff00",
  "bg_type": "one",
  "border_color": "000000ff",
  "border_style": "plain",
  "border_type": 0,
  "border_width": 1,
  "font_color": "ffffffff",
  "font_name": "Cairo-Regular",
  "font_size": 100,
  "font_style": "normal",
  "font_weight": "normal",
  "isDefaultSkin": false,
  "kuid": "sa15bcbd9c264d058be452540a5a00d1",
  "wType": "RadioButtonGroup"
}