{
  "background_color": "99dbd7ff",
  "bg_type": "one",
  "border_color": "ffffff00",
  "border_radius": 100,
  "border_style": "custom",
  "border_type": 0,
  "border_width": 1,
  "isDefaultSkin": false,
  "kuid": "se5ea5d9fd9941a59de1e05a5a6fe8a1",
  "wType": "FlexContainer"
}