{
  "background_image": "headerbig.png",
  "bg_type": "image",
  "border_color": "000000ff",
  "border_style": "plain",
  "border_type": 0,
  "border_width": 0,
  "isDefaultSkin": false,
  "kuid": "sc7dec06fb8949618fe97ec2da9403a7",
  "wType": "FlexContainer"
}