{
  "background_color": "3545a200",
  "bg_type": "one",
  "border_color": "21435dff",
  "border_radius": 10,
  "border_style": "custom",
  "border_type": 0,
  "border_width": 1,
  "isDefaultSkin": false,
  "kuid": "s040999603294e76988eb50373562a6a",
  "wType": "FlexContainer"
}