{
  "background_color": "00000000",
  "bg_type": "one",
  "border_color": "ffffffff",
  "border_style": "plain",
  "border_type": 0,
  "border_width": 1,
  "isDefaultSkin": false,
  "kuid": "s76c8c802ad04be3ba58323604b52f76",
  "wType": "FlexContainer"
}