{
  "android": {
    "font_name": "Lato-Regular"
  },
  "background_color": "ffffffff",
  "bg_type": "one",
  "border_color": "000000ff",
  "border_style": "plain",
  "border_type": 0,
  "border_width": 0,
  "desktopweb": {
    "font_name": "Cairo-Regular"
  },
  "font_color": "000000ff",
  "font_name": "",
  "font_size": 100,
  "font_style": "normal",
  "font_weight": "normal",
  "ipad": {
    "font_name": "Lato-Regular"
  },
  "iphone": {
    "font_name": "Lato-Regular"
  },
  "isDefaultSkin": false,
  "kiosk": {
    "font_name": "GenericMonospace"
  },
  "kuid": "se110627ca91499ca4101f2186f1fc7e",
  "spaan": {
    "font_name": "Cairo-Regular"
  },
  "spaandroidtablet": {
    "font_name": "Cairo-Regular"
  },
  "spabb": {
    "font_name": "Cairo-Regular"
  },
  "spaip": {
    "font_name": "Cairo-Regular"
  },
  "spaipad": {
    "font_name": "Cairo-Regular"
  },
  "spawindowstablet": {
    "font_name": "Cairo-Regular"
  },
  "spawinphone8": {
    "font_name": "Cairo-Regular"
  },
  "tabrcandroid": {
    "font_name": "Lato-Regular"
  },
  "wType": "RadioButtonGroup",
  "windows8": {
    "font_name": "GenericMonospace"
  },
  "winphone8": {
    "font_name": "GenericMonospace"
  }
}