{
  "background_color": "ffffff00",
  "bg_type": "one",
  "border_color": "e2e2e2ff",
  "border_style": "plain",
  "border_type": 0,
  "border_width": 0,
  "isDefaultSkin": false,
  "kuid": "s547d49c3f5842b98264cce2950258f2",
  "wType": "FlexContainer"
}