{
  "background_color": "ffffff66",
  "bg_type": "one",
  "border_color": "000000ff",
  "border_style": "plain",
  "border_type": 0,
  "border_width": 0,
  "isDefaultSkin": false,
  "kuid": "sbc33bfb6fda4fd69c548bf18787172b",
  "wType": "FlexContainer"
}