{
  "background_color": "cbc928ff",
  "bg_type": "one",
  "border_color": "cbc928ff",
  "border_radius": 100,
  "border_style": "custom",
  "border_type": 0,
  "border_width": 1,
  "isDefaultSkin": false,
  "kuid": "s8cee9ddcb344024afcc0f0e0d2a9e37",
  "wType": "FlexContainer"
}