{
  "background_color": "2cbfac00",
  "bg_type": "one",
  "border_color": "ffffffff",
  "border_radius": 100,
  "border_style": "custom",
  "border_type": 0,
  "border_width": 1,
  "isDefaultSkin": false,
  "kuid": "s67ae6401df945199d846b909682b444",
  "wType": "FlexContainer"
}