{
  "android": {
    "font_size": 2,
    "isForked": false
  },
  "background_color": "3545a2ff",
  "bg_type": "one",
  "border_color": "424242ff",
  "border_style": "plain",
  "border_type": 0,
  "border_width": 0,
  "desktopweb": {
    "font_size": 6,
    "isForked": false
  },
  "fontSizeInPx": true,
  "font_color": "edededff",
  "font_name": "Cairo-Regular",
  "font_size": 4,
  "font_style": "normal",
  "font_weight": "normal",
  "ipad": {
    "font_size": 4,
    "isForked": false
  },
  "iphone": {
    "font_size": 4,
    "isForked": false
  },
  "isDefaultSkin": false,
  "kiosk": {
    "font_size": 6,
    "isForked": false
  },
  "kuid": "s4adaf3376d643fe8ff0cea14aebb6fb",
  "spaan": {
    "font_size": 3,
    "isForked": false
  },
  "spaandroidtablet": {
    "font_size": 3,
    "isForked": false
  },
  "spabb": {
    "font_size": 4,
    "isForked": false
  },
  "spaip": {
    "font_size": 4,
    "isForked": false
  },
  "spaipad": {
    "font_size": 3,
    "isForked": false
  },
  "spawindowstablet": {
    "font_size": 3,
    "isForked": false
  },
  "spawinphone8": {
    "font_size": 4,
    "isForked": false
  },
  "tabrcandroid": {
    "font_size": 6,
    "isForked": false
  },
  "wType": "Label",
  "watchos": {
    "font_size": 4,
    "isForked": false
  },
  "windows8": {
    "font_size": 2,
    "isForked": false
  },
  "winphone8": {
    "font_size": 3,
    "isForked": false
  }
}