{
  "background_color": "00000000",
  "bg_type": "one",
  "border_color": "ffa500cc",
  "border_radius": 60,
  "border_style": "custom",
  "border_type": 0,
  "border_width": 1,
  "isDefaultSkin": false,
  "kuid": "s31d840a09dd47db95a8330267af79e8",
  "wType": "FlexContainer"
}