{
  "background_color": "64a1d6ff",
  "bg_type": "one",
  "border_color": "424242ff",
  "border_style": "plain",
  "border_type": 0,
  "border_width": 0,
  "font_color": "64a1d6ff",
  "font_name": "Cairo-Regular",
  "font_size": 214,
  "font_style": "normal",
  "font_weight": "normal",
  "isDefaultSkin": false,
  "kuid": "sf65a1626f234d7094ca26626005202d",
  "wType": "Label"
}