{
  "background_color": "fafafaff",
  "bg_type": "one",
  "border_color": "000000ff",
  "border_style": "plain",
  "border_type": 0,
  "border_width": 0,
  "isDefaultSkin": false,
  "kuid": "sffb5ab025044c7abb2670d5009030f2",
  "wType": "FlexScrollContainer"
}