{
  "android": {
    "background_color": "3545a200",
    "bg_type": "one",
    "border_color": {
      "angle": 180,
      "colors": [
        "0000ff00",
        "0000ff00",
        "ffffffff"
      ],
      "cs": [
        0,
        89,
        97
      ],
      "gradientType": "toBottom",
      "gt": "linear"
    },
    "border_type": 1,
    "font_color": "ffffff99",
    "font_name": "Cairo-Regular",
    "font_size": 120,
    "isForked": true
  },
  "background_color": "ffffff00",
  "bg_type": "one",
  "border_color": "454545ff",
  "border_style": "plain",
  "border_type": 0,
  "border_width": 1,
  "desktopweb": {
    "background_color": "3545a200",
    "bg_type": "one",
    "font_color": "ffffff99",
    "font_name": "Cairo-Regular",
    "font_size": 120,
    "isForked": true
  },
  "fontSizeInPx": false,
  "font_color": "ffffffff",
  "font_name": "Cairo-Regular",
  "font_size": 120,
  "font_style": "normal",
  "font_weight": "normal",
  "ipad": {
    "background_color": "3545a200",
    "bg_type": "one",
    "border_color": {
      "angle": 180,
      "colors": [
        "0000ff00",
        "0000ff00",
        "ffffffff"
      ],
      "cs": [
        0,
        89,
        97
      ],
      "gradientType": "toBottom",
      "gt": "linear"
    },
    "border_type": 1,
    "font_color": "ffffff99",
    "font_name": "Cairo-Regular",
    "font_size": 120,
    "isForked": true
  },
  "iphone": {
    "background_color": "3545a200",
    "bg_type": "one",
    "border_color": {
      "angle": 180,
      "colors": [
        "0000ff00",
        "0000ff00",
        "ffffffff"
      ],
      "cs": [
        0,
        89,
        97
      ],
      "gradientType": "toBottom",
      "gt": "linear"
    },
    "border_type": 1,
    "font_color": "ffffff99",
    "font_name": "Cairo-Regular",
    "font_size": 120,
    "isForked": true
  },
  "isDefaultSkin": false,
  "kiosk": {
    "background_color": "3545a200",
    "bg_type": "one",
    "border_color": {
      "angle": 180,
      "colors": [
        "0000ff00",
        "0000ff00",
        "ffffffff"
      ],
      "cs": [
        0,
        89,
        97
      ],
      "gradientType": "toBottom",
      "gt": "linear"
    },
    "border_type": 1,
    "font_color": "ffffff99",
    "font_name": "GenericMonospace",
    "font_size": 120,
    "isForked": true
  },
  "kuid": "s89eb521a8664df69d428f4b5f59ab90",
  "spaan": {
    "background_color": "3545a200",
    "bg_type": "one",
    "font_color": "ffffff99",
    "font_name": "Cairo-Regular",
    "font_size": 120,
    "isForked": true
  },
  "spaandroidtablet": {
    "background_color": "3545a200",
    "bg_type": "one",
    "font_color": "ffffff99",
    "font_name": "Cairo-Regular",
    "font_size": 120,
    "isForked": true
  },
  "spabb": {
    "background_color": "3545a200",
    "bg_type": "one",
    "font_color": "ffffff99",
    "font_name": "Cairo-Regular",
    "font_size": 120,
    "isForked": true
  },
  "spaip": {
    "background_color": "3545a200",
    "bg_type": "one",
    "font_color": "ffffff99",
    "font_name": "Cairo-Regular",
    "font_size": 120,
    "isForked": true
  },
  "spaipad": {
    "background_color": "3545a200",
    "bg_type": "one",
    "font_color": "ffffff99",
    "font_name": "Cairo-Regular",
    "font_size": 120,
    "isForked": true
  },
  "spawindowstablet": {
    "background_color": "3545a200",
    "bg_type": "one",
    "font_color": "ffffff99",
    "font_name": "Cairo-Regular",
    "font_size": 120,
    "isForked": true
  },
  "spawinphone8": {
    "background_color": "3545a200",
    "bg_type": "one",
    "font_color": "ffffff99",
    "font_name": "Cairo-Regular",
    "font_size": 120,
    "isForked": true
  },
  "tabrcandroid": {
    "background_color": "3545a200",
    "bg_type": "one",
    "border_color": {
      "angle": 180,
      "colors": [
        "0000ff00",
        "0000ff00",
        "ffffffff"
      ],
      "cs": [
        0,
        89,
        97
      ],
      "gradientType": "toBottom",
      "gt": "linear"
    },
    "border_type": 1,
    "font_color": "ffffff99",
    "font_name": "Cairo-Regular",
    "font_size": 120,
    "isForked": true
  },
  "wType": "ListBox",
  "watchos": {
    "font_name": "Cairo-Regular",
    "font_size": 120,
    "isForked": false
  },
  "windows8": {
    "background_color": "3545a200",
    "bg_type": "one",
    "border_color": {
      "angle": 180,
      "colors": [
        "0000ff00",
        "0000ff00",
        "ffffffff"
      ],
      "cs": [
        0,
        89,
        97
      ],
      "gradientType": "toBottom",
      "gt": "linear"
    },
    "border_type": 1,
    "font_color": "ffffff99",
    "font_name": "GenericMonospace",
    "font_size": 120,
    "isForked": true
  },
  "winphone8": {
    "background_color": "3545a200",
    "bg_type": "one",
    "border_color": {
      "angle": 180,
      "colors": [
        "0000ff00",
        "0000ff00",
        "ffffffff"
      ],
      "cs": [
        0,
        89,
        97
      ],
      "gradientType": "toBottom",
      "gt": "linear"
    },
    "border_type": 1,
    "font_color": "ffffff99",
    "font_name": "GenericMonospace",
    "font_size": 120,
    "isForked": true
  }
}