{
    "DNDConfig": null,
    "__parentReadjusting__": false,
    "_height_": {
        "type": "string",
        "value": "8%"
    },
    "_left_": {
        "type": "string",
        "value": "5%"
    },
    "_margin_": [
        0,
        0,
        0,
        0
    ],
    "_orientation_": 6,
    "_padding_": [
        0,
        0,
        0,
        0
    ],
    "_percent_": true,
    "_skin_": "s7f677559e4b40e6878028bdaf5b47d5",
    "_top_": {
        "type": "string",
        "value": "2%"
    },
    "_width_": {
        "type": "string",
        "value": "90%"
    },
    "allboxes": [],
    "autogrowmode": 0,
    "canUpdateUI": true,
    "children": [
        "lblAlternateMethodtext",
        "CopyImage0eeeb79bca7e048",
        "flxSwitchOffTouchLogin",
        "flxSwitchOnTouchLogin"
    ],
    "clipbounds": true,
    "containerweight": 100,
    "enablescrolling": true,
    "id": "flxAlterAuthTouchID",
    "ide_onClick": "AS_FlexContainer_i9556f057da4410aae2546d3d5159c0e",
    "info": null,
    "isvisible": true,
    "kuid": "d28964dd3ef147dbb9ef54c03c503bcd",
    "layouttype": 2,
    "name": "kony.ui.FlexContainer",
    "parent": "FlexScrollContainer0ade157aa36f344",
    "pf": "frmAuthorizationAlternatives",
    "snapgridsize": 10,
    "snaptogrid": true,
    "wType": "FlexContainer",
    "widgetalignment": 1,
    "zindex": 1
}