{
    "DNDConfig": null,
    "__parentReadjusting__": false,
    "_height_": {
        "type": "string",
        "value": "25dp"
    },
    "_left_": {
        "type": "string",
        "value": "83%"
    },
    "_margin_": [
        0,
        0,
        0,
        0
    ],
    "_orientation_": 6,
    "_padding_": [
        0,
        0,
        0,
        0
    ],
    "_percent_": true,
    "_skin_": "s8cee9ddcb344024afcc0f0e0d2a9e37",
    "_width_": {
        "type": "string",
        "value": "44dp"
    },
    "allboxes": [],
    "autogrowmode": 0,
    "canUpdateUI": true,
    "centery": {
        "type": "string",
        "value": "50%"
    },
    "children": [
        "CopyflxRoundDBlueOff0ef9f0f04695e40",
        "CopyflxNaveenbhaiKiLakeer0bb5a0d12709d48"
    ],
    "clipbounds": true,
    "containerweight": 100,
    "enablescrolling": true,
    "id": "flxSwitchOnPinLogin",
    "info": null,
    "isvisible": false,
    "kuid": "a31dd7f97ab34bf887af878e2f55d598",
    "layouttype": 2,
    "name": "kony.ui.FlexContainer",
    "parent": "flxAltAuthPIN",
    "pf": "frmAuthorizationAlternatives",
    "snapgridsize": 10,
    "snaptogrid": true,
    "wType": "FlexContainer",
    "widgetalignment": 1,
    "zindex": 1
}