{
  "operationConfig" : {
    "name" : "OPgetTncProfileData9635",
    "type" : "MappedToBackend",
    "cachable" : false,
    "smsEnabled" : false,
    "security" : "authorized_app_user",
    "responseEncoding" : "UTF-8",
    "httpMethod" : "GET",
    "decodeResponseBody" : false,
    "odata" : [ {
      "id" : "$select",
      "dataType" : "string",
      "encode" : true,
      "accessType" : "readonly"
    }, {
      "id" : "$filter",
      "dataType" : "string",
      "encode" : true,
      "accessType" : "readonly"
    }, {
      "id" : "$orderby",
      "dataType" : "string",
      "encode" : true,
      "accessType" : "readonly"
    }, {
      "id" : "$top",
      "dataType" : "string",
      "encode" : true,
      "accessType" : "readonly"
    }, {
      "id" : "$skip",
      "dataType" : "string",
      "encode" : true,
      "accessType" : "readonly"
    }, {
      "id" : "$expand",
      "dataType" : "string",
      "encode" : true,
      "accessType" : "readonly"
    }, {
      "id" : "$batchsize",
      "dataType" : "string",
      "encode" : true,
      "accessType" : "readonly"
    }, {
      "id" : "$batchid",
      "dataType" : "string",
      "encode" : true,
      "accessType" : "readonly"
    } ],
    "iMapping" : "<?xml version=\"1.0\" encoding=\"UTF-8\" standalone=\"yes\"?><mapper xmlns=\"http://www.kony.com/ns/mapper\">    <map inputpath=\"request_in\" outputpath=\"request_out\">        <set-param inputpath=\"custId\" outputpath=\"custId\"/>        <set-param inputpath=\"usr\" outputpath=\"usr\"/>        <set-param inputpath=\"language\" outputpath=\"language\"/>        <set-param inputpath=\"ver\" outputpath=\"ver\"/>        <set-param inputpath=\"lang\" outputpath=\"lang\"/>        <set-param inputpath=\"pass\" outputpath=\"pass\"/>    </map></mapper>",
    "oMapping" : "<?xml version=\"1.0\" encoding=\"UTF-8\" standalone=\"yes\"?><mapper xmlns=\"http://www.kony.com/ns/mapper\">          <map inputpath=\"response_in\" outputpath=\"response_out\">                    <set-param inputpath=\"custData\" outputpath=\"custData\"/>                      <set-param inputpath=\"status_code\" outputpath=\"status_code\"/>                    <set-param inputpath=\"statusType\" outputpath=\"statusType\"/>                    <set-param inputpath=\"tncData\" outputpath=\"tncData\"/>                    <set-param inputpath=\"statusMessage\" outputpath=\"statusMessage\"/>                    <set-param inputpath=\"version\" outputpath=\"version\"/>          </map></mapper>",
    "applyCommonMapping" : false,
    "backendMeta" : {
      "serviceVersion" : "1.0",
      "operationName" : "OPgetTncProfileData",
      "serviceName" : "getTncProfileData"
    },
    "relationshipHierarchyMapping" : {
      "children" : [ ],
      "name" : "Informationcontent",
      "selected" : true
    },
    "requestXmlMappingOverride" : false,
    "responseXmlMappingOverride" : false
  }
}