{
    "DNDConfig": null,
    "_height_": {
        "type": "string",
        "value": "80dp"
    },
    "_margin_": [
        0,
        0,
        0,
        0
    ],
    "_padding_": [
        0,
        0,
        0,
        0
    ],
    "_skin_": "s9c14c5cfa624594965bca8fa71d4023",
    "allboxes": [],
    "autogrowmode": 0,
    "canUpdateUI": true,
    "children": [
        "FlexContainer01ff055a4331e4f",
        "flxImageandNameKA",
        "lblNumberOfLeafletsKA",
        "contactListDivider"
    ],
    "clipbounds": true,
    "containerId": true,
    "containerweight": 100,
    "disabledSkins": {
        "focusSkin": "s1e6f36d09a04693ac1b1b738e6c3aa4"
    },
    "enabled": false,
    "enablescrolling": true,
    "id": "CopyFlexContainer02f94a2abf98249",
    "info": null,
    "isTemplate": true,
    "isvisible": true,
    "kuid": "e57b6ce233d04e6e813b12fcfff05a4a",
    "layouttype": 4,
    "name": "kony.ui.FlexContainer",
    "orientation": 6,
    "parent": "segCheckReOrderKA",
    "percent": true,
    "pf": "segCheckReOrderKA",
    "snapgridsize": 10,
    "snaptogrid": true,
    "wType": "FlexContainer",
    "widgetalignment": 1
}