{
    "@class": "com.kony.gen.viz.model.component.KVizTextBox2",
    "DNDConfig": null,
    "__parentReadjusting__": false,
    "_height_": {
        "type": "string",
        "value": "45%"
    },
    "_left_": {
        "type": "string",
        "value": "2%"
    },
    "_margin_": [
        0,
        0,
        0,
        0
    ],
    "_padding_": [
        0,
        0,
        0,
        0
    ],
    "_placeholder_": "",
    "_skin_": "sa25e426dcb94c13ab46f59a2b31a09a",
    "_text_": "",
    "_top_": {
        "type": "string",
        "value": "40%"
    },
    "_width_": {
        "type": "string",
        "value": "90%"
    },
    "android": {
        "ide_onEndEditing": "AS_TextField_i7a2f776d88e44a8a0d4e6e04ab13688",
        "psp": {
            "keyboardActionLabel": 1
        }
    },
    "autocapitalize": "none",
    "autocomplete": false,
    "autocorrect": false,
    "autofilter": false,
    "canUpdateUI": true,
    "containerheight": "",
    "containerheightmode": 1,
    "containerweight": 100,
    "contentalignment": 4,
    "focusskin": "sa25e426dcb94c13ab46f59a2b31a09a",
    "id": "txtAddNickName",
    "ide_onDone": "AS_TextField_d65e49998c22433fad7720e1cba26e38",
    "ide_onTextChange": "AS_TextField_c75dda4f9cd84f8ca0d8afc4ba4f4f1d",
    "ide_onTouchEnd": "AS_TextField_e79b162b152a4257b073d5b7695572d3",
    "info": null,
    "iphone": {
        "ide_onEndEditing": "AS_TextField_fc56e4f1197f4bb29427c58ec3cdb073",
        "psp": {
            "keyboardActionLabel": 1,
            "showClearButton": false,
            "showCloseButton": false,
            "showProgressIndicator": false
        }
    },
    "isvisible": true,
    "keyboardactionlabel": 4,
    "keyboardtype": "A",
    "kuid": "icde109786bf4830bfac4e194ae3aea5",
    "maxtextlength": 25,
    "mode": "A",
    "name": "kony.ui.TextBox2",
    "paddinginpixel": false,
    "parent": "flxDescrip",
    "pf": "frmCardsAddNickname",
    "securetextentry": false,
    "showclearbutton": false,
    "showoprogressindicator": false,
    "textinputmode": "A",
    "viewtype": "default",
    "wType": "TextField",
    "zindex": 1
}