{
    "@class": "com.kony.gen.viz.model.component.KVizButton",
    "DNDConfig": null,
    "__parentReadjusting__": false,
    "_height_": {
        "type": "string",
        "value": "90%"
    },
    "_left_": {
        "type": "string",
        "value": "2%"
    },
    "_margin_": [
        6,
        6,
        6,
        6
    ],
    "_padding_": [
        0,
        0,
        0,
        0
    ],
    "_skin_": "s1b558d5a76c4e74aa712819f5be63d1",
    "_text_": "",
    "_width_": {
        "type": "string",
        "value": "20dp"
    },
    "canUpdateUI": true,
    "centery": {
        "type": "string",
        "value": "50%"
    },
    "containerweight": 100,
    "contentalignment": 4,
    "disabledSkins": {},
    "displaytext": true,
    "focusskin": "s1b558d5a76c4e74aa712819f5be63d1",
    "id": "androidBack",
    "ide_onClick": "AS_Button_b270e8d09ceb4c868c1f1873326adb1b",
    "info": null,
    "iphone": {
        "psp": {
            "showProgressIndicator": false
        }
    },
    "iscustomlayout": true,
    "isvisible": true,
    "kuid": "a12ed52271914bbdbca553b6a5a55379",
    "name": "kony.ui.Button",
    "onclick": "AS_Button_58aa742fc49d45df872a00112fd41695",
    "parent": "androidTitleBar",
    "pf": "frmAccountInfoKA",
    "retainflexpositionproperties": true,
    "showprogressindicator": false,
    "texti18n": "i18n.common.back",
    "wType": "Button",
    "zindex": 5
}