{
    "@class": "com.kony.gen.viz.model.component.KVizButton",
    "DNDConfig": null,
    "__parentReadjusting__": false,
    "_height_": {
        "type": "string",
        "value": "50dp"
    },
    "_left_": {
        "type": "string",
        "value": "0dp"
    },
    "_margin_": [
        6,
        6,
        6,
        6
    ],
    "_padding_": [
        0,
        0,
        0,
        0
    ],
    "_skin_": "s9c088197d18477f8c015db1275ded54",
    "_text_": "Sign Out",
    "_top_": {
        "type": "string",
        "value": "0dp"
    },
    "_width_": {
        "type": "string",
        "value": "100%"
    },
    "canUpdateUI": true,
    "containerweight": 100,
    "contentalignment": 5,
    "displaytext": true,
    "focusskin": "s10149300144466da99cbf92f4fdacc8",
    "id": "btnAccountInfoNavOptSignOutKA",
    "ide_onClick": "AS_Button_34687d3b67d3474e8b0c17ee9a2248a2",
    "info": null,
    "isvisible": true,
    "kuid": "aa93bf6dd4314f8f8cf5fa857cbf83df",
    "name": "kony.ui.Button",
    "parent": "flxInnerAccntInfoNavOptKA",
    "pf": "frmAccountInfoKA",
    "texti18n": "i18n.common.signOut",
    "wType": "Button",
    "zindex": 1
}