{
    "@class": "com.kony.gen.viz.model.component.KVizButton",
    "DNDConfig": null,
    "__parentReadjusting__": false,
    "_height_": {
        "type": "string",
        "value": "52dp"
    },
    "_left_": {
        "type": "string",
        "value": "0dp"
    },
    "_margin_": [
        6,
        6,
        6,
        6
    ],
    "_padding_": [
        0,
        0,
        0,
        0
    ],
    "_skin_": "s80191b6ac7b456395dfcf46858959f6",
    "_text_": "ACCOUNTS",
    "_top_": {
        "type": "string",
        "value": "0dp"
    },
    "_width_": {
        "type": "string",
        "value": "33.30%"
    },
    "canUpdateUI": true,
    "containerweight": 100,
    "contentalignment": 5,
    "displaytext": true,
    "focusskin": "s80191b6ac7b456395dfcf46858959f6",
    "id": "btnAccountsKA",
    "ide_onClick": "AS_Button_f11c52c881264104a131646191b0b963",
    "info": null,
    "iphone": {
        "psp": {
            "showProgressIndicator": false
        }
    },
    "isvisible": true,
    "kuid": "49a6a64cb1b64f12851b7461565f8b78",
    "name": "kony.ui.Button",
    "paddinginpixel": false,
    "parent": "androidSegmentedController",
    "pf": "frmMyMoneyListKA",
    "showprogressindicator": false,
    "texti18n": "i18n.my_money.btnAccounts",
    "wType": "Button",
    "zindex": 1
}