{
    "@class": "com.kony.gen.viz.model.container.KVizScrollFlexForm",
    "DNDConfig": null,
    "_margin_": [
        0,
        0,
        0,
        0
    ],
    "_orientation_": 1,
    "_padding_": [
        0,
        0,
        0,
        0
    ],
    "_percent_": true,
    "_skin_": "saccb95b58984589af381140b9870839",
    "_title_": null,
    "addWidgetsdone": false,
    "allboxes": [],
    "android": {
        "ide_onDeviceBack": "AS_Form_fb161b7a9eb649a3864a537d80289904",
        "needAppMenu": false,
        "psp": {
            "windowSoftInputMode": 2
        }
    },
    "bounces": false,
    "canUpdateUI": true,
    "children": [
        "titleBarWrapper",
        "flxMainKA",
        "flxHeader",
        "flxMain",
        "flxService"
    ],
    "containerweight": 100,
    "currentLocale": "en",
    "desktopweb": {
        "needAppMenu": false
    },
    "device": "iPhoneXS",
    "displayorientation": 1,
    "enabledforidletimeout": true,
    "enablescrolling": false,
    "id": "frmConfirmPayBill",
    "ide_postShow": "AS_Form_e402f8727610492cb060966c945eaff8",
    "ide_preShow": "AS_Form_fec3b333b50e47afa009a30b26526838",
    "info": null,
    "initdone": false,
    "inputaccessoryviewtype": 4,
    "ipad": {
        "psp": {
            "inputAccessoryViewType": 4
        }
    },
    "iphone": {
        "needAppMenu": false,
        "psp": {
            "inputAccessoryViewType": 4,
            "titleBarAttributes": {
                "barStyle": 0,
                "hidesBackButton": true,
                "kuid": "ab6bfdaeeca64cacb99d4a462d7e9694",
                "leftBarButtonItems": [
                    {
                        "kuid": "e32a342ee8b942d08cb08068c439e5e2",
                        "leftButtonText": "Back",
                        "leftTitle": "Back",
                        "prevFormTitle": false,
                        "titleBarLeftSideView": "button",
                        "type": 4
                    }
                ],
                "leftItemsSupplementBackButton": true,
                "prompt": "",
                "renderTitleText": true,
                "rightBarButtonItems": [
                    {
                        "enabled": true,
                        "info": {
                            "title": "Edit"
                        },
                        "kuid": "f155e4100b9f40809c1de1ab46bca200",
                        "style": 0,
                        "tintColor": "33333300",
                        "type": 1
                    }
                ],
                "tintColor": "33333300",
                "translucent": true
            }
        },
        "titleBar": false
    },
    "isvisible": true,
    "kuid": "9244958e3f364c6b9e342b6d7ea74555",
    "layouttype": 4,
    "name": "kony.ui.Form2",
    "needappmenu": true,
    "paddinginpixel": false,
    "platform": "iphone",
    "prevDevice": "GalaxyS2",
    "prevPlatform": "android",
    "retainscrollposition": false,
    "shellCSS": "iOS_iPhoneXS",
    "snapgridsize": 10,
    "snaptogrid": true,
    "spaan": {
        "needAppMenu": false
    },
    "spabb": {
        "needAppMenu": false
    },
    "spaip": {
        "needAppMenu": false
    },
    "spawinphone8": {
        "needAppMenu": false
    },
    "titlebar": true,
    "type": 3,
    "wType": "Form",
    "winphone8": {
        "needAppMenu": false
    }
}