{
  "type" : "svcdriven",
  "custom" : false,
  "junction" : false,
  "customizable" : false,
  "verbs" : {
    "iWatchGetTdDetails" : "iWatchGetTdDetailsMapping",
    "cvAccStmtOrder" : "cvAccStmtOrderMapping",
    "cardlessCancel" : "cardlessCancelMapping",
    "iWatchgetLoanAccDetails" : "iWatchgetLoanAccDetailsMapping",
    "getDetails" : "getDetailsMapping",
    "customGet" : "customGetMapping",
    "partialupdate" : "partialupdateMapping",
    "LoanPostpone" : "LoanPostponeMapping",
    "IPSRegistration" : "IPSRegistrationMapping",
    "OpenNewSubAcc" : "OpenNewSubAccMapping",
    "updateFavouriteStatus" : "updateFavouriteStatusMapping",
    "cardlessList" : "cardlessListMapping",
    "getRecentAccounts" : "getRecentAccountsMapping",
    "get" : "getMapping",
    "cvChqBookOrder" : "cvChqBookOrderMapping",
    "checkIPSRegistrationStatus" : "checkIPSRegistrationStatusMapping",
    "iWatchgetAccounts" : "iWatchgetAccountsMapping",
    "cardlessAuth" : "cardlessAuthMapping"
  },
  "entityProperties" : {
    "BatchMode" : "buffer",
    "designTimeBackendMeta" : {
    },
    "backendMeta" : {
      "serviceVersion" : "1.0",
      "operationName" : "getAccounts",
      "serviceName" : "RetailBankingBEServices"
    }
  }
}