{
    "@class": "com.kony.gen.viz.model.component.KVizButton",
    "DNDConfig": null,
    "__parentReadjusting__": false,
    "_height_": {
        "type": "string",
        "value": "100%"
    },
    "_margin_": [
        6,
        6,
        6,
        6
    ],
    "_padding_": [
        0,
        0,
        0,
        0
    ],
    "_right_": {
        "type": "string",
        "value": "10%"
    },
    "_skin_": "sfdddcea6cff4d788f42120343a323ef",
    "_text_": "d",
    "_top_": {
        "type": "string",
        "value": "-5%"
    },
    "_width_": {
        "type": "string",
        "value": "90%"
    },
    "canUpdateUI": true,
    "containerweight": 100,
    "contentalignment": 6,
    "displaytext": true,
    "focusskin": "sfdddcea6cff4d788f42120343a323ef",
    "id": "btnDropDownIDType",
    "ide_onClick": "AS_Button_e064dc4537214511bee4705c4f350d57",
    "info": null,
    "isvisible": true,
    "kuid": "d786ae481ff1441f99adff84ef9f6026",
    "name": "kony.ui.Button",
    "parent": "flxID",
    "pf": "frmJoMoPayRegistration",
    "wType": "Button",
    "zindex": 3
}