{
    "AS_Button_c6e4af2c875b4f3e8253ceaf67928f12": {
        "id": "AS_Button_c6e4af2c875b4f3e8253ceaf67928f12",
        "type": "ACTION_SEQUENCE",
        "actions": [{
            "id": "NAVIGATE_TO_FORM__onClick_82f3edf132004772a8a5977633ea98ab",
            "type": "NAVIGATE_TO_FORM",
            "formId": "frmAccountInfoKA",
            "formKUID": "b2f984d11c5244e6ae5f81fe393d837e",
            "mappings": {},
            "mappingsOrder": [],
            "parentId": "",
            "callbackType": null,
            "enableMappingEditor": true
        }]
    }
}