{
    "AS_Button_93fc91880d144b89b61f2b0e7fbc9955": {
        "id": "AS_Button_93fc91880d144b89b61f2b0e7fbc9955",
        "type": "ACTION_SEQUENCE",
        "actions": [{
            "id": "NAVIGATE_TO_FORM__onClick_056262d4a7bf41b8ae630193b0eaad67",
            "type": "NAVIGATE_TO_FORM",
            "formId": "frmTransferPayLandingKA",
            "formKUID": "dab7a50c55b94a12b3d961ae5bd49247",
            "mappings": {},
            "mappingsOrder": [],
            "parentId": "",
            "callbackType": null,
            "enableMappingEditor": true
        }]
    }
}