{
    "AS_Button_331b4450408f404a8732235083e03cc8": {
        "id": "AS_Button_331b4450408f404a8732235083e03cc8",
        "type": "ACTION_SEQUENCE",
        "actions": [{
            "id": "NAVIGATE_TO_FORM___7267266158e3498ebbd22f8a901dddd8",
            "type": "NAVIGATE_TO_FORM",
            "formId": "frmRecentTransactionDetailsKA",
            "formKUID": "3e75bf63a2d4443486447188bb14c36b",
            "mappings": {},
            "mappingsOrder": [],
            "parentId": "",
            "callbackType": null,
            "enableMappingEditor": true
        }]
    }
}