{
    "AS_Button_92aab473776e4f4b92a329faff5d7c5b": {
        "id": "AS_Button_92aab473776e4f4b92a329faff5d7c5b",
        "type": "ACTION_SEQUENCE",
        "actions": [{
            "id": "NAVIGATE_TO_FORM__onClick_edd8120946a94e5b9d5d62b03e5ba3af",
            "type": "NAVIGATE_TO_FORM",
            "formKUID": "46f36ea071694fd5850c61e28c2bf835",
            "mappings": {},
            "mappingsOrder": [],
            "parentId": "",
            "callbackType": null,
            "enableMappingEditor": true
        }]
    }
}