{
    "AS_Button_963f3e03daeb4a01b2e465ff8e1385e2": {
        "id": "AS_Button_963f3e03daeb4a01b2e465ff8e1385e2",
        "type": "ACTION_SEQUENCE",
        "actions": [{
            "id": "NAVIGATE_TO_FORM__onClick_8a56a0e2039344a6b27b01f45ec178af",
            "type": "NAVIGATE_TO_FORM",
            "formId": "frmUserSettingsAccountPreviewKA",
            "formKUID": "7891569f547446feb05fd0bfc49efb41",
            "mappings": {},
            "mappingsOrder": [],
            "parentId": "",
            "callbackType": null,
            "enableMappingEditor": true
        }]
    }
}