{
    "AS_Button_31952d94b4854275a93c5a351c707cd8": {
        "id": "AS_Button_31952d94b4854275a93c5a351c707cd8",
        "type": "ACTION_SEQUENCE",
        "actions": [{
            "id": "NAVIGATE_TO_FORM__onClick_dff20a919b864d389aedb4314f253054",
            "type": "NAVIGATE_TO_FORM",
            "formId": "frmUserSettingsKA",
            "formKUID": "8c525af2d26c4599b2327f0b14f14239",
            "mappings": {},
            "mappingsOrder": [],
            "parentId": "",
            "callbackType": null,
            "enableMappingEditor": true
        }]
    }
}