{
    "AS_Button_0bfc866ce32a44c4993c992531ec5714": {
        "id": "AS_Button_0bfc866ce32a44c4993c992531ec5714",
        "type": "ACTION_SEQUENCE",
        "actions": [{
            "id": "NAVIGATE_TO_FORM__onClick_77645155b84a4d1988e2fdd0eebcfc18",
            "type": "NAVIGATE_TO_FORM",
            "formId": "frmMoreLandingKA",
            "formKUID": "f90cf53e47ae407c83e2e30720fff3da",
            "mappings": {},
            "mappingsOrder": [],
            "parentId": "",
            "callbackType": null,
            "enableMappingEditor": true
        }]
    }
}