{
    "AS_Button_724ab63f5dee4b8193fb217fcde7a0b1": {
        "id": "AS_Button_724ab63f5dee4b8193fb217fcde7a0b1",
        "type": "ACTION_SEQUENCE",
        "actions": [{
            "id": "NAVIGATE_TO_FORM__onClick_3c3eaffb05134e4caaa6e1f73767289c",
            "type": "NAVIGATE_TO_FORM",
            "formKUID": "b30a9c145c59434299665bf1ba051ef7",
            "mappings": {},
            "mappingsOrder": [],
            "parentId": "",
            "callbackType": null,
            "enableMappingEditor": true
        }]
    }
}