{
    "AS_Map_2464ff6721d245329319c682ad6079e8": {
        "id": "AS_Map_2464ff6721d245329319c682ad6079e8",
        "type": "ACTION_SEQUENCE",
        "params": [{
            "datatype": "collection",
            "name": "eventobject"
        }, {
            "datatype": "string",
            "name": "location"
        }],
        "actions": [{
            "id": "ADD_SNIPPET__568b91422abb4c778b5ed614bb6ad67d",
            "type": "ADD_SNIPPET",
            "codeSnippet": "showMapCallout();",
            "parentId": null,
            "callbackType": null
        }]
    }
}