{
    "AS_Segment_defc0d07daf14a8aa950c37940260bc3": {
        "id": "AS_Segment_defc0d07daf14a8aa950c37940260bc3",
        "type": "ACTION_SEQUENCE",
        "actions": [{
            "id": "NAVIGATE_TO_FORM__onRowClick_5994a8b5f20e46f6a9d6088349d05a83",
            "type": "NAVIGATE_TO_FORM",
            "formId": "frmUserSettingsAccountPreviewKA",
            "formKUID": "7891569f547446feb05fd0bfc49efb41",
            "mappings": {},
            "mappingsOrder": [],
            "parentId": "",
            "callbackType": null,
            "enableMappingEditor": true
        }]
    }
}