{
    "@class": "com.kony.gen.viz.model.component.KVizLabel",
    "DNDConfig": null,
    "__parentReadjusting__": false,
    "_height_": {
        "type": "ref",
        "value": "preferred"
    },
    "_margin_": [
        1,
        1,
        1,
        1
    ],
    "_padding_": [
        0,
        0,
        0,
        0
    ],
    "_skin_": "s9f24a2a03f2429ca8b218b7e3965807",
    "_text_": "0.12",
    "_top_": {
        "type": "string",
        "value": "40dp"
    },
    "_width_": {
        "type": "ref",
        "value": "preferred"
    },
    "_wrapping_": 2,
    "canUpdateUI": true,
    "centerx": {
        "type": "string",
        "value": "50%"
    },
    "containerweight": 100,
    "contentalignment": 4,
    "enabled": false,
    "id": "Label0a12bd6aecff249",
    "info": null,
    "ipad": {
        "psp": {
            "wrapping": 2
        }
    },
    "iphone": {
        "psp": {
            "wrapping": 2
        }
    },
    "isvisible": true,
    "kuid": "3b2cc109f9b341fbb217befd198e647b",
    "name": "kony.ui.Label",
    "parent": "calloutLeftWrapper",
    "pf": "frmLocatorKA",
    "tooltip": "",
    "wType": "Label"
}