{
    "@class": "com.kony.gen.viz.model.component.KVizButton",
    "DNDConfig": null,
    "__parentReadjusting__": false,
    "_height_": {
        "type": "string",
        "value": "40%"
    },
    "_margin_": [
        6,
        6,
        6,
        6
    ],
    "_padding_": [
        0,
        0,
        0,
        0
    ],
    "_skin_": "sf7766faf6e34d0789442a84c1e76e1a",
    "_text_": "Save",
    "_width_": {
        "type": "string",
        "value": "70%"
    },
    "canUpdateUI": true,
    "centerx": {
        "type": "string",
        "value": "50%"
    },
    "centery": {
        "type": "string",
        "value": "50%"
    },
    "containerweight": 100,
    "contentalignment": 5,
    "displaytext": true,
    "focusskin": "sad5d6d4890b44858a39e4bf8a290332",
    "id": "btnSaveInternetLimit",
    "ide_onClick": "AS_Button_f5efa2c3112742edb6268f8ba3891519",
    "info": null,
    "isvisible": true,
    "kuid": "fa8206ef6d7241abbc2d7bd5e26ebda9",
    "name": "kony.ui.Button",
    "parent": "flxFooter",
    "pf": "frmEnableInternetTransactionKA",
    "texti18n": "i18n.ecommerce.updatebutton",
    "wType": "Button",
    "zindex": 1
}