{
    "@class": "com.kony.gen.viz.model.component.KVizButton",
    "DNDConfig": null,
    "__parentReadjusting__": false,
    "_height_": {
        "type": "string",
        "value": "40dp"
    },
    "_left_": {
        "type": "string",
        "value": "0dp"
    },
    "_margin_": [
        6,
        6,
        6,
        6
    ],
    "_padding_": [
        0,
        0,
        0,
        0
    ],
    "_skin_": "s42097848aa844c9a25e6237b1b50a5b",
    "_text_": "",
    "_top_": {
        "type": "string",
        "value": "30dp"
    },
    "_width_": {
        "type": "string",
        "value": "40dp"
    },
    "canUpdateUI": true,
    "centery": {
        "type": "string",
        "value": "50%"
    },
    "containerweight": 100,
    "contentalignment": 5,
    "displaytext": true,
    "focusskin": "s86cba35d2a34a219807da2b84f4f553",
    "id": "backButton",
    "ide_onClick": "AS_Button_d8b57206c73949a6947efa7f4b499d3b",
    "info": null,
    "iphone": {
        "psp": {
            "showProgressIndicator": false
        }
    },
    "isvisible": true,
    "kuid": "eded8b8a549b47f9b56e067cd6bb732a",
    "name": "kony.ui.Button",
    "onclick": "AS_Button_08aeae098b264f7fad4511d12f4d8b83",
    "parent": "flxHeader",
    "pf": "frmCheckingJoint",
    "showprogressindicator": false,
    "wType": "Button",
    "zindex": 1
}