{
    "@class": "com.kony.gen.viz.model.component.KVizButton",
    "DNDConfig": null,
    "__parentReadjusting__": false,
    "_height_": {
        "type": "string",
        "value": "100%"
    },
    "_left_": {
        "type": "string",
        "value": "0"
    },
    "_margin_": [
        6,
        6,
        6,
        6
    ],
    "_padding_": [
        0,
        0,
        0,
        0
    ],
    "_skin_": "s41fb5693a024ca6af3b2c8c71179333",
    "_text_": "Calculate FX",
    "_top_": {
        "type": "string",
        "value": "0dp"
    },
    "_width_": {
        "type": "string",
        "value": "50%"
    },
    "canUpdateUI": true,
    "containerweight": 100,
    "contentalignment": 5,
    "displaytext": true,
    "focusskin": "s0eacd0585e64c81a58d225fcf6cd7c5",
    "id": "btnCalculateFx",
    "ide_onClick": "AS_Button_e8dcd797a6a948838ee05dde8ea0dfec",
    "info": null,
    "isvisible": true,
    "kuid": "a3bff4a1ac87415995ceab37c453146d",
    "name": "kony.ui.Button",
    "paddinginpixel": false,
    "parent": "flxContent",
    "pf": "frmFxRate",
    "texti18n": "i18n.fxCalculate",
    "wType": "Button",
    "zindex": 2
}