{
    "@class": "com.kony.gen.viz.model.component.KVizLabel",
    "DNDConfig": null,
    "__parentReadjusting__": false,
    "_height_": {
        "type": "string",
        "value": "50%"
    },
    "_margin_": [
        1,
        1,
        1,
        1
    ],
    "_padding_": [
        0,
        0,
        0,
        0
    ],
    "_right_": {
        "type": "string",
        "value": "5%"
    },
    "_skin_": "s6fa7931110c4d02b89d0cb6c40c40a2",
    "_text_": "V",
    "_width_": {
        "type": "string",
        "value": "35dp"
    },
    "_wrapping_": 2,
    "android": {
        "textStyle": {
            "letterSpacing": 0,
            "strikeThrough": false
        }
    },
    "canUpdateUI": true,
    "centerx": {
        "type": "string",
        "value": "50%"
    },
    "centery": {
        "type": "string",
        "value": "50%"
    },
    "containerweight": 100,
    "contentalignment": 5,
    "id": "CopylblSelectList0j6a93302e7e240",
    "ide_onTouchStart": "AS_Label_dfe84995e25a4258a5fb32164ee7fcb9",
    "info": null,
    "ipad": {
        "psp": {
            "wrapping": 2
        }
    },
    "iphone": {
        "psp": {
            "wrapping": 2
        }
    },
    "isvisible": true,
    "kuid": "a2085a7108664fb8a29d7d7663880f8b",
    "name": "kony.ui.Label",
    "parent": "CopyflxListbox0fc89f8830c884e",
    "pf": "frmFxRate",
    "tooltip": "",
    "wType": "Label",
    "zindex": 1
}