{
    "AS_Button_d2549803f7ce429fb1dc019acf132e2b": {
        "id": "AS_Button_d2549803f7ce429fb1dc019acf132e2b",
        "type": "ACTION_SEQUENCE",
        "name": "actionOnbtnCancel",
        "params": [{
            "datatype": "collection",
            "name": "eventobject"
        }],
        "contextObj": {
            "type": "forms",
            "platform": "",
            "KUID": "b4870a6da63f4ff881da0234729a0f4e"
        },
        "language": "js",
        "actions": [{
            "id": "ADD_SNIPPET__f84a8124340d442b84b0681e4b93cc53",
            "type": "ADD_SNIPPET",
            "codeSnippet": "kony.print(\"Deleted\");",
            "parentId": null,
            "callbackType": null
        }]
    }
}