{
    "AS_Image_id481a6f60bb4b39b970660dee59ca26": {
        "id": "AS_Image_id481a6f60bb4b39b970660dee59ca26",
        "type": "ACTION_SEQUENCE",
        "name": "actionOnClickClose",
        "params": [{
            "datatype": "collection",
            "name": "eventobject"
        }, {
            "datatype": "string",
            "name": "x"
        }, {
            "datatype": "string",
            "name": "y"
        }],
        "contextObj": {
            "type": "forms",
            "platform": "",
            "KUID": "a7e7b33553484e9c83559a91d27212e3"
        },
        "language": "js",
        "actions": [{
            "id": "ADD_SNIPPET__ad613b454be940a98df6c8d132d55c77",
            "type": "ADD_SNIPPET",
            "codeSnippet": "kony.print(\"deleted\");",
            "parentId": null,
            "callbackType": null
        }]
    }
}