{
    "AS_Button_d3bdaa844ce34a4ea2d5371e0169cf69": {
        "id": "AS_Button_d3bdaa844ce34a4ea2d5371e0169cf69",
        "type": "ACTION_SEQUENCE",
        "name": "actionOnSQLogout",
        "params": [{
            "datatype": "collection",
            "name": "eventobject"
        }],
        "contextObj": {
            "type": "forms",
            "platform": "",
            "KUID": "cb977d23d25e44d0968c446c681f4dc7"
        },
        "language": "js",
        "actions": [{
            "id": "SHOW_ALERT__f572a3e7e9e84cb6bc4010f5c8099201",
            "type": "SHOW_ALERT",
            "alertType": "constants.ALERT_TYPE_CONFIRMATION",
            "alertTitle": "Confirm Sign Out",
            "yesLabel": "Sign Out",
            "noLabel": "Cancel",
            "alertMessage": "Are you sure you want to sign out?",
            "messageType": "constant",
            "parentId": null,
            "alertTitlei18n": "i18n.common.confirmSignOut",
            "yesLabeli18n": "i18n.common.signOut",
            "noLabeli18n": "i18n.common.cancel",
            "alertMessagei18n": "i18n.common.signOutAlert",
            "iconPosition": "constants.ALERT_ICON_POSITION_LEFT"
        }, {
            "id": "ADD_SNIPPET__j62da909589a491886f7b97b5578725f",
            "type": "ADD_SNIPPET",
            "codeSnippet": "kony.print(\"Deleted\");",
            "parentId": "SHOW_ALERT__f572a3e7e9e84cb6bc4010f5c8099201",
            "callbackType": "True"
        }]
    }
}