{
    "AS_Button_c97312720b944bd3b096cd38be1396bc": {
        "id": "AS_Button_c97312720b944bd3b096cd38be1396bc",
        "type": "ACTION_SEQUENCE",
        "name": "actionOnGenderBack",
        "params": [{
            "datatype": "collection",
            "name": "eventobject"
        }],
        "contextObj": {
            "type": "forms",
            "platform": "",
            "KUID": "eb12f8ffbb2d4f6a8412288b6ea74d19"
        },
        "language": "js",
        "actions": [{
            "id": "ADD_SNIPPET__je4250fc7bb94eca978b547950cb4cac",
            "type": "ADD_SNIPPET",
            "codeSnippet": "kony.print(\"Deleted\");",
            "parentId": null,
            "callbackType": null
        }]
    }
}