{
    "AS_Button_gde8494ef62747aaa5792214bab0d280": {
        "id": "AS_Button_gde8494ef62747aaa5792214bab0d280",
        "type": "ACTION_SEQUENCE",
        "name": "actionOnbtnLogin",
        "params": [{
            "datatype": "collection",
            "name": "eventobject"
        }],
        "contextObj": {
            "type": "forms",
            "platform": "",
            "KUID": "df10c73727f6431c97b66d9fe3bb8549"
        },
        "language": "js",
        "actions": [{
            "id": "ADD_SNIPPET__b0cbf87f56bb460f9e4a004689f7dca8",
            "type": "ADD_SNIPPET",
            "codeSnippet": "frmLoginKA.show();",
            "parentId": null,
            "callbackType": null
        }]
    }
}