{
    "AS_Button_63e8cc3d643d4f8e8dcf39b6a466062b": {
        "id": "AS_Button_63e8cc3d643d4f8e8dcf39b6a466062b",
        "type": "ACTION_SEQUENCE",
        "name": "actionOnClickOKConfirmationPersonalDetailsKA",
        "params": [{
            "datatype": "collection",
            "name": "eventobject"
        }],
        "contextObj": {
            "name": "frmConfirmationPersonalDetailsKA",
            "type": "forms",
            "platform": null,
            "KUID": "4b0055df8e1a4c279580cc24347babe5"
        },
        "language": "js",
        "actions": [{
            "id": "ADD_SNIPPET__30f53c4f1bf144828b7fa6a186a1aaa1",
            "type": "ADD_SNIPPET",
            "codeSnippet": "frmUserSettingsMyProfileKA.show();",
            "parentId": null,
            "callbackType": null
        }]
    }
}