{
    "AS_Button_a112fd9896dc46cfa14ba251e43fa35c": {
        "id": "AS_Button_a112fd9896dc46cfa14ba251e43fa35c",
        "type": "ACTION_SEQUENCE",
        "name": "actionOnAdButton",
        "params": [{
            "datatype": "collection",
            "name": "eventobject"
        }],
        "contextObj": {
            "name": "frmPostLoginAdvertisementKA",
            "type": "forms",
            "platform": "",
            "KUID": "a71da10c725748d8a1298eb522d627b9"
        },
        "language": "js",
        "actions": [{
            "id": "ADD_SNIPPET__if6b4abb293e4ca0a85f4fc71723c9e6",
            "type": "ADD_SNIPPET",
            "codeSnippet": "var postLoginVC = applicationManager.getpostLoginAdsViewController();\npostLoginVC.adActionButtonOnClick();",
            "parentId": null,
            "callbackType": null
        }]
    }
}