{
    "AS_Form_cda58e46c47f43acaa879246adec43a8": {
        "id": "AS_Form_cda58e46c47f43acaa879246adec43a8",
        "type": "ACTION_SEQUENCE",
        "name": "actionOnEmpTypeInit",
        "params": [{
            "datatype": "collection",
            "name": "eventobject"
        }],
        "contextObj": {
            "type": "forms",
            "platform": "",
            "KUID": "d3cd81c5a2374c97b08d6412ea0d16ef"
        },
        "language": "js",
        "actions": [{
            "id": "ADD_SNIPPET__d6a577e63cd64ae5b13bf383d4683b14",
            "type": "ADD_SNIPPET",
            "codeSnippet": "kony.print(\"Deleted\");",
            "parentId": null,
            "callbackType": null
        }]
    }
}