{
    "AS_TextField_a574c9b14a2b4ad796c02001e3e2d551": {
        "id": "AS_TextField_a574c9b14a2b4ad796c02001e3e2d551",
        "type": "ACTION_SEQUENCE",
        "name": "actionOnTextChangeDOB",
        "params": [{
            "datatype": "collection",
            "name": "eventobject"
        }, {
            "datatype": "string",
            "name": "changedtext"
        }],
        "contextObj": {
            "type": "forms",
            "platform": "",
            "KUID": "g01e44fc626946168f2084ad3d64d5ff"
        },
        "language": "js",
        "actions": [{
            "id": "ADD_SNIPPET__d7c805f2abb9481da404bac97fe3f401",
            "type": "ADD_SNIPPET",
            "codeSnippet": "kony.print(\"Deleted\");",
            "parentId": null,
            "callbackType": null
        }]
    }
}