{
    "AS_Button_c3975e0cd9a445a18788b38db78dd839": {
        "id": "AS_Button_c3975e0cd9a445a18788b38db78dd839",
        "type": "ACTION_SEQUENCE",
        "name": "actionOnDependentsBack",
        "params": [{
            "datatype": "collection",
            "name": "eventobject"
        }],
        "language": "js",
        "actions": [{
            "id": "ADD_SNIPPET_ide_onClick_a59d6a925602456bbee224d8a09208cb",
            "type": "ADD_SNIPPET",
            "codeSnippet": "kony.print(\"Deleted\");",
            "callbackType": null
        }]
    }
}