{
    "AS_Form_jd94f42c04cc463ba415160aaba928cf": {
        "id": "AS_Form_jd94f42c04cc463ba415160aaba928cf",
        "type": "ACTION_SEQUENCE",
        "name": "actionOnfrmPostLoginAdvertisementPreshow",
        "params": [{
            "datatype": "collection",
            "name": "eventobject"
        }],
        "contextObj": {
            "name": "frmPostLoginAdvertisementKA",
            "type": "forms",
            "platform": "",
            "KUID": "a71da10c725748d8a1298eb522d627b9"
        },
        "language": "js",
        "actions": [{
            "id": "ADD_SNIPPET__i121a8426782481aae9583235dd76a79",
            "type": "ADD_SNIPPET",
            "codeSnippet": "var postLoginVC = applicationManager.getpostLoginAdsViewController();\npostLoginVC.frmPostloginAdvertisementPreshow();\n\n\n\n",
            "parentId": null,
            "callbackType": null
        }]
    }
}