{
    "AS_Button_357cc8c302404e8e9a1b8d135e4d68a8": {
        "id": "AS_Button_357cc8c302404e8e9a1b8d135e4d68a8",
        "type": "ACTION_SEQUENCE",
        "name": "ActionMangeCardActivate",
        "params": [{
            "datatype": "collection",
            "name": "eventobject"
        }],
        "contextObj": {
            "name": "frmManageCardsKA",
            "type": "forms",
            "platform": "",
            "KUID": "75db60b6b4944b7faf9c556f4dbcaf8d"
        },
        "language": "js",
        "actions": [{
            "id": "ADD_SNIPPET__942859188e514888a763e20ad786b2dc",
            "type": "ADD_SNIPPET",
            "codeSnippet": "cardManagementOperations(\"activateordeactivate\");",
            "parentId": null,
            "callbackType": null
        }]
    }
}