{
    "AS_TextField_je44e4dac85445079a810acc76504fa3": {
        "id": "AS_TextField_je44e4dac85445079a810acc76504fa3",
        "type": "ACTION_SEQUENCE",
        "name": "actionOnPIFirstNameTextChange",
        "params": [{
            "datatype": "collection",
            "name": "eventobject"
        }, {
            "datatype": "string",
            "name": "changedtext"
        }],
        "contextObj": {
            "type": "forms",
            "platform": "",
            "KUID": "a731b583d1a64636b14ee729d1c40cfb"
        },
        "language": "js",
        "actions": [{
            "id": "ADD_SNIPPET__f505aaabcbc84beb90ec1f017abba143",
            "type": "ADD_SNIPPET",
            "codeSnippet": "kony.print(\"deleted\");",
            "parentId": null,
            "callbackType": null
        }]
    }
}