{
    "AS_Button_g3f177c1d0954edfa7e5817f7f488897": {
        "id": "AS_Button_g3f177c1d0954edfa7e5817f7f488897",
        "type": "ACTION_SEQUENCE",
        "name": "actOnBack",
        "params": [{
            "datatype": "collection",
            "name": "eventobject"
        }],
        "contextObj": {
            "type": "forms",
            "platform": "",
            "KUID": "i5fdc67c266a42c59e6302f1645d0c56"
        },
        "language": "js",
        "actions": [{
            "id": "ADD_SNIPPET__dd3f8024808846ddb4aaf5d1b6ca5581",
            "type": "ADD_SNIPPET",
            "codeSnippet": "kony.print(\"Deleted\");",
            "parentId": null,
            "callbackType": null
        }]
    }
}