{
    "AS_Image_dc6a815418e649069104a650fe9c3100": {
        "id": "AS_Image_dc6a815418e649069104a650fe9c3100",
        "type": "ACTION_SEQUENCE",
        "name": "afwansearchfromicon",
        "params": [{
            "datatype": "collection",
            "name": "eventobject"
        }, {
            "datatype": "string",
            "name": "x"
        }, {
            "datatype": "string",
            "name": "y"
        }],
        "contextObj": {
            "name": "frmJoMoPayLanding",
            "type": "forms",
            "platform": "",
            "KUID": "d298f6fe5af04a4dbf76c2b5625a9f8c"
        },
        "language": "js",
        "actions": [{
            "id": "ADD_SNIPPET__e89e6358bded4475978d21419838086e",
            "type": "ADD_SNIPPET",
            "codeSnippet": "searchString(frmJoMoPayLanding.txtSearch.text,jpdata);",
            "parentId": null,
            "callbackType": null
        }]
    }
}