{
    "AS_TextField_b1325229fcb14190b124c5a6eb8d6d5f": {
        "id": "AS_TextField_b1325229fcb14190b124c5a6eb8d6d5f",
        "type": "ACTION_SEQUENCE",
        "name": "AS_animateRegisterPasswordLabelDownAndroid",
        "params": [{
            "datatype": "collection",
            "name": "eventobject"
        }, {
            "datatype": "string",
            "name": "changedtext"
        }],
        "contextObj": {
            "name": "frmEnrolluserLandingKA",
            "type": "forms",
            "platform": "",
            "KUID": "de724966138b4e7c9bfdd35033a0bdb3"
        },
        "language": "js",
        "actions": [{
            "id": "ADD_SNIPPET__i006a7af381a41289ad17b1da7992958",
            "type": "ADD_SNIPPET",
            "codeSnippet": "if(kony.retailBanking.util.validation.isValidPassword(frmEnrolluserLandingKA.tbxPasswordKA.text)){\n  frmEnrolluserLandingKA.flxUnderlinePassword.skin = \"sknFlxGreenLine\";\n  frmEnrolluserLandingKA.flxPasswordValidation.isVisible = false;\n  passwordFlag = true;\n}\nelse{\n  frmEnrolluserLandingKA.flxPasswordValidation.isVisible = true;\n  frmEnrolluserLandingKA.flxUnderlinePassword.skin = \"sknFlxOrangeLine\";\n  passwordFlag = false;\n}\n\nanimateLabel(\"DOWN\", \"lblPassword\", frmEnrolluserLandingKA.tbxPasswordKA.text);",
            "parentId": null,
            "callbackType": null
        }]
    }
}