{
    "AS_Button_a0fb44d6d63c4d2b991d78e3da3eb26e": {
        "id": "AS_Button_a0fb44d6d63c4d2b991d78e3da3eb26e",
        "type": "ACTION_SEQUENCE",
        "params": [{
            "datatype": "collection",
            "name": "eventobject"
        }],
        "language": "js",
        "actions": [{
            "id": "ADD_SNIPPET_ide_onClick_d2976b4b238240f0ab3a1d19a8022bfd",
            "type": "ADD_SNIPPET",
            "codeSnippet": "DiableQBPLFeature();",
            "callbackType": null
        }]
    }
}