{
    "AS_Button_e7c8f07806164a2a9a7a13bda0e1977e": {
        "id": "AS_Button_e7c8f07806164a2a9a7a13bda0e1977e",
        "type": "ACTION_SEQUENCE",
        "params": [{
            "datatype": "collection",
            "name": "eventobject"
        }],
        "contextObj": {
            "name": "frmManagePayeeKA",
            "type": "forms",
            "platform": "",
            "KUID": "794f84071c7c4320866cf3978ca5357e"
        },
        "language": "js",
        "actions": [{
            "id": "ADD_SNIPPET_ide_onClick_a034b00230354f6d855bf4173b3c89d3",
            "type": "ADD_SNIPPET",
            "codeSnippet": "frmAddNewPayeeKA.show();",
            "callbackType": null
        }]
    }
}