{
    "AS_Button_e19951c8c37848229c0aa62bdf8dfc5c": {
        "id": "AS_Button_e19951c8c37848229c0aa62bdf8dfc5c",
        "type": "ACTION_SEQUENCE",
        "name": "AS_Button_OnClickEditJomopayBene",
        "params": [{
            "datatype": "collection",
            "name": "eventobject"
        }],
        "language": "js",
        "actions": [{
            "id": "ADD_SNIPPET_ide_onClick_c933b4a7d655427ca8d7efbb2650983c",
            "type": "ADD_SNIPPET",
            "codeSnippet": "if(validate_JOMOPAYBILLER()){\n\t//serv_UPDATE_JOMOPAY_BENEFICIARY_DETAILS(); hassan \n  goToConfirmScreen();\n}",
            "callbackType": null
        }]
    }
}