{
    "AS_Button_daaa775ca2d64f639fa9020824f74985": {
        "id": "AS_Button_daaa775ca2d64f639fa9020824f74985",
        "type": "ACTION_SEQUENCE",
        "params": [{
            "datatype": "collection",
            "name": "eventobject"
        }],
        "contextObj": {
            "name": "frmDeviceRegistrationOptionsKA",
            "type": "forms",
            "platform": null,
            "KUID": "24f3bbc2ed074c75a9b6604d9e48a90c"
        },
        "language": "js",
        "actions": [{
            "id": "ADD_SNIPPET__eecb2abe4b5d4477b007cff159c2fc95",
            "type": "ADD_SNIPPET",
            "codeSnippet": "updateFlags(\"deviceRegisterFlag\",true);\n//frmDeviceRegistrationPinActivationKA.show();",
            "parentId": null,
            "callbackType": null
        }]
    }
}