{
    "AS_Button_d0f30fc5a2244282a00975ddda8ed8b9": {
        "id": "AS_Button_d0f30fc5a2244282a00975ddda8ed8b9",
        "type": "ACTION_SEQUENCE",
        "params": [{
            "datatype": "collection",
            "name": "eventobject"
        }],
        "language": "js",
        "actions": [{
            "id": "ADD_SNIPPET_ide_onClick_d67f789ec77b4de78fc05772fd2bad49",
            "type": "ADD_SNIPPET",
            "codeSnippet": "frmManageCardsKA.show();",
            "callbackType": null
        }]
    }
}