{
    "AS_Button_b5a4fc31f670477696ade7ba1c8ceeb2": {
        "id": "AS_Button_b5a4fc31f670477696ade7ba1c8ceeb2",
        "type": "ACTION_SEQUENCE",
        "params": [{
            "datatype": "collection",
            "name": "eventobject"
        }],
        "language": "js",
        "actions": [{
            "id": "ADD_SNIPPET_ide_onClick_a9dda15c99bf4fc692f0c38ea09a9eff",
            "type": "ADD_SNIPPET",
            "codeSnippet": "gblToOTPFrom = \"AddBene\";\nShowLoadingScreen();\ncallRequestOTP();\n//frmNewUserOnboardVerificationKA.show();\n// var INSTANCE = kony.sdk.mvvm.KonyApplicationContext.getAppInstance();\n// var listController = INSTANCE.getFormController(\"frmAddExternalAccountKA\");\n// listController.performAction(\"saveData\");\n// kony.boj.detailsForBene.flag = false;",
            "callbackType": null
        }]
    }
}