{
    "AS_Button_ae96c22cf6314c8ea1ab4e3f2a148976": {
        "id": "AS_Button_ae96c22cf6314c8ea1ab4e3f2a148976",
        "type": "ACTION_SEQUENCE",
        "params": [{
            "datatype": "collection",
            "name": "eventobject"
        }],
        "language": "js",
        "actions": [{
            "id": "ADD_SNIPPET_ide_onClick_e6df3396095d424ea99d562c7a0bf37e",
            "type": "ADD_SNIPPET",
            "codeSnippet": "kony.print(\"Removed\");",
            "callbackType": null
        }]
    }
}