{
    "AS_Button_c370e17f01c24211be46319187f65efc": {
        "id": "AS_Button_c370e17f01c24211be46319187f65efc",
        "type": "ACTION_SEQUENCE",
        "params": [{
            "datatype": "collection",
            "name": "eventobject"
        }],
        "language": "js",
        "actions": [{
            "id": "ADD_SNIPPET_ide_onClick_a9d5cb5b17d247e8b14e9ecee5220b6b",
            "type": "ADD_SNIPPET",
            "codeSnippet": "check(8);",
            "callbackType": null
        }]
    }
}