{
    "AS_Button_e6965457f8914c4199e3fef949536081": {
        "id": "AS_Button_e6965457f8914c4199e3fef949536081",
        "type": "ACTION_SEQUENCE",
        "params": [{
            "datatype": "collection",
            "name": "eventobject"
        }],
        "contextObj": {
            "name": "frmAccountDetailKA",
            "type": "forms",
            "platform": "",
            "KUID": "5ed703cad63c441882fc4a36f5ea0c28"
        },
        "language": "js",
        "actions": [{
            "id": "ADD_SNIPPET__hd9b097eaf6540858e935a62801cf517",
            "type": "ADD_SNIPPET",
            "codeSnippet": "navOptTransfer(2);",
            "parentId": null,
            "callbackType": null
        }]
    }
}