{
    "AS_Button_h855b56f0df641149151a6d17595ce9e": {
        "id": "AS_Button_h855b56f0df641149151a6d17595ce9e",
        "type": "ACTION_SEQUENCE",
        "params": [{
            "datatype": "collection",
            "name": "eventobject"
        }],
        "contextObj": {
            "name": "frmLoginKA",
            "type": "forms",
            "platform": "",
            "KUID": "7b1aa8fceb6b4070833e9eab879b0e5e"
        },
        "language": "js",
        "actions": [{
            "id": "ADD_SNIPPET__ee541b22c3ae49daa7304643a0ef7996",
            "type": "ADD_SNIPPET",
            "codeSnippet": "startOnboardingActivity();",
            "parentId": null,
            "callbackType": null
        }]
    }
}