{
    "AS_Button_c8a4d62eb356430084bb82e26c305a9d": {
        "id": "AS_Button_c8a4d62eb356430084bb82e26c305a9d",
        "type": "ACTION_SEQUENCE",
        "params": [{
            "datatype": "collection",
            "name": "eventobject"
        }],
        "contextObj": {
            "name": "frmEPS",
            "type": "forms",
            "platform": "",
            "KUID": "c49bbb3175be499d86d933cee301b3c4"
        },
        "language": "js",
        "actions": []
    }
}