{
    "AS_Button_h8c2abf0eb80466c8dcdf8f918e282b1": {
        "id": "AS_Button_h8c2abf0eb80466c8dcdf8f918e282b1",
        "type": "ACTION_SEQUENCE",
        "params": [{
            "datatype": "collection",
            "name": "eventobject"
        }],
        "contextObj": {
            "type": "forms",
            "platform": "",
            "KUID": "he1d62b4711f4c5abdcb97f4fa0c8653"
        },
        "language": "js",
        "actions": [{
            "id": "ADD_SNIPPET__e818855ebb534ddc821e886fc6359a88",
            "type": "ADD_SNIPPET",
            "codeSnippet": "var vc = new kony.rb.frmContactListphnViewController();\nvc.contactListGoBack();",
            "parentId": null,
            "callbackType": null
        }]
    }
}