{
    "AS_Button_08aeae098b264f7fad4511d12f4d8b83": {
        "id": "AS_Button_08aeae098b264f7fad4511d12f4d8b83",
        "type": "ACTION_SEQUENCE",
        "params": [{
            "datatype": "collection",
            "name": "eventobject"
        }],
        "language": "js",
        "actions": [{
            "id": "ADD_SNIPPET__422f0fa0495a456ba74a199ea2e29a7a",
            "type": "ADD_SNIPPET",
            "codeSnippet": " var INSTANCE = kony.sdk.mvvm.KonyApplicationContext.getAppInstance();\n var controller = INSTANCE.getFormController(\"frmAccountDetailKA\");\n controller.getFormModel().showView();",
            "parentId": null,
            "callbackType": null
        }]
    }
}