{
    "AS_Button_c5ec4bc970e4480f8abfa367ad3e2590": {
        "id": "AS_Button_c5ec4bc970e4480f8abfa367ad3e2590",
        "type": "ACTION_SEQUENCE",
        "params": [{
            "datatype": "collection",
            "name": "eventobject"
        }],
        "contextObj": {
            "name": "frmAccountDetailKA",
            "type": "forms",
            "platform": "",
            "KUID": "5ed703cad63c441882fc4a36f5ea0c28"
        },
        "language": "js",
        "actions": [{
            "id": "ADD_SNIPPET__ia4fb17fe604484394eb6760d33a24d4",
            "type": "ADD_SNIPPET",
            "codeSnippet": "navOptTransfer(3);",
            "parentId": null,
            "callbackType": null
        }]
    }
}