{
    "AS_Button_9d34b080f56e41b08d53c80e22aa1fa5": {
        "id": "AS_Button_9d34b080f56e41b08d53c80e22aa1fa5",
        "type": "ACTION_SEQUENCE",
        "params": [{
            "datatype": "collection",
            "name": "eventobject"
        }],
        "language": "js",
        "actions": [{
            "id": "NAVIGATE_TO_FORM__ide_onClick_d712dbf243704e99bea1f367e55dcfd9",
            "type": "NAVIGATE_TO_FORM",
            "formId": "frmAccountDetailKA",
            "formKUID": "5ed703cad63c441882fc4a36f5ea0c28",
            "mappings": {},
            "mappingsOrder": [],
            "parentId": "",
            "callbackType": null,
            "enableMappingEditor": true,
            "package": "",
            "navigationObj": "{\n    \"_meta_\": {\n        \"eventName\": \"\",\n        \"widgetId\": \"\"\n    }\n}",
            "isCustomInput": false
        }]
    }
}