{
    "AS_Button_be3a5a6b155f4a7da89b241a20e47ae9": {
        "id": "AS_Button_be3a5a6b155f4a7da89b241a20e47ae9",
        "type": "ACTION_SEQUENCE",
        "params": [{
            "datatype": "collection",
            "name": "eventobject"
        }],
        "language": "js",
        "actions": [{
            "id": "ADD_SNIPPET_ide_onClick_f54c9dbf6f1b49cbadd1460fc134a520",
            "type": "ADD_SNIPPET",
            "codeSnippet": "gblToOTPFrom = \"AddBiller\";\nShowLoadingScreen();\nINSTANCE = kony.sdk.mvvm.KonyApplicationContext.getAppInstance();\nlistController = INSTANCE.getFormController(\"frmAddNewPayeeKA\");\nlistController.performAction(\"saveData\");\n//callRequestOTP();\n// frmNewUserOnboardVerificationKA.show();",
            "callbackType": null
        }]
    }
}