{
    "AS_Button_7201621ca0b74eb781500638cffd1f74": {
        "id": "AS_Button_7201621ca0b74eb781500638cffd1f74",
        "type": "ACTION_SEQUENCE",
        "params": [{
            "datatype": "collection",
            "name": "eventobject"
        }],
        "contextObj": {
            "name": "frmEditPayeeKA",
            "type": "forms",
            "platform": "",
            "KUID": "acf9bb71b94d4dc3ac913d05db7ddee3"
        },
        "language": "js",
        "actions": [{
            "id": "ADD_SNIPPET__b3d4c1eeb6804943a682e5b5be279c52",
            "type": "ADD_SNIPPET",
            "codeSnippet": "    var INSTANCE = kony.sdk.mvvm.KonyApplicationContext.getAppInstance();\n    var frmName = kony.application.getCurrentForm().id;\n    var listController = INSTANCE.getFormController(frmName);\n    listController.performAction(\"validateEditAccountMobile\");",
            "parentId": null,
            "callbackType": null
        }]
    }
}