{
    "AS_Button_e867e2ee64814e9a83f214174fd5d5ae": {
        "id": "AS_Button_e867e2ee64814e9a83f214174fd5d5ae",
        "type": "ACTION_SEQUENCE",
        "params": [{
            "datatype": "collection",
            "name": "eventobject"
        }],
        "language": "js",
        "actions": [{
            "id": "ADD_SNIPPET_ide_onClick_c119d016f6a743f8b2387f55ffe93e53",
            "type": "ADD_SNIPPET",
            "codeSnippet": "frmPaymentDashboard.show();",
            "callbackType": null
        }]
    }
}