{
    "AS_Button_i1220a94f1b943e8bf527af12aabc172": {
        "id": "AS_Button_i1220a94f1b943e8bf527af12aabc172",
        "type": "ACTION_SEQUENCE",
        "params": [{
            "datatype": "collection",
            "name": "eventobject"
        }],
        "language": "js",
        "actions": [{
            "id": "ADD_SNIPPET_ide_onClick_g37d501f19a445e6abdfca3d8179d814",
            "type": "ADD_SNIPPET",
            "codeSnippet": "customVerb_CARDSDETAILS();",
            "callbackType": null
        }]
    }
}