{
    "AS_Button_c9bcd0bdcc4649828999153d2cb34c0f": {
        "id": "AS_Button_c9bcd0bdcc4649828999153d2cb34c0f",
        "type": "ACTION_SEQUENCE",
        "params": [{
            "datatype": "collection",
            "name": "eventobject"
        }],
        "contextObj": {
            "type": "forms",
            "platform": "",
            "KUID": "e3b9d10a5412423ca556ee8470d3ff60"
        },
        "language": "js",
        "actions": [{
            "id": "ADD_SNIPPET__f335020bf7344193ba0484f5a1137a9e",
            "type": "ADD_SNIPPET",
            "codeSnippet": "var navManager = applicationManager.getNavManager();\nnavManager.navigateTo(\"frmLoginKA\");",
            "parentId": null,
            "callbackType": null
        }]
    }
}