{
    "AS_Button_j9d5fa5db17d4e2583a3de04bbb435b0": {
        "id": "AS_Button_j9d5fa5db17d4e2583a3de04bbb435b0",
        "type": "ACTION_SEQUENCE",
        "params": [{
            "datatype": "collection",
            "name": "eventobject"
        }],
        "language": "js",
        "actions": [{
            "id": "ADD_SNIPPET_ide_onClick_b7b42559ecb74c639a1620bf36a0ff13",
            "type": "ADD_SNIPPET",
            "codeSnippet": "if(kony.store.getItem(\"langPrefObj\") === \"en\")\n    kony.boj.lang = \"eng\";\n  else\n    kony.boj.lang = \"ara\";\n\ngblTModule = \"billspay\";\ngetAllAccounts();",
            "callbackType": null
        }]
    }
}