{
    "AS_Button_dcd6fc4374bf47ec95e4360951be3428": {
        "id": "AS_Button_dcd6fc4374bf47ec95e4360951be3428",
        "type": "ACTION_SEQUENCE",
        "params": [{
            "datatype": "collection",
            "name": "eventobject"
        }],
        "contextObj": {
            "name": "frmAccountDetailKA",
            "type": "forms",
            "platform": "",
            "KUID": "5ed703cad63c441882fc4a36f5ea0c28"
        },
        "language": "js",
        "actions": [{
            "id": "ADD_SNIPPET__f115897037614974bdbb0e6cd725a808",
            "type": "ADD_SNIPPET",
            "codeSnippet": "kony.print(\"Asdas\");",
            "parentId": null,
            "callbackType": null
        }]
    }
}