{
    "AS_Button_78c1b736a0c44cc0b287ec38a410b3f9": {
        "id": "AS_Button_78c1b736a0c44cc0b287ec38a410b3f9",
        "type": "ACTION_SEQUENCE",
        "params": [{
            "datatype": "collection",
            "name": "eventobject"
        }],
        "language": "js",
        "actions": [{
            "id": "ADD_SNIPPET_ide_onClick_749eefeb5cb345e1b8bbc95309dab400",
            "type": "ADD_SNIPPET",
            "codeSnippet": "onWithdrawalSelected();",
            "callbackType": null
        }]
    }
}