{
    "AS_Button_cb594805a41f4e3a9af31331a209079f": {
        "id": "AS_Button_cb594805a41f4e3a9af31331a209079f",
        "type": "ACTION_SEQUENCE",
        "params": [{
            "datatype": "collection",
            "name": "eventobject"
        }],
        "language": "js",
        "actions": [{
            "id": "ADD_SNIPPET_ide_onClick_j734efe742824651a55bcc5a926af06b",
            "type": "ADD_SNIPPET",
            "codeSnippet": "showAccountInsights();\n  ",
            "callbackType": null
        }]
    }
}