{
    "AS_Button_e848e4bf533348ed98e8e33d94882fca": {
        "id": "AS_Button_e848e4bf533348ed98e8e33d94882fca",
        "type": "ACTION_SEQUENCE",
        "params": [{
            "datatype": "collection",
            "name": "eventobject"
        }],
        "language": "js",
        "actions": [{
            "id": "SHOW_ALERT_ide_onClick_805740d7a4914ce08b22d6ab0c5262e0",
            "type": "SHOW_ALERT",
            "alertType": "constants.ALERT_TYPE_CONFIRMATION",
            "alertTitle": "Confirm Sign Out",
            "yesLabel": "Sign Out",
            "noLabel": "Cancel",
            "alertMessage": "Are you sure you want to sign out?",
            "messageType": "constant",
            "callbackType": null,
            "alertTitlei18n": "i18n.common.confirmSignOut",
            "yesLabeli18n": "i18n.common.signOut",
            "noLabeli18n": "i18n.common.cancel",
            "alertMessagei18n": "i18n.common.signOutAlert",
            "iconPosition": "constants.ALERT_ICON_POSITION_LEFT"
        }, {
            "id": "ADD_SNIPPET_ide_onClick_4fa8f2ea6df64f76a7f0ddf5c58912f3",
            "type": "ADD_SNIPPET",
            "codeSnippet": "deviceRegFrom = \"logout\";\nremoveSwipe();\nkony.sdk.mvvm.LogoutAction();",
            "parentId": "SHOW_ALERT_ide_onClick_805740d7a4914ce08b22d6ab0c5262e0",
            "callbackType": "True"
        }]
    }
}