{
    "AS_Button_cd5f7943c15341cd8be65e5b7d212260": {
        "id": "AS_Button_cd5f7943c15341cd8be65e5b7d212260",
        "type": "ACTION_SEQUENCE",
        "params": [{
            "datatype": "collection",
            "name": "eventobject"
        }],
        "language": "js",
        "actions": [{
            "id": "SHOW_ALERT_onClick_45875596f0074e8a8ed7487c91f990e7",
            "type": "SHOW_ALERT",
            "alertType": "constants.ALERT_TYPE_CONFIRMATION",
            "alertTitle": "Confirm Sign Out",
            "yesLabel": "Sign Out",
            "noLabel": "Cancel",
            "alertMessage": "Are you sure you want to sign out?",
            "messageType": "constant",
            "callbackType": null,
            "alertTitlei18n": "i18n.common.confirmSignOut",
            "yesLabeli18n": "i18n.common.signOut",
            "noLabeli18n": "i18n.common.cancel",
            "alertMessagei18n": "i18n.common.signOutAlert",
            "iconPosition": "constants.ALERT_ICON_POSITION_LEFT"
        }, {
            "id": "ADD_SNIPPET__0e9f8330bcd245e7b8de761202d761d9",
            "type": "ADD_SNIPPET",
            "codeSnippet": "closeAndroidNav();\ndeviceRegFrom = \"logout\";\nkony.sdk.mvvm.LogoutAction();\n",
            "parentId": "SHOW_ALERT_onClick_45875596f0074e8a8ed7487c91f990e7",
            "callbackType": "True"
        }]
    }
}