{
    "AS_Button_gfe2eac50e2d4518903289ba0bd5afaa": {
        "id": "AS_Button_gfe2eac50e2d4518903289ba0bd5afaa",
        "type": "ACTION_SEQUENCE",
        "params": [{
            "datatype": "collection",
            "name": "eventobject"
        }],
        "language": "js",
        "actions": [{
            "id": "ADD_SNIPPET_ide_onClick_ec0e937734134ff9ae88ece0a1953da7",
            "type": "ADD_SNIPPET",
            "codeSnippet": "onClickCardsMenu();",
            "callbackType": null
        }]
    }
}