{
    "AS_Button_d8632c72718d4db083968108d6eb08c7": {
        "id": "AS_Button_d8632c72718d4db083968108d6eb08c7",
        "type": "ACTION_SEQUENCE",
        "params": [{
            "datatype": "collection",
            "name": "eventobject"
        }],
        "contextObj": {
            "name": "frmAccountDetailKA",
            "type": "forms",
            "platform": "",
            "KUID": "5ed703cad63c441882fc4a36f5ea0c28"
        },
        "language": "js",
        "actions": [{
            "id": "ADD_SNIPPET__d0ef08079f844e9b81a829ad29d0f331",
            "type": "ADD_SNIPPET",
            "codeSnippet": "kony.print(\"\");",
            "parentId": null,
            "callbackType": null
        }]
    }
}