{
    "AS_Button_c3415bd103144292945e5e2c0ee6dea1": {
        "id": "AS_Button_c3415bd103144292945e5e2c0ee6dea1",
        "type": "ACTION_SEQUENCE",
        "params": [{
            "datatype": "collection",
            "name": "eventobject"
        }],
        "language": "js",
        "actions": [{
            "id": "ADD_SNIPPET_ide_onClick_aa6af0b35100421ba3f49a2b476b4210",
            "type": "ADD_SNIPPET",
            "codeSnippet": "showAccountInsights();\n  ",
            "callbackType": null
        }]
    }
}