{
    "AS_Button_bddcef6018bf4f81a52940ce7040d729": {
        "id": "AS_Button_bddcef6018bf4f81a52940ce7040d729",
        "type": "ACTION_SEQUENCE",
        "name": "AS_Button_onClickEfawatercoomDashboard",
        "params": [{
            "datatype": "collection",
            "name": "eventobject"
        }],
        "contextObj": {
            "name": "frmPaymentDashboard",
            "type": "forms",
            "platform": "",
            "KUID": "j5584f57cd764e66adb4087c6fc15f67"
        },
        "language": "js",
        "actions": [{
            "id": "ADD_SNIPPET__j6fb93290103415b9ba0018834f3a5e5",
            "type": "ADD_SNIPPET",
            "codeSnippet": "if(kony.store.getItem(\"langPrefObj\") === \"en\")\n    kony.boj.lang = \"eng\";\n  else\n    kony.boj.lang = \"ara\";\n\ngblTModule = \"billspay\";\ngetAllAccounts();",
            "parentId": null,
            "callbackType": null
        }]
    }
}