{
    "AS_Button_c50f55da7abc4e9bbc305b28a6a4a969": {
        "id": "AS_Button_c50f55da7abc4e9bbc305b28a6a4a969",
        "type": "ACTION_SEQUENCE",
        "params": [{
            "datatype": "collection",
            "name": "eventobject"
        }],
        "language": "js",
        "actions": [{
            "id": "ADD_SNIPPET_ide_onClick_fa8db84109904b02aa4b8ca500358b98",
            "type": "ADD_SNIPPET",
            "codeSnippet": "scheduledTabSelectedAccounts();",
            "callbackType": null
        }]
    }
}