{
    "AS_Button_34687d3b67d3474e8b0c17ee9a2248a2": {
        "id": "AS_Button_34687d3b67d3474e8b0c17ee9a2248a2",
        "type": "ACTION_SEQUENCE",
        "params": [{
            "datatype": "collection",
            "name": "eventobject"
        }],
        "contextObj": {
            "name": "frmAccountInfoKA",
            "type": "forms",
            "platform": "",
            "KUID": "b2f984d11c5244e6ae5f81fe393d837e"
        },
        "language": "js",
        "actions": [{
            "id": "SHOW_ALERT__22caf961c7a2426a8de3f07b4463cf40",
            "type": "SHOW_ALERT",
            "alertType": "constants.ALERT_TYPE_CONFIRMATION",
            "alertTitle": "Confirm Sign Out",
            "yesLabel": "Sign Out",
            "noLabel": "Cancel",
            "alertMessage": "Are you sure you want to sign out?",
            "messageType": "constant",
            "parentId": null,
            "alertTitlei18n": "i18n.common.confirmSignOut",
            "yesLabeli18n": "i18n.common.signOut",
            "noLabeli18n": "i18n.common.cancel",
            "alertMessagei18n": "i18n.common.signOutAlert",
            "iconPosition": "constants.ALERT_ICON_POSITION_LEFT"
        }, {
            "id": "ADD_SNIPPET__aa5695fa3570409fa5c62ab17fbacd9e",
            "type": "ADD_SNIPPET",
            "codeSnippet": "frmAccountInfoKA.flxAccountInfoNavOptKA.isVisible=false;\nkony.sdk.mvvm.LogoutAction();",
            "parentId": "SHOW_ALERT__22caf961c7a2426a8de3f07b4463cf40",
            "callbackType": "True"
        }]
    }
}