{
    "AS_Button_b2410f1b6f2046e6b613840a0a58c54b": {
        "id": "AS_Button_b2410f1b6f2046e6b613840a0a58c54b",
        "type": "ACTION_SEQUENCE",
        "params": [{
            "datatype": "collection",
            "name": "eventobject"
        }],
        "contextObj": {
            "name": "frmPinEntryStep2",
            "type": "forms",
            "platform": null,
            "KUID": "e015f1b273d34ea480f2c966bc9044d2"
        },
        "language": "js",
        "actions": [{
            "id": "ADD_SNIPPET_ide_onClick_hef9da6f20804a489721dd35af492f06",
            "type": "ADD_SNIPPET",
            "codeSnippet": "check(3);",
            "callbackType": null
        }]
    }
}