{
    "AS_Button_i3ea3c7279e34816a794253b021471ad": {
        "id": "AS_Button_i3ea3c7279e34816a794253b021471ad",
        "type": "ACTION_SEQUENCE",
        "params": [{
            "datatype": "collection",
            "name": "eventobject"
        }],
        "language": "js",
        "actions": [{
            "id": "ADD_SNIPPET_ide_onClick_iabc867991ee4d7082437084ec183418",
            "type": "ADD_SNIPPET",
            "codeSnippet": "recentTabSelectedAccounts();",
            "callbackType": null
        }]
    }
}