{
    "AS_Button_c101207658cd4ecb8a9a1792eedbc7ab": {
        "id": "AS_Button_c101207658cd4ecb8a9a1792eedbc7ab",
        "type": "ACTION_SEQUENCE",
        "params": [{
            "datatype": "collection",
            "name": "eventobject"
        }],
        "language": "js",
        "actions": [{
            "id": "ADD_SNIPPET__c698fb6c705a413e9c2687db177f3a95",
            "type": "ADD_SNIPPET",
            "codeSnippet": "cancelNewAccountOpening();",
            "parentId": null,
            "callbackType": null
        }]
    }
}