{
    "AS_Button_d5b76b070e0c49fbaecaa4064048e6d5": {
        "id": "AS_Button_d5b76b070e0c49fbaecaa4064048e6d5",
        "type": "ACTION_SEQUENCE",
        "name": "AS_Button_manageCardlessOnClickPending",
        "params": [{
            "datatype": "collection",
            "name": "eventobject"
        }],
        "language": "js",
        "actions": [{
            "id": "ADD_SNIPPET_ide_onClick_a22a415539db4ec68a1151097a8a6f03",
            "type": "ADD_SNIPPET",
            "codeSnippet": "frmManageCardLess.btnAll.skin = \"slButtonWhiteTabDisabled\";\nfrmManageCardLess.btnPending.skin = \"slButtonWhiteTab\";\nfrmManageCardLess.btnAccepted.skin = \"slButtonWhiteTabDisabled\";\nfrmManageCardLess.btnCancel.skin = \"slButtonWhiteTabDisabled\";\nkony.sdk.mvvm.KonyApplicationContext.showLoadingScreen(\"\");\nshow_Cardless_List(\"Pending\");\n/*selectedIndex_BULK_PAYMENT = [];\nvalidate_BULK_BILL_SELECTION();\nshow_BILLER_LIST(\"postpaid\");*/",
            "callbackType": null
        }]
    }
}