{
    "AS_Button_i78c7e86de8c4ac69a24ce7edf4cb24d": {
        "id": "AS_Button_i78c7e86de8c4ac69a24ce7edf4cb24d",
        "type": "ACTION_SEQUENCE",
        "params": [{
            "datatype": "collection",
            "name": "eventobject"
        }],
        "contextObj": {
            "type": "forms",
            "platform": "",
            "KUID": "j32d10a95dd64de1812ebf4238033a0b"
        },
        "language": "js",
        "actions": [{
            "id": "ADD_SNIPPET__b4680153f14b46248af1535cee9f213b",
            "type": "ADD_SNIPPET",
            "codeSnippet": "frmCardlessAcknowledgeQRCode.show();",
            "parentId": null,
            "callbackType": null
        }]
    }
}