{
    "AS_Button_f4632c2ffff84a1988a9b5a8ab02371c": {
        "id": "AS_Button_f4632c2ffff84a1988a9b5a8ab02371c",
        "type": "ACTION_SEQUENCE",
        "params": [{
            "datatype": "collection",
            "name": "eventobject"
        }],
        "language": "js",
        "actions": [{
            "id": "ADD_SNIPPET_ide_onClick_ea6905dbac0049cfb6644779b9e5f1be",
            "type": "ADD_SNIPPET",
            "codeSnippet": "showAccountsSegment();\nCanEnableSelPayeeBtn();",
            "callbackType": null
        }]
    }
}