{
    "AS_Button_jdb6e0bf81a042b1bae559b4e6fe62a8": {
        "id": "AS_Button_jdb6e0bf81a042b1bae559b4e6fe62a8",
        "type": "ACTION_SEQUENCE",
        "params": [{
            "datatype": "collection",
            "name": "eventobject"
        }],
        "language": "js",
        "actions": [{
            "id": "ADD_SNIPPET_ide_onClick_dbb095949f70479a845b31bb3c63fb7c",
            "type": "ADD_SNIPPET",
            "codeSnippet": "if(kony.store.getItem(\"langPrefObj\") === \"en\")\n    kony.boj.lang = \"eng\";\n  else\n    kony.boj.lang = \"ara\";\n\ngblTModule = \"billspay\";\ngetAllAccounts();",
            "callbackType": null
        }]
    }
}