{
    "AS_Button_f59b8d29c61849fc9a3d21485b472e59": {
        "id": "AS_Button_f59b8d29c61849fc9a3d21485b472e59",
        "type": "ACTION_SEQUENCE",
        "params": [{
            "datatype": "collection",
            "name": "eventobject"
        }],
        "language": "js",
        "actions": [{
            "id": "ADD_SNIPPET_ide_onClick_c2ea7d0614c840d388f76dc6f3cf663a",
            "type": "ADD_SNIPPET",
            "codeSnippet": "funMatInstructions(\"withOutInt\");",
            "callbackType": null
        }]
    }
}