{
    "AS_Button_626db92654694fa78413ce83fdd146a7": {
        "id": "AS_Button_626db92654694fa78413ce83fdd146a7",
        "type": "ACTION_SEQUENCE",
        "params": [{
            "datatype": "collection",
            "name": "eventobject"
        }],
        "contextObj": {
            "type": "forms",
            "platform": null,
            "KUID": "3895ad9cb72242cabc92623efd7598f4"
        },
        "language": "js",
        "actions": [{
            "id": "ADD_SNIPPET__d92d54cf99364bbe8a51a87bcf93cadc",
            "type": "ADD_SNIPPET",
            "codeSnippet": "    var INSTANCE = kony.sdk.mvvm.KonyApplicationContext.getAppInstance();\n    var frmName = kony.application.getCurrentForm().id;\n    var listController = INSTANCE.getFormController(frmName);\n    listController.performAction(\"saveData\");",
            "parentId": null,
            "callbackType": null
        }]
    }
}