{
    "AS_Button_39791f61070c493da9383b8210f1c414": {
        "id": "AS_Button_39791f61070c493da9383b8210f1c414",
        "type": "ACTION_SEQUENCE",
        "params": [{
            "datatype": "collection",
            "name": "eventobject"
        }],
        "language": "js",
        "actions": [{
            "id": "ADD_SNIPPET_ide_onClick_74c50524c1324706960b8b2915f209f7",
            "type": "ADD_SNIPPET",
            "codeSnippet": "hideDateRange();",
            "callbackType": null
        }]
    }
}