{
    "AS_Button_h03ed8d10157444aa4d7bf08ca78264a": {
        "id": "AS_Button_h03ed8d10157444aa4d7bf08ca78264a",
        "type": "ACTION_SEQUENCE",
        "params": [{
            "datatype": "collection",
            "name": "eventobject"
        }],
        "language": "js",
        "actions": [{
            "id": "ADD_SNIPPET_ide_onClick_h2a431069cc84b7d8ac106fdff005163",
            "type": "ADD_SNIPPET",
            "codeSnippet": null,
            "callbackType": null
        }, {
            "id": "ADD_SNIPPET_ide_onClick_f0c0f6eb24344c6d86f83aba4116aabe",
            "type": "ADD_SNIPPET",
            "codeSnippet": "cardManagementOperations(\"lost\");",
            "callbackType": null
        }]
    }
}