{
    "AS_Button_d834dbcfec14447185fa7f5df6d725dc": {
        "id": "AS_Button_d834dbcfec14447185fa7f5df6d725dc",
        "type": "ACTION_SEQUENCE",
        "params": [{
            "datatype": "collection",
            "name": "eventobject"
        }],
        "language": "js",
        "actions": [{
            "id": "ADD_SNIPPET_ide_onClick_a7a65323619747a1a28c6ecd13c3a34a",
            "type": "ADD_SNIPPET",
            "codeSnippet": "if(frmUserSettingsSIRILIMIT.txtEmail1.text!== \"\" && frmUserSettingsSIRILIMIT.txtEmail1.text !== null){\n  setSiriLimitcall(frmUserSettingsSIRILIMIT.txtEmail1.text);\n}else{\n  \n    customAlertPopup( geti18Value(\"i18n.common.alert\"),\n                     geti18Value(\"i18n.Siri.Limtiinvaliderror\"),\n                     popupCommonAlertDimiss, \"\");\n}",
            "callbackType": null
        }]
    }
}