{
    "AS_Button_2d94721bae8f4379ba300ff57c3ebdb3": {
        "id": "AS_Button_2d94721bae8f4379ba300ff57c3ebdb3",
        "type": "ACTION_SEQUENCE",
        "params": [{
            "datatype": "collection",
            "name": "eventobject"
        }],
        "language": "js",
        "actions": [{
            "id": "ADD_SNIPPET_ide_onClick_39ebfdf7e29644019327aeacb1b0011f",
            "type": "ADD_SNIPPET",
            "codeSnippet": "setDateToLabel();\nconfirmEditP2P();",
            "callbackType": null
        }]
    }
}