{
    "AS_Button_da7309a46eec47aa9772221ad433b427": {
        "id": "AS_Button_da7309a46eec47aa9772221ad433b427",
        "type": "ACTION_SEQUENCE",
        "name": "AS_Button_manageCardlessOnClickCancel",
        "params": [{
            "datatype": "collection",
            "name": "eventobject"
        }],
        "language": "js",
        "actions": [{
            "id": "ADD_SNIPPET_ide_onClick_a8cbcd56b6884bf2b5964101785aebb0",
            "type": "ADD_SNIPPET",
            "codeSnippet": "frmManageCardLess.btnAll.skin = \"slButtonWhiteTabDisabled\";\nfrmManageCardLess.btnPending.skin = \"slButtonWhiteTabDisabled\";\nfrmManageCardLess.btnAccepted.skin = \"slButtonWhiteTabDisabled\";\nfrmManageCardLess.btnCancel.skin = \"slButtonWhiteTab\";\nkony.sdk.mvvm.KonyApplicationContext.showLoadingScreen(\"\");\nshow_Cardless_List(\"Reject\");\n/*kony.boj.selectedBillerType = \"PrePaid\";\nselectedIndex_BULK_PAYMENT = [];\nvalidate_BULK_BILL_SELECTION();\nshow_BILLER_LIST(\"prepaid\");*/\n// serv_getPrePaidBillerData();",
            "callbackType": null
        }]
    }
}