{
    "AS_Button_eebc6476b6564ca0940c8118512a7b0d": {
        "id": "AS_Button_eebc6476b6564ca0940c8118512a7b0d",
        "type": "ACTION_SEQUENCE",
        "name": "AS_ConfirmPayBills",
        "params": [{
            "datatype": "collection",
            "name": "eventobject"
        }],
        "language": "js",
        "actions": [{
            "id": "ADD_SNIPPET_ide_onClick_efeedb9f5f9e4964b66a7b46084cee1f",
            "type": "ADD_SNIPPET",
            "codeSnippet": "// assignDatatoConfirmPostpaidBill();//function to call--Arpan\nif(validate_BILLPAY_BILLER()){\n  if(validate_SufficientBalance()){\n    if (validate_MINMAXAMOUNTBILLPAYMENT() === \"min\") {\n          var minAmount = \"\";\n          minAmount = geti18Value(\"i18n.billPaymentminAmount\") + \" (\" + frmBills.minAmount.text + \")\";\n          customAlertPopup(geti18Value(\"i18n.maps.Info\"), minAmount, popupCommonAlertDimiss, \"\");\n      } else if (validate_MINMAXAMOUNTBILLPAYMENT() === \"max\") {\n          var maxAmount = \"\";\n          maxAmount = geti18Value(\"i18n.billPaymentmaxAmount\") + \" (\" + frmBills.maxAmount.text + \")\";\n          customAlertPopup(geti18Value(\"i18n.maps.Info\"), maxAmount, popupCommonAlertDimiss, \"\");\n      } else {\n          if (gblQuickFlow === \"post\") {\n              frmConfirmPayBill.flxSourceofFunding.setVisibility(true);\n              frmConfirmPayBill.flxSourceofFundAccount.setVisibility(true);\n              var tempAMOUNT = \"\" + frmBills.tbxAmount.text;\n              tempAMOUNT = tempAMOUNT.replace(/,/g, \"\");\n              gblQuickFlow=\"postBill\";\n              serv_BILLSCOMISSIONCHARGE(tempAMOUNT);\n              nextfrmPostPaidBill();\n          } else {\n              nextfrmPrePaidBill();\n          }\n          QuickFlowprev = \"bill\";\n      }\n  }else{\n      customAlertPopup(geti18Value(\"i18n.maps.Info\"), geti18Value(\"i18n.error.InsufficientFundInAccount\"), popupCommonAlertDimiss, \"\");\n  }\n}",
            "callbackType": null
        }]
    }
}