{
    "AS_CheckBoxGroup_38400b6715e3455bbde89ef1acbda546": {
        "id": "AS_CheckBoxGroup_38400b6715e3455bbde89ef1acbda546",
        "type": "ACTION_SEQUENCE",
        "params": [{
            "datatype": "collection",
            "name": "eventobject"
        }],
        "contextObj": {
            "type": "forms",
            "platform": "",
            "KUID": "ac09c32a534449b3b0961f8e48e26015"
        },
        "language": "js",
        "actions": [{
            "id": "ADD_SNIPPET__770aab5f7b5c49f9a5d06075612a574c",
            "type": "ADD_SNIPPET",
            "codeSnippet": "selectCheckNumbers();",
            "parentId": null,
            "callbackType": null
        }]
    }
}