{
    "AS_FlexContainer_c067d32432474269a5ae2e03a7d4fff0": {
        "id": "AS_FlexContainer_c067d32432474269a5ae2e03a7d4fff0",
        "type": "ACTION_SEQUENCE",
        "params": [{
            "datatype": "collection",
            "name": "eventobject"
        }],
        "contextObj": {
            "name": "frmAccountInfoKA",
            "type": "forms",
            "platform": "",
            "KUID": "b2f984d11c5244e6ae5f81fe393d837e"
        },
        "language": "js",
        "actions": [{
            "id": "ADD_SNIPPET__c765a4b317ba454a81f7c47a0e70d1b7",
            "type": "ADD_SNIPPET",
            "codeSnippet": "alertBankCall();",
            "parentId": null,
            "callbackType": null
        }]
    }
}