{
    "AS_FlexContainer_ad4f9193d3b8480fb15c257fcfadc397": {
        "id": "AS_FlexContainer_ad4f9193d3b8480fb15c257fcfadc397",
        "type": "ACTION_SEQUENCE",
        "params": [{
            "datatype": "collection",
            "name": "eventobject"
        }],
        "contextObj": {
            "type": "forms",
            "platform": "",
            "KUID": "c1ec9b0a2635465caf9f94d22caae9f7"
        },
        "language": "js",
        "actions": [{
            "id": "ADD_SNIPPET__b9ace715e86f448da432eb0cacd63a5d",
            "type": "ADD_SNIPPET",
            "codeSnippet": "kony.print(\"Deleted\");",
            "parentId": null,
            "callbackType": null
        }]
    }
}