{
    "AS_FlexContainer_c7ee19482d324e85afe2a002cb72f716": {
        "id": "AS_FlexContainer_c7ee19482d324e85afe2a002cb72f716",
        "type": "ACTION_SEQUENCE",
        "params": [{
            "datatype": "collection",
            "name": "eventobject"
        }, {
            "datatype": "string",
            "name": "x"
        }, {
            "datatype": "string",
            "name": "y"
        }],
        "contextObj": {
            "name": "frmCardsAddNickname",
            "type": "forms",
            "platform": null,
            "KUID": "d382c627ba0b45cfb446cc6dd8d8759e"
        },
        "language": "js",
        "actions": [{
            "id": "ADD_SNIPPET_ide_onTouchStart_fd5bcaec04b04f698ee82d3f8b16ded7",
            "type": "ADD_SNIPPET",
            "codeSnippet": "kony.print(\"Do nothing\");",
            "callbackType": null
        }]
    }
}