{
    "AS_Form_d00c140cd67245d1a99dda64a2337ea4": {
        "id": "AS_Form_d00c140cd67245d1a99dda64a2337ea4",
        "type": "ACTION_SEQUENCE",
        "params": [{
            "datatype": "collection",
            "name": "eventobject"
        }],
        "contextObj": {
            "name": "frmChatBots",
            "type": "forms",
            "platform": "",
            "KUID": "a5c82996d9864c6482f65cfffe81fda4"
        },
        "language": "js",
        "actions": [{
            "id": "ADD_SNIPPET__gc6194b0e49c46fba53cf6420f719f8e",
            "type": "ADD_SNIPPET",
            "codeSnippet": "kony.chatbots.user.setSwipeGesture();",
            "parentId": null,
            "callbackType": null
        }]
    }
}