{
    "AS_FlexContainer_bd6a58d54ec54b5b8553aebfefae7932": {
        "id": "AS_FlexContainer_bd6a58d54ec54b5b8553aebfefae7932",
        "type": "ACTION_SEQUENCE",
        "name": "AS_flxFromYearDateee",
        "params": [{
            "datatype": "collection",
            "name": "eventobject"
        }],
        "language": "js",
        "actions": [{
            "id": "ADD_SNIPPET_ide_onClick_d17bcd95ba3147d99c4dd52ba9e0a165",
            "type": "ADD_SNIPPET",
            "codeSnippet": "gblsubacclist =\"fromYear\";\nfrmAccountType.show();\n",
            "callbackType": null
        }]
    }
}