{
    "AS_FlexContainer_b18adab5203640aeb82f90f62435aff8": {
        "id": "AS_FlexContainer_b18adab5203640aeb82f90f62435aff8",
        "type": "ACTION_SEQUENCE",
        "name": "AS_FlexContainer_defaultPaymentSwitchOn",
        "params": [{
            "datatype": "collection",
            "name": "eventobject"
        }],
        "contextObj": {
            "name": "frmEditAccountSettings",
            "type": "forms",
            "platform": "",
            "KUID": "ace74a42ca5e45cabde3f7b9d6361bd8"
        },
        "language": "js",
        "actions": [{
            "id": "ADD_SNIPPET__f038594587c54faea262b301bc570524",
            "type": "ADD_SNIPPET",
            "codeSnippet": "frmEditAccountSettings.flxDefaultPaymentSwitchOff.isVisible = true;\nfrmEditAccountSettings.flxDefaultPaymentSwitchOn.isVisible = false;\n",
            "parentId": null
        }]
    }
}