{
    "AS_Form_4745b0cf680149a293d213e619aa1edf": {
        "id": "AS_Form_4745b0cf680149a293d213e619aa1edf",
        "type": "ACTION_SEQUENCE",
        "params": [],
        "language": "js",
        "actions": [{
            "id": "ADD_SNIPPET__1f05ea77866147aa91853d629cbae347",
            "type": "ADD_SNIPPET",
            "codeSnippet": "locatorInit();",
            "parentId": null,
            "callbackType": null
        }]
    }
}