{
    "AS_FlexContainer_c387ba6f66884009bb591cf121d0d087": {
        "id": "AS_FlexContainer_c387ba6f66884009bb591cf121d0d087",
        "type": "ACTION_SEQUENCE",
        "params": [{
            "datatype": "collection",
            "name": "eventobject"
        }],
        "contextObj": {
            "type": "forms",
            "platform": "",
            "KUID": "a7e7b33553484e9c83559a91d27212e3"
        },
        "language": "js",
        "actions": [{
            "id": "ADD_SNIPPET__ab7a95252c2743ebb0d8c24a85f44f44",
            "type": "ADD_SNIPPET",
            "codeSnippet": "kony.print(\"deleted\");",
            "parentId": null,
            "callbackType": null
        }]
    }
}