{
    "AS_FlexContainer_a215741dde01484f90664d3097cd4588": {
        "id": "AS_FlexContainer_a215741dde01484f90664d3097cd4588",
        "type": "ACTION_SEQUENCE",
        "params": [{
            "datatype": "collection",
            "name": "eventobject"
        }],
        "contextObj": {
            "name": "frmEPS",
            "type": "forms",
            "platform": "",
            "KUID": "c49bbb3175be499d86d933cee301b3c4"
        },
        "language": "js",
        "actions": [{
            "id": "ADD_SNIPPET__df3ca14f73bf4fab9f4f690354cbea11",
            "type": "ADD_SNIPPET",
            "codeSnippet": "customAlertPopup(geti18Value(\"i18n.cards.Confirmation\"), \n                 geti18Value(\"i18n.transfers.eraseAllAlert\"),\n                 userResponseESP, onClickNoBackESP, \n                 geti18Value(\"i18n.common.YES\"),\n                 geti18Value(\"i18n.common.NO\"));\n\nfunction userResponseESP(){\n  removeDatafrmTransfersformEPS();\n  popupCommonAlertDimiss();\n  frmPaymentDashboard.show();\n  \n}\nfunction onClickNoBackESP(){\n  popupCommonAlertDimiss();\n}",
            "parentId": null,
            "callbackType": null
        }]
    }
}