{
    "AS_FlexContainer_dcabbf880d7b4a408dc1d53d1597bf8e": {
        "id": "AS_FlexContainer_dcabbf880d7b4a408dc1d53d1597bf8e",
        "type": "ACTION_SEQUENCE",
        "params": [{
            "datatype": "collection",
            "name": "eventobject"
        }],
        "language": "js",
        "actions": [{
            "id": "ADD_SNIPPET_ide_onClick_dfdfb59f75c34459a92ea852ace4483a",
            "type": "ADD_SNIPPET",
            "codeSnippet": "nextToConfirmofSubAccount();",
            "callbackType": null
        }]
    }
}