{
    "AS_FlexContainer_a97caa92d1fe4b8ba33a15b0a3d1ea78": {
        "id": "AS_FlexContainer_a97caa92d1fe4b8ba33a15b0a3d1ea78",
        "type": "ACTION_SEQUENCE",
        "params": [{
            "datatype": "collection",
            "name": "eventobject"
        }],
        "contextObj": {
            "name": "frmAccountInfoKA",
            "type": "forms",
            "platform": "",
            "KUID": "b2f984d11c5244e6ae5f81fe393d837e"
        },
        "language": "js",
        "actions": [{
            "id": "ADD_SNIPPET__e37cf4dd48294f25b55d13a62023ea7a",
            "type": "ADD_SNIPPET",
            "codeSnippet": "alertBankCall();",
            "parentId": null,
            "callbackType": null
        }]
    }
}