{
    "AS_FlexContainer_4c4504322ed8455dafa0cb99132d4b68": {
        "id": "AS_FlexContainer_4c4504322ed8455dafa0cb99132d4b68",
        "type": "ACTION_SEQUENCE",
        "params": [{
            "datatype": "collection",
            "name": "eventobject"
        }],
        "contextObj": {
            "name": "frmNewTransferKA",
            "type": "forms",
            "platform": "",
            "KUID": "2ac343500306428da0ceef91a3b44d18"
        },
        "language": "js",
        "actions": [{
            "id": "ADD_SNIPPET__960f7863a0484eb2ba5dfb1bb816a51d",
            "type": "ADD_SNIPPET",
            "codeSnippet": "frequencyOnClick(2);",
            "parentId": null,
            "callbackType": null
        }]
    }
}