{
    "AS_FlexContainer_geef8292fc1d4ae7934445c225a94b54": {
        "id": "AS_FlexContainer_geef8292fc1d4ae7934445c225a94b54",
        "type": "ACTION_SEQUENCE",
        "params": [{
            "datatype": "collection",
            "name": "eventobject"
        }],
        "language": "js",
        "actions": [{
            "id": "INVOKE_FUNCTION__ide_onClick_bb6f3b88191042a284369115637aa7ef",
            "type": "INVOKE_FUNCTION",
            "sequenceKUID": "accountInfoSorting",
            "display": "accountInfoSorting",
            "inputparams": [{
                "name": "widget"
            }, {
                "name": "sortby"
            }, {
                "name": "type"
            }],
            "callbackType": null,
            "disabled": null,
            "source": "module"
        }]
    }
}