{
    "AS_FlexContainer_af20cb88b1d9433d9acd73f11eafcd62": {
        "id": "AS_FlexContainer_af20cb88b1d9433d9acd73f11eafcd62",
        "type": "ACTION_SEQUENCE",
        "params": [{
            "datatype": "collection",
            "name": "eventobject"
        }],
        "language": "js",
        "actions": [{
            "id": "ADD_SNIPPET_ide_onClick_eb7efea45e3f4179839a1d590ce8b723",
            "type": "ADD_SNIPPET",
            "codeSnippet": "dateRangeOnClick(4);",
            "callbackType": null
        }]
    }
}