{
    "AS_Form_ca0a190bfeac4a97b9ae44b1884ff4b9": {
        "id": "AS_Form_ca0a190bfeac4a97b9ae44b1884ff4b9",
        "type": "ACTION_SEQUENCE",
        "params": [{
            "datatype": "collection",
            "name": "eventobject"
        }],
        "contextObj": {
            "name": "frmInformationKA",
            "type": "forms",
            "platform": "",
            "KUID": "f18169832ba24ba09c8780278abfc207"
        },
        "language": "js",
        "actions": [{
            "id": "ADD_SNIPPET__ffda8b02feee48db917cf25834afd110",
            "type": "ADD_SNIPPET",
            "codeSnippet": "getNewsInfo(\"\");\ngetNewsLatestDetails();\ngetAllQuestions();",
            "parentId": null,
            "callbackType": null
        }]
    }
}