{
    "AS_FlexContainer_b442e8829f254bd6af56d343c9f5df77": {
        "id": "AS_FlexContainer_b442e8829f254bd6af56d343c9f5df77",
        "type": "ACTION_SEQUENCE",
        "params": [{
            "datatype": "collection",
            "name": "eventobject"
        }],
        "language": "js",
        "actions": [{
            "id": "ADD_SNIPPET_ide_onClick_dd3916f83a0243c688a1638366db11dc",
            "type": "ADD_SNIPPET",
            "codeSnippet": "frmAccountsLandingKA.flxAccntLandingNavOptKA.isVisible=false;",
            "callbackType": null
        }]
    }
}