{
    "AS_FlexContainer_dcb3ffe75caf477482824aeba6ce2197": {
        "id": "AS_FlexContainer_dcb3ffe75caf477482824aeba6ce2197",
        "type": "ACTION_SEQUENCE",
        "params": [{
            "datatype": "collection",
            "name": "eventobject"
        }],
        "language": "js",
        "actions": [{
            "id": "ADD_SNIPPET_ide_onClick_d8b78995ce5241c9a0ea6ac99af13688",
            "type": "ADD_SNIPPET",
            "codeSnippet": "kony.print(\"Removed\");",
            "callbackType": null
        }]
    }
}