{
    "AS_FlexContainer_ca3b13678b6e420295689f6466155539": {
        "id": "AS_FlexContainer_ca3b13678b6e420295689f6466155539",
        "type": "ACTION_SEQUENCE",
        "params": [{
            "datatype": "collection",
            "name": "eventobject"
        }],
        "language": "js",
        "actions": [{
            "id": "ADD_SNIPPET_ide_onClick_jdb5babd043e42e3ad37d6b7fdff4643",
            "type": "ADD_SNIPPET",
            "codeSnippet": "// var currentForm = kony.application.getCurrentForm();\n// kony.chatbots.bot.showBotSplash(currentForm);\nfrmPaymentDashboard.show();;",
            "callbackType": null
        }]
    }
}