{
    "AS_FlexContainer_b8bf70c56eba4fdbab96e85947bf1f9f": {
        "id": "AS_FlexContainer_b8bf70c56eba4fdbab96e85947bf1f9f",
        "type": "ACTION_SEQUENCE",
        "params": [{
            "datatype": "collection",
            "name": "eventobject"
        }],
        "language": "js",
        "actions": [{
            "id": "ADD_SNIPPET_ide_onClick_c93f13af80c44fbf9530d792e7589972",
            "type": "ADD_SNIPPET",
            "codeSnippet": "// var currentForm = kony.application.getCurrentForm();\n// kony.chatbots.bot.showBotSplash(currentForm);\nfrmPaymentDashboard.show();",
            "callbackType": null
        }]
    }
}