{
    "AS_Form_i6c3749a243341698b89c4dc09113cb1": {
        "id": "AS_Form_i6c3749a243341698b89c4dc09113cb1",
        "type": "ACTION_SEQUENCE",
        "params": [{
            "datatype": "collection",
            "name": "eventobject"
        }],
        "contextObj": {
            "type": "forms",
            "platform": "",
            "KUID": "decc2dc51b764f47a81810be2ee46cd7"
        },
        "language": "js",
        "actions": [{
            "id": "ADD_SNIPPET__i6942bf669af4d1fa65278a185be3192",
            "type": "ADD_SNIPPET",
            "codeSnippet": "kony.print(\"deivceback\");",
            "parentId": null,
            "callbackType": null
        }]
    }
}