{
    "AS_FlexContainer_e296ba6ea0474c1a9e5d8993bd082baf": {
        "id": "AS_FlexContainer_e296ba6ea0474c1a9e5d8993bd082baf",
        "type": "ACTION_SEQUENCE",
        "params": [{
            "datatype": "collection",
            "name": "eventobject"
        }],
        "language": "js",
        "actions": [{
            "id": "ADD_SNIPPET_ide_onClick_b36b3ab3ef4b419bb1c2f63b3e1c729c",
            "type": "ADD_SNIPPET",
            "codeSnippet": "kony.print(\"Removed\");",
            "callbackType": null
        }]
    }
}