{
    "AS_FlexContainer_b317e2dc2bc74c3fb7dd7eeaa421fb50": {
        "id": "AS_FlexContainer_b317e2dc2bc74c3fb7dd7eeaa421fb50",
        "type": "ACTION_SEQUENCE",
        "params": [{
            "datatype": "collection",
            "name": "eventobject"
        }],
        "language": "js",
        "actions": [{
            "id": "ADD_SNIPPET_ide_onClick_df2836e8cdc64091af51b0b05bcb8a72",
            "type": "ADD_SNIPPET",
            "codeSnippet": "kony.boj.showSelectedDetailsFromBene(\"Country\", \"lblCountryNameKA\", \"\");\n",
            "callbackType": null
        }]
    }
}