{
    "AS_FlexContainer_i36b8e3f7bb54563a73e89454a826e97": {
        "id": "AS_FlexContainer_i36b8e3f7bb54563a73e89454a826e97",
        "type": "ACTION_SEQUENCE",
        "params": [{
            "datatype": "collection",
            "name": "eventobject"
        }],
        "contextObj": {
            "name": "frmUserSettingsSiri",
            "type": "forms",
            "platform": "",
            "KUID": "f6a73333c5b04d9f97a80b02ff57e6ae"
        },
        "language": "js",
        "actions": [{
            "id": "ADD_SNIPPET__d432648f419e4e48b4729dca740c0692",
            "type": "ADD_SNIPPET",
            "codeSnippet": "//1960 fix\nfrmAccountDetailsScreen.lblHead.text = \"Accounts\";\ngblTModule = \"AccountsForTransfer\";\nkony.boj.siri=\"fromSiri\";\nkony.print(\"kony.boj.siri\" + kony.boj.siri);\ngotoAccountDetailsScreen(1);",
            "parentId": null,
            "callbackType": null
        }]
    }
}