{
    "AS_FlexContainer_b50a237efd3c4809a0327abddc5d32de": {
        "id": "AS_FlexContainer_b50a237efd3c4809a0327abddc5d32de",
        "type": "ACTION_SEQUENCE",
        "params": [{
            "datatype": "collection",
            "name": "eventobject"
        }],
        "language": "js",
        "actions": [{
            "id": "ADD_SNIPPET_ide_onClick_f9ef0040f2334c5c8325cf719e55628c",
            "type": "ADD_SNIPPET",
            "codeSnippet": "gblfrmName = \"\";\nadditionalValidationRdc(this,gotoDeposits);\n",
            "callbackType": null
        }]
    }
}