{
    "AS_Form_df0cc29e6caf452bb000a6e32cc7549d": {
        "id": "AS_Form_df0cc29e6caf452bb000a6e32cc7549d",
        "type": "ACTION_SEQUENCE",
        "params": [{
            "datatype": "collection",
            "name": "eventobject"
        }],
        "contextObj": {
            "name": "frmConfirmCashWithDraw",
            "type": "forms",
            "platform": "",
            "KUID": "b2e7c11eabab44839d19ed317b9260fc"
        },
        "language": "js",
        "actions": [{
            "id": "ADD_SNIPPET__id09407a40734743b1456b8b60f2c6c3",
            "type": "ADD_SNIPPET",
            "codeSnippet": "var vc = new kony.rb.frmConfirmCashWithdrawViewController();\nvc.frmConfirmCashpreshow();\n",
            "parentId": null,
            "callbackType": null
        }]
    }
}