{
    "AS_Form_9e12fd31e41c42368c6b96405c1ca672": {
        "id": "AS_Form_9e12fd31e41c42368c6b96405c1ca672",
        "type": "ACTION_SEQUENCE",
        "params": [{
            "datatype": "collection",
            "name": "eventobject"
        }],
        "contextObj": {
            "name": "frmDepositPayLandingKA",
            "type": "forms",
            "platform": "",
            "KUID": "dd44156e890e4ee28360f50ee6c67184"
        },
        "language": "js",
        "actions": [{
            "id": "ADD_SNIPPET__0d81b2ef647343659457b4b3891ad53a",
            "type": "ADD_SNIPPET",
            "codeSnippet": "checkDepositIphone();\nuserAgent = kony.os.userAgent();\nif (userAgent === \"iPhone\"){\n if(kony.retailBanking.globalData.globals.configPreferences.rdc === \"OFF\" ){\n    frmDepositPayLandingKA.footers[0].FlxDeposits.setVisibility(false);\n }\n}\n",
            "parentId": null,
            "callbackType": null
        }]
    }
}