{
    "AS_FlexContainer_idbbf915bd574d3288113fd76f1823c8": {
        "id": "AS_FlexContainer_idbbf915bd574d3288113fd76f1823c8",
        "type": "ACTION_SEQUENCE",
        "params": [{
            "datatype": "collection",
            "name": "eventobject"
        }],
        "contextObj": {
            "name": "frmNewUserOnboardVerificationKA",
            "type": "forms",
            "platform": "",
            "KUID": "ie7b921fac134bd8a8afb16afc085409"
        },
        "language": "js",
        "actions": [{
            "id": "ADD_SNIPPET__ff98269603e7476cac6ba4ec34fea9f6",
            "type": "ADD_SNIPPET",
            "codeSnippet": "//  onClickLocateUS(true,\"frmNewUserOnboardVerificationKA\");\ngetNewsInfo(\"otp\");",
            "parentId": null,
            "callbackType": null
        }]
    }
}