{
    "AS_FlexContainer_e084a0438d9b42679b5ed7ec50a05788": {
        "id": "AS_FlexContainer_e084a0438d9b42679b5ed7ec50a05788",
        "type": "ACTION_SEQUENCE",
        "params": [{
            "datatype": "collection",
            "name": "eventobject"
        }],
        "contextObj": {
            "name": "frmSmartInfo",
            "type": "forms",
            "platform": "",
            "KUID": "hbc8e1f50349469c98875dd068ab58ff"
        },
        "language": "js",
        "actions": [{
            "id": "ADD_SNIPPET__ec51836d798a4e8baa5399a7096b7791",
            "type": "ADD_SNIPPET",
            "codeSnippet": "frmAccountsLandingKA.show();",
            "parentId": null,
            "callbackType": null
        }]
    }
}