{
    "AS_Form_f00c97fb2335408a9fac84f1768b6a3b": {
        "id": "AS_Form_f00c97fb2335408a9fac84f1768b6a3b",
        "type": "ACTION_SEQUENCE",
        "params": [{
            "datatype": "collection",
            "name": "eventobject"
        }],
        "contextObj": {
            "type": "forms",
            "platform": "",
            "KUID": "df10c73727f6431c97b66d9fe3bb8549"
        },
        "language": "js",
        "actions": [{
            "id": "ADD_SNIPPET__ifee1c84fcdd4e96994e2b2c9c6b1798",
            "type": "ADD_SNIPPET",
            "codeSnippet": "kony.print(\"Device Back\");",
            "parentId": null,
            "callbackType": null
        }]
    }
}