{
    "AS_Form_ce52b26a07384e568b93c2a2ce5195dd": {
        "id": "AS_Form_ce52b26a07384e568b93c2a2ce5195dd",
        "type": "ACTION_SEQUENCE",
        "params": [{
            "datatype": "collection",
            "name": "eventobject"
        }],
        "contextObj": {
            "name": "frmNewTransferKA",
            "type": "forms",
            "platform": "",
            "KUID": "2ac343500306428da0ceef91a3b44d18"
        },
        "language": "js",
        "actions": [{
            "id": "ADD_SNIPPET__1d8482e1705c4a90bf9a16a230b3187d",
            "type": "ADD_SNIPPET",
            "codeSnippet": "var inp = frmNewTransferKA.frame.width;\nalert(inp);",
            "parentId": null,
            "callbackType": null
        }]
    }
}