{
    "AS_Form_a79e051ffdd5430b97a0168d3e6e0307": {
        "id": "AS_Form_a79e051ffdd5430b97a0168d3e6e0307",
        "type": "ACTION_SEQUENCE",
        "params": [{
            "datatype": "collection",
            "name": "eventobject"
        }],
        "contextObj": {
            "name": "frmDirectionsKA",
            "type": "forms",
            "platform": "",
            "KUID": "2a844aaae75b49948039c6e28c65dfcc"
        },
        "language": "js",
        "actions": [{
            "id": "ADD_SNIPPET__6dc55773802e4c03ba47b366a2b5c779",
            "type": "ADD_SNIPPET",
            "codeSnippet": "kony.print(\"Device Back\");",
            "parentId": null,
            "callbackType": null
        }]
    }
}