{
    "AS_FlexContainer_a343dfc33e9a4cfe8fdb276c1255716b": {
        "id": "AS_FlexContainer_a343dfc33e9a4cfe8fdb276c1255716b",
        "type": "ACTION_SEQUENCE",
        "name": "AS_flxRequestStatementCreditCardsAction",
        "params": [{
            "datatype": "collection",
            "name": "eventobject"
        }],
        "contextObj": {
            "name": "frmManageCardsKA",
            "type": "forms",
            "platform": "",
            "KUID": "75db60b6b4944b7faf9c556f4dbcaf8d"
        },
        "language": "js",
        "actions": [{
            "id": "ADD_SNIPPET_ide_onClick_g298a1b9915f4f6fbaf5ee0a21169d90",
            "type": "ADD_SNIPPET",
            "codeSnippet": "gblRequestStatementCrediCards = true;\nnavigatetofrmRequestSattementAccounts();",
            "callbackType": null
        }]
    }
}