{
    "AS_Form_4c6b34cebae74d9a826fd0ff8fc56742": {
        "id": "AS_Form_4c6b34cebae74d9a826fd0ff8fc56742",
        "type": "ACTION_SEQUENCE",
        "params": [{
            "datatype": "collection",
            "name": "eventobject"
        }],
        "contextObj": {
            "type": "forms",
            "platform": null,
            "KUID": "1364bef04c9c4d31bd7cb0630eab07c0"
        },
        "language": "js",
        "actions": [{
            "id": "ADD_SNIPPET_ide_preShow_79c791641b4c45eca4f36f4d2e01b6b4",
            "type": "ADD_SNIPPET",
            "codeSnippet": "depositSuccessFormPreShow();",
            "callbackType": null
        }]
    }
}