{
    "AS_FlexContainer_h9a9b3aec09f477aa313784c11d365ee": {
        "id": "AS_FlexContainer_h9a9b3aec09f477aa313784c11d365ee",
        "type": "ACTION_SEQUENCE",
        "params": [{
            "datatype": "collection",
            "name": "eventobject"
        }],
        "language": "js",
        "actions": [{
            "id": "ADD_SNIPPET_ide_onClick_i06ffab3a6de4456b1501893287cf0de",
            "type": "ADD_SNIPPET",
            "codeSnippet": "gblfrmName = \"\";\nadditionalValidationRdc(this,gotoDeposits);\n",
            "callbackType": null
        }]
    }
}