{
    "AS_FlexScrollContainer_j48109698d20498bb7efcc48cbe42f75": {
        "id": "AS_FlexScrollContainer_j48109698d20498bb7efcc48cbe42f75",
        "type": "ACTION_SEQUENCE",
        "params": [{
            "datatype": "collection",
            "name": "eventobject"
        }],
        "language": "js",
        "actions": [{
            "id": "ADD_SNIPPET_ide_onScrolling_i73b826a4a194dd2b7832f6206ddd76e",
            "type": "ADD_SNIPPET",
            "codeSnippet": "innerAccountScroll();",
            "callbackType": null
        }]
    }
}