{
    "AS_FlexContainer_0b690b2cd7ac4c22a23e2d9dc1e6f636": {
        "id": "AS_FlexContainer_0b690b2cd7ac4c22a23e2d9dc1e6f636",
        "type": "ACTION_SEQUENCE",
        "params": [{
            "datatype": "collection",
            "name": "eventobject"
        }, {
            "datatype": "string",
            "name": "x"
        }, {
            "datatype": "string",
            "name": "y"
        }],
        "contextObj": {
            "type": "forms",
            "platform": "",
            "KUID": "ace8b4225caf4b58b3da535a42d2711b"
        },
        "language": "js",
        "actions": [{
            "id": "ADD_SNIPPET__d16aa0b67fdb4200a2865fc2a6647697",
            "type": "ADD_SNIPPET",
            "codeSnippet": "alertCallCheckReOrder();",
            "parentId": null,
            "callbackType": null
        }]
    }
}