{
    "AS_FlexContainer_faec57b35ae546f59174943d052ca934": {
        "id": "AS_FlexContainer_faec57b35ae546f59174943d052ca934",
        "type": "ACTION_SEQUENCE",
        "params": [{
            "datatype": "collection",
            "name": "eventobject"
        }],
        "language": "js",
        "actions": [{
            "id": "ADD_SNIPPET_ide_onClick_c4ea50029fa04bf98683077dd7e0975b",
            "type": "ADD_SNIPPET",
            "codeSnippet": "\t  var INSTANCE = kony.sdk.mvvm.KonyApplicationContext.getAppInstance();\n      var controller = INSTANCE.getFormController(\"frmAccountsLandingKA\");\n      var navObject = new kony.sdk.mvvm.NavigationObject();\n      navObject.setRequestOptions(\"segAccountsKA\",{\"headers\":{\"session_token\":kony.retailBanking.globalData.session_token}});\n      controller.loadDataAndShowForm(navObject);",
            "callbackType": null
        }]
    }
}