{
    "AS_Form_96fa61bdc75c44aeb585167d942d2d23": {
        "id": "AS_Form_96fa61bdc75c44aeb585167d942d2d23",
        "type": "ACTION_SEQUENCE",
        "params": [{
            "datatype": "collection",
            "name": "eventobject"
        }],
        "contextObj": {
            "type": "forms",
            "platform": "",
            "KUID": "dab7a50c55b94a12b3d961ae5bd49247"
        },
        "language": "js",
        "actions": [{
            "id": "ADD_SNIPPET__46d9348ab2fa4c04b242ca4f57883899",
            "type": "ADD_SNIPPET",
            "codeSnippet": "kony.print(\"Removed\");",
            "parentId": null,
            "callbackType": null
        }]
    }
}