{
    "AS_FlexContainer_f43558e818804a4086acb6ce9cc83594": {
        "id": "AS_FlexContainer_f43558e818804a4086acb6ce9cc83594",
        "type": "ACTION_SEQUENCE",
        "params": [{
            "datatype": "collection",
            "name": "eventobject"
        }],
        "language": "js",
        "actions": [{
            "id": "ADD_SNIPPET_ide_onClick_a6fd580da25b4254b1c4a4228d944b2a",
            "type": "ADD_SNIPPET",
            "codeSnippet": "dateRangeOnClick(3);",
            "callbackType": null
        }]
    }
}