{
    "AS_Form_g3399963e28749be9d28491770c61cf1": {
        "id": "AS_Form_g3399963e28749be9d28491770c61cf1",
        "type": "ACTION_SEQUENCE",
        "params": [{
            "datatype": "collection",
            "name": "eventobject"
        }],
        "contextObj": {
            "name": "frmIPSRegistration",
            "type": "forms",
            "platform": "",
            "KUID": "d9019aaca9814c4fb7b2e6f1a98cc411"
        },
        "language": "js",
        "actions": [{
            "id": "ADD_SNIPPET__ea6728f1abfa4cbeb874d9e3fd5317c1",
            "type": "ADD_SNIPPET",
            "codeSnippet": "frmIPSRegistration.btnAlias.skin = \"sknOrangeBGRNDBOJ\";\nfrmIPSRegistration.LblCountryCodeHint.setVisibility(false);\n",
            "parentId": null,
            "callbackType": null
        }]
    }
}