{
    "AS_FlexContainer_ba1658f41383430aa16c529d1ff1d562": {
        "id": "AS_FlexContainer_ba1658f41383430aa16c529d1ff1d562",
        "type": "ACTION_SEQUENCE",
        "params": [{
            "datatype": "collection",
            "name": "eventobject"
        }],
        "language": "js",
        "actions": [{
            "id": "ADD_SNIPPET_ide_onClick_i9532eb4b4784ba3816dfd94746b23fd",
            "type": "ADD_SNIPPET",
            "codeSnippet": "// var currentForm = kony.application.getCurrentForm();\n// kony.chatbots.bot.showBotSplash(currentForm);",
            "callbackType": null
        }]
    }
}