{
    "AS_Image_d887da16b0ab475a9751c38e44a819a2": {
        "id": "AS_Image_d887da16b0ab475a9751c38e44a819a2",
        "type": "ACTION_SEQUENCE",
        "params": [{
            "datatype": "collection",
            "name": "eventobject"
        }, {
            "datatype": "string",
            "name": "imagesrc"
        }, {
            "datatype": "boolean",
            "name": "issuccess"
        }],
        "language": "js",
        "actions": [{
            "id": "ADD_SNIPPET_ide_onDownloadComplete_ebc757db84134bdeaab392a087f0f34d",
            "type": "ADD_SNIPPET",
            "codeSnippet": "accountsLandingVC.onDownloadComplete(issuccess);",
            "callbackType": null
        }]
    }
}