{
    "AS_Image_c1a2c39535ce4bcbbf40e75e1d31e716": {
        "id": "AS_Image_c1a2c39535ce4bcbbf40e75e1d31e716",
        "type": "ACTION_SEQUENCE",
        "params": [{
            "datatype": "collection",
            "name": "eventobject"
        }, {
            "datatype": "string",
            "name": "x"
        }, {
            "datatype": "string",
            "name": "y"
        }],
        "language": "js",
        "actions": [{
            "id": "ADD_SNIPPET_ide_onTouchStart_eef418cdc2a14e2397357b9e34584bf7",
            "type": "ADD_SNIPPET",
            "codeSnippet": "kony.print(\"deleted\");",
            "callbackType": null
        }]
    }
}