{
    "AS_Label_gb8055ac8fdb4e38af106b6faf8a97e3": {
        "id": "AS_Label_gb8055ac8fdb4e38af106b6faf8a97e3",
        "type": "ACTION_SEQUENCE",
        "params": [{
            "datatype": "collection",
            "name": "eventobject"
        }, {
            "datatype": "string",
            "name": "x"
        }, {
            "datatype": "string",
            "name": "y"
        }],
        "language": "js",
        "actions": [{
            "id": "ADD_SNIPPET_ide_onTouchEnd_ce4b66597cfb46069fc34bf5eea07b36",
            "type": "ADD_SNIPPET",
            "codeSnippet": "var currentForm = kony.application.getCurrentForm();\nif((currentForm.id === \"frmLoginKA\" || currentForm.id === \"frmLanguageChange\") && currentForm.passwordTextField.text !== \"\"){\n\tif(frmLoginKA.lblShowPass.text === \"B\"){\n\t\tcurrentForm.passwordTextField.secureTextEntry = true;\n    \tfrmLoginKA.lblShowPass.text = \"A\";\n    }else{\n    \tcurrentForm.passwordTextField.secureTextEntry = false;\n    \tfrmLoginKA.lblShowPass.text = \"B\";\n    }\n}",
            "callbackType": null
        }]
    }
}