{
    "AS_Label_h5133568962441858f9f7854d3bc38e5": {
        "id": "AS_Label_h5133568962441858f9f7854d3bc38e5",
        "type": "ACTION_SEQUENCE",
        "params": [{
            "datatype": "collection",
            "name": "eventobject"
        }, {
            "datatype": "string",
            "name": "x"
        }, {
            "datatype": "string",
            "name": "y"
        }],
        "language": "js",
        "actions": [{
            "id": "ADD_SNIPPET_ide_onTouchEnd_i6537a37e7174b44ac92ed6b1c51124a",
            "type": "ADD_SNIPPET",
            "codeSnippet": "var currentForm = kony.application.getCurrentForm();\nif(currentForm.id === \"frmLoginKA\" || currentForm.id === \"frmLanguageChange\"){\n\tcurrentForm.tbxusernameTextField.text=\"\";\n\tcurrentForm.borderBottom.skin=\"skntextFieldDivider\";\n\tanimateLabel(\"DOWN\",\"lblUserName\",currentForm.tbxusernameTextField.text);\n\tcurrentForm.lblInvalidCredentialsKA.isVisible = false;\n}",
            "callbackType": null
        }]
    }
}