{
    "AS_Label_e5ae1b53126448b0a9d94619ca1af147": {
        "id": "AS_Label_e5ae1b53126448b0a9d94619ca1af147",
        "type": "ACTION_SEQUENCE",
        "params": [{
            "datatype": "collection",
            "name": "eventobject"
        }, {
            "datatype": "string",
            "name": "x"
        }, {
            "datatype": "string",
            "name": "y"
        }],
        "language": "js",
        "actions": [{
            "id": "ADD_SNIPPET_ide_onTouchEnd_bccae4eb4cbf4d83b5c800d6f37d63e8",
            "type": "ADD_SNIPPET",
            "codeSnippet": "//var context={\"widget\":frmAccountDetailKA.accountDetailsTransactions,\"anchor\":\"bottom\",\"sizetoanchorwidth\":false};\n//popupSort.setContext(context);\n// popupSort.show();\nanimatePopup_Sort();",
            "callbackType": null
        }]
    }
}