{
    "AS_Label_e3226fe1c534423c84e441cbced6d69d": {
        "id": "AS_Label_e3226fe1c534423c84e441cbced6d69d",
        "type": "ACTION_SEQUENCE",
        "params": [{
            "datatype": "collection",
            "name": "eventobject"
        }, {
            "datatype": "string",
            "name": "x"
        }, {
            "datatype": "string",
            "name": "y"
        }],
        "contextObj": {
            "name": "frmInformationKA",
            "type": "forms",
            "platform": "",
            "KUID": "f18169832ba24ba09c8780278abfc207"
        },
        "language": "js",
        "actions": [{
            "id": "ADD_SNIPPET__d936b01c24b14c5d8d5e2198ab14511b",
            "type": "ADD_SNIPPET",
            "codeSnippet": "kony.print(\"in pre show::\");\nif(kony.store.getItem(\"langPrefObj\") == \"ar\" && ar_ReleaseNotes!= \"\" ){\n  frmReleaseNotesKA.show();\n}else if(kony.store.getItem(\"langPrefObj\") == \"en\" && en_ReleaseNotes!= \"\" ){\n  frmReleaseNotesKA.show();\n}\n\n\n",
            "parentId": null,
            "callbackType": null
        }]
    }
}