{
    "AS_Label_c87a0ddb7d624f4e84875c9b1b921309": {
        "id": "AS_Label_c87a0ddb7d624f4e84875c9b1b921309",
        "type": "ACTION_SEQUENCE",
        "name": "AS_Label_clickNextAddPrePaidBene",
        "params": [{
            "datatype": "collection",
            "name": "eventobject"
        }, {
            "datatype": "string",
            "name": "x"
        }, {
            "datatype": "string",
            "name": "y"
        }],
        "contextObj": {
            "name": "frmAddNewPrePayeeKA",
            "type": "forms",
            "platform": null,
            "KUID": "a843292d9c674ff7ba10a9b594b7e7e5"
        },
        "language": "js",
        "actions": [{
            "id": "ADD_SNIPPET_ide_onTouchEnd_ce01d45092c846eda74587609ce78b26",
            "type": "ADD_SNIPPET",
            "codeSnippet": "if(frmAddNewPrePayeeKA.lblNext.skin === \"sknLblNextEnabled\"){\n /* if(kony.boj.isNextEnabledPreBiller()){\n    //if(kony.boj.isBillerRegistered()) hassan \n    if(1!=1)\n      customAlertPopup(geti18Value(\"i18n.common.AlreadyRegistered\"), geti18Value(\"i18n.bills.BillerAlreadyRegistered\"),popupCommonAlertDimiss,\"\");\n    else*/\n  /*hassan to prevent register without billing number*/\n  if (frmAddNewPrePayeeKA.tbxBillerNumber.text===undefined || frmAddNewPrePayeeKA.tbxBillerNumber.text===\"\")\n     customAlertPopup(geti18Value(\"i18n.Bene.Addbeneficiary\"), geti18Value(\"i18n.bills.prepaidWithoutBillingNo\"),popupCommonAlertDimiss,\"\");\n  else\n     kony.boj.onClickNextAddPreBiller();\n  //}\n}",
            "callbackType": null
        }]
    }
}