{
    "AS_Label_df81f27830fc47218a819db19290966a": {
        "id": "AS_Label_df81f27830fc47218a819db19290966a",
        "type": "ACTION_SEQUENCE",
        "params": [{
            "datatype": "collection",
            "name": "eventobject"
        }, {
            "datatype": "string",
            "name": "x"
        }, {
            "datatype": "string",
            "name": "y"
        }],
        "language": "js",
        "actions": [{
            "id": "ADD_SNIPPET_ide_onTouchEnd_e4d21b74c905482695609867fbdc258b",
            "type": "ADD_SNIPPET",
            "codeSnippet": "if(frmAddExternalAccountKA.tbxCountry.text === \"\" || frmAddExternalAccountKA.tbxCountry.text === \"BR\" || frmAddExternalAccountKA.tbxCountry.text ===\"CA\")\n  kony.boj.showSelectedDetailsFromBene(\"BankName\", \"lblBankName\", \"JOR\");\nelse\n  kony.boj.showSelectedDetailsFromBene(\"BankName\", \"lblBankName\", frmAddExternalAccountKA.tbxCountry.text);",
            "callbackType": null
        }]
    }
}