{
    "AS_Label_j623d6ee49774302bca3117f888c6c88": {
        "id": "AS_Label_j623d6ee49774302bca3117f888c6c88",
        "type": "ACTION_SEQUENCE",
        "params": [{
            "datatype": "collection",
            "name": "eventobject"
        }, {
            "datatype": "string",
            "name": "x"
        }, {
            "datatype": "string",
            "name": "y"
        }],
        "language": "js",
        "actions": [{
            "id": "NAMED_ACTION___ide_onTouchEnd_cab5d32f4cf54700847f0937215d46d1",
            "type": "NAMED_ACTION",
            "sequenceKUID": "AS_Button_bcc85b20219b45e8be7e1a01dbe48752",
            "display": "TouchLoginClick",
            "inputparams": [{
                "datatype": "collection",
                "name": "eventobject"
            }],
            "callbackType": null,
            "disabled": null,
            "isMasterInstanceAction": null
        }]
    }
}