{
    "AS_Label_b8f2db1f7d2e4949a366f594878dae7a": {
        "id": "AS_Label_b8f2db1f7d2e4949a366f594878dae7a",
        "type": "ACTION_SEQUENCE",
        "params": [{
            "datatype": "collection",
            "name": "eventobject"
        }, {
            "datatype": "string",
            "name": "x"
        }, {
            "datatype": "string",
            "name": "y"
        }],
        "language": "js",
        "actions": [{
            "id": "ADD_SNIPPET_ide_onTouchEnd_ac51c0bf28ea4d89adf984d34c543a87",
            "type": "ADD_SNIPPET",
            "codeSnippet": "var currentForm = kony.application.getCurrentForm();\nif(currentForm.id === \"frmLoginKA\" || currentForm.id === \"frmLanguageChange\"){\n\tcurrentForm.tbxusernameTextField.text=\"\";\n\tcurrentForm.borderBottom.skin=\"skntextFieldDivider\";\n\tanimateLabel(\"DOWN\",\"lblUserName\",currentForm.tbxusernameTextField.text);\n\tcurrentForm.lblInvalidCredentialsKA.isVisible = false;\n}",
            "callbackType": null
        }]
    }
}