{
    "AS_TextField_bbf6affe7faa4cc0a3c3c310ad34a983": {
        "id": "AS_TextField_bbf6affe7faa4cc0a3c3c310ad34a983",
        "type": "ACTION_SEQUENCE",
        "name": "AS_onEndEditingAndroidAddressBankAddBene",
        "params": [{
            "datatype": "collection",
            "name": "eventobject"
        }, {
            "datatype": "string",
            "name": "changedtext"
        }],
        "language": "js",
        "actions": [{
            "id": "ADD_SNIPPET_ide_onEndEditing_caf83f89890840498494cfb119f0e861",
            "type": "ADD_SNIPPET",
            "codeSnippet": "kony.boj.addBeneNextStatus();\nanimateLabel(\"DOWN\", \"lblAddressBank\", frmAddExternalAccountKA.tbxAddressBank.text);",
            "callbackType": null
        }]
    }
}