{
    "AS_TextField_c0380b35076d449b8d238d381388f650": {
        "id": "AS_TextField_c0380b35076d449b8d238d381388f650",
        "type": "ACTION_SEQUENCE",
        "name": "AS_OnEndEditRecI",
        "params": [{
            "datatype": "collection",
            "name": "eventobject"
        }, {
            "datatype": "string",
            "name": "changedtext"
        }],
        "contextObj": {
            "name": "frmNewTransferKA",
            "type": "forms",
            "platform": "",
            "KUID": "2ac343500306428da0ceef91a3b44d18"
        },
        "language": "js",
        "actions": [{
            "id": "ADD_SNIPPET__f4068e3a9ed64944b07edd45dea6f658",
            "type": "ADD_SNIPPET",
            "codeSnippet": "animateLabel(\"DOWN\",\"lblNumRecurr\", frmNewTransferKA.txtNumRecurrences.text);",
            "parentId": null,
            "callbackType": null
        }]
    }
}