{
    "AS_TextField_f569d88da2fb4a3b8724a1c3e6b8d123": {
        "id": "AS_TextField_f569d88da2fb4a3b8724a1c3e6b8d123",
        "type": "ACTION_SEQUENCE",
        "name": "AS_onDoneBeneRelationAddBene",
        "params": [{
            "datatype": "collection",
            "name": "eventobject"
        }, {
            "datatype": "string",
            "name": "changedtext"
        }],
        "language": "js",
        "actions": [{
            "id": "ADD_SNIPPET_ide_onDone_d40fa5b43f554d27b100d10090ee1c78",
            "type": "ADD_SNIPPET",
            "codeSnippet": "kony.boj.addBeneficiaryAnimation(\"lblBeneRelation\");",
            "callbackType": null
        }]
    }
}