{
    "AS_FlexContainer_ba48cb1d0c4b4458aef0f8cdcf79aad6": {
        "id": "AS_FlexContainer_ba48cb1d0c4b4458aef0f8cdcf79aad6",
        "type": "ACTION_SEQUENCE",
        "name": "AS_onClickBackShowBene",
        "params": [{
            "datatype": "collection",
            "name": "eventobject"
        }],
        "language": "js",
        "actions": [{
            "id": "ADD_SNIPPET_ide_onClick_e047d0abf093434da881a575b86221a6",
            "type": "ADD_SNIPPET",
            "codeSnippet": "gblLaunchModeOBJ.lauchMode = false;\nfrmPaymentDashboard.show();;",
            "callbackType": null
        }]
    }
}