{
    "AS_FlexContainer_ca2fa8156efd4e65b18b1ca56fdba56c": {
        "id": "AS_FlexContainer_ca2fa8156efd4e65b18b1ca56fdba56c",
        "type": "ACTION_SEQUENCE",
        "name": "AS_onClickNationalityAddBiller",
        "params": [{
            "datatype": "collection",
            "name": "eventobject"
        }],
        "contextObj": {
            "name": "frmAddNewPayeeKA",
            "type": "forms",
            "platform": "",
            "KUID": "22b994296d374ff48427012b2b05feb7"
        },
        "language": "js",
        "actions": [{
            "id": "ADD_SNIPPET__e8117e8ac343406b92dfab48b1afb714",
            "type": "ADD_SNIPPET",
            "codeSnippet": "kony.boj.manualService(\"Nationality\")",
            "parentId": null,
            "callbackType": null
        }]
    }
}