{
    "AS_FlexContainer_ca225436b3e949ae8cbab6f142a8fd95": {
        "id": "AS_FlexContainer_ca225436b3e949ae8cbab6f142a8fd95",
        "type": "ACTION_SEQUENCE",
        "name": "AS_onBackSelectDetailsBene",
        "params": [{
            "datatype": "collection",
            "name": "eventobject"
        }],
        "language": "js",
        "actions": [{
            "id": "ADD_SNIPPET_ide_onClick_b274809ae5be4cf8b2a988c70ee025ac",
            "type": "ADD_SNIPPET",
            "codeSnippet": "if(kony.newCARD.applyCardsOption === true){\n\tfrmApplyNewCardsKA.show();\n}else{\nif(gblsubaccBranchList){\n  frmOrderCheckBook.show();\n }else if(gblrequestStatementBranch){\n  frmRequestStatementAccounts.show();\n }else if(gblRequestNewPinBranchList){\n  frmRequestPinCard.show();\n }else if(gblWorkflowType === \"IPS\"){\n   frmEPS.show();\n }else if(gblTModule === \"OpenTermDeposite\"){\n   frmOpenTermDeposit.show();\n }else{\nfrmAddExternalAccountKA.show();\nkony.boj.addBeneNextStatus();\n}\n}",
            "callbackType": null
        }]
    }
}