{
    "AS_TextField_db1b743aa0b64d358de6b8dbfb53eda1": {
        "id": "AS_TextField_db1b743aa0b64d358de6b8dbfb53eda1",
        "type": "ACTION_SEQUENCE",
        "name": "AS_onTextChangeSwiftAddBene",
        "params": [{
            "datatype": "collection",
            "name": "eventobject"
        }, {
            "datatype": "string",
            "name": "changedtext"
        }],
        "language": "js",
        "actions": [{
            "id": "ADD_SNIPPET_ide_onTextChange_d5255bc34fbb43d3963aed7d7a0fbd81",
            "type": "ADD_SNIPPET",
            "codeSnippet": "// if(frmAddExternalAccountKA.txtSwiftCodeKA.text.length == 8 || frmAddExternalAccountKA.txtSwiftCodeKA.text.length == 11){\n//   frmAddExternalAccountKA.flxUnderlineSwiftCode.skin = \"sknFlxGreenLine\";\n// }else{\n//   frmAddExternalAccountKA.flxUnderlineSwiftCode.skin = \"sknFlxOrangeLine\";\n// }\nkony.boj.addBeneNextStatus();",
            "callbackType": null
        }]
    }
}