{
    "AS_FlexContainer_ec1ea3eaafe04d088afd72a3af5fdb8f": {
        "id": "AS_FlexContainer_ec1ea3eaafe04d088afd72a3af5fdb8f",
        "type": "ACTION_SEQUENCE",
        "name": "AS_onConfirmBackAddBiller",
        "params": [{
            "datatype": "collection",
            "name": "eventobject"
        }],
        "language": "js",
        "actions": [{
            "id": "ADD_SNIPPET_ide_onClick_bdd104a1099e439c97507527ff09af80",
            "type": "ADD_SNIPPET",
            "codeSnippet": "frmAddNewPayeeKA.flxConfirmPopUp.isVisible = false;\nfrmAddNewPayeeKA.flxFormMain.isVisible = true;",
            "callbackType": null
        }]
    }
}