{
    "AS_FlexContainer_j32fe18e3b934aeb88d60f65a07dd91d": {
        "id": "AS_FlexContainer_j32fe18e3b934aeb88d60f65a07dd91d",
        "type": "ACTION_SEQUENCE",
        "name": "AS_onclickofGetbranchListforRewuestStatement",
        "params": [{
            "datatype": "collection",
            "name": "eventobject"
        }],
        "language": "js",
        "actions": [{
            "id": "ADD_SNIPPET_ide_onClick_bf45bf921815435a8a87293be4cb4e1b",
            "type": "ADD_SNIPPET",
            "codeSnippet": "gblrequestStatementBranch=true;\n kony.boj.showSelectedDetailsFromBene(\"Branch\", \"lblBankBranch\");",
            "callbackType": null
        }]
    }
}