{
    "AS_Form_be65bad5ec5c4613b2d2a21ed0f51055": {
        "id": "AS_Form_be65bad5ec5c4613b2d2a21ed0f51055",
        "type": "ACTION_SEQUENCE",
        "name": "AS_onDevicebackofNeSubAccConfirm",
        "params": [{
            "datatype": "collection",
            "name": "eventobject"
        }],
        "contextObj": {
            "name": "frmNewSubAccountConfirm",
            "type": "forms",
            "platform": null,
            "KUID": "had87411f0e7475b88178a427b6e7299"
        },
        "language": "js",
        "actions": [{
            "id": "ADD_SNIPPET__a5bdb21fc94b4467b28e19061123f5dc",
            "type": "ADD_SNIPPET",
            "codeSnippet": "frmNewSubAccountLandingNew.show();",
            "parentId": null
        }]
    }
}