{
    "AS_Button_hddcd2208b0c4536a39260febe7402c5": {
        "id": "AS_Button_hddcd2208b0c4536a39260febe7402c5",
        "type": "ACTION_SEQUENCE",
        "name": "AS_onConfirmAddBiller",
        "params": [{
            "datatype": "collection",
            "name": "eventobject"
        }],
        "language": "js",
        "actions": [{
            "id": "ADD_SNIPPET_ide_onClick_d427dc968c1b454180645ef17a59ab45",
            "type": "ADD_SNIPPET",
            "codeSnippet": "gblToOTPFrom = \"AddBiller\";\n//ShowLoadingScreen();\nserv_ADD_BILLER();\n// INSTANCE = kony.sdk.mvvm.KonyApplicationContext.getAppInstance();\n// listController = INSTANCE.getFormController(\"frmAddNewPayeeKA\");\n// listController.performAction(\"saveData\");\n//callRequestOTP();\n// frmNewUserOnboardVerificationKA.show();",
            "callbackType": null
        }]
    }
}