{
    "AS_FlexContainer_h2ad52becff34f7f806f5ab6766a62bd": {
        "id": "AS_FlexContainer_h2ad52becff34f7f806f5ab6766a62bd",
        "type": "ACTION_SEQUENCE",
        "name": "AS_onclickBranchListoffrmrequestNewPin",
        "params": [{
            "datatype": "collection",
            "name": "eventobject"
        }],
        "language": "js",
        "actions": [{
            "id": "ADD_SNIPPET_ide_onClick_ie471defd7bf4680a6236474c680d56c",
            "type": "ADD_SNIPPET",
            "codeSnippet": "gblRequestNewPinBranchList=true;\n kony.boj.showSelectedDetailsFromBene(\"Branch\", \"lblBankBranch\");",
            "callbackType": null
        }]
    }
}