{
    "AS_TextField_b7842585bb6043e19b5c11d4c7f554e9": {
        "id": "AS_TextField_b7842585bb6043e19b5c11d4c7f554e9",
        "type": "ACTION_SEQUENCE",
        "name": "AS_onDoneBankNameIntAddBene",
        "params": [{
            "datatype": "collection",
            "name": "eventobject"
        }, {
            "datatype": "string",
            "name": "changedtext"
        }],
        "contextObj": {
            "name": "frmAddExternalAccountKA",
            "type": "forms",
            "platform": "",
            "KUID": "4943cca5d62d4f0ca6f2e9ab47274db5"
        },
        "language": "js",
        "actions": [{
            "id": "ADD_SNIPPET__ebd339ed548049ce96d4b4004b57c318",
            "type": "ADD_SNIPPET",
            "codeSnippet": "kony.boj.addBeneficiaryAnimation(\"lblCityBank\");",
            "parentId": null,
            "callbackType": null
        }]
    }
}