{
    "AS_Form_cecdfd93f0ca459a80129b9059878066": {
        "id": "AS_Form_cecdfd93f0ca459a80129b9059878066",
        "type": "ACTION_SEQUENCE",
        "name": "AS_OTPPreShow",
        "params": [{
            "datatype": "collection",
            "name": "eventobject"
        }],
        "contextObj": {
            "name": "frmNewUserOnboardVerificationKA",
            "type": "forms",
            "platform": "",
            "KUID": "ie7b921fac134bd8a8afb16afc085409"
        },
        "language": "js",
        "actions": [{
            "id": "ADD_SNIPPET__c6b4481df0ab439aad5254c618243023",
            "type": "ADD_SNIPPET",
            "codeSnippet": "isScanCard = false;\nif(isAndroid()){\n  askPermission();\n //frmNewUserOnboardVerificationKA.txtOTP.setFocus(true);\n    //registerWithSMSListener();\n}else{\n  callIponeCustomFFI();\n}\n\npreShowOTP();\nfrmNewUserOnboardVerificationKA.lblContactCenterNumber.text = bojcontactnumber;",
            "parentId": null,
            "callbackType": null
        }]
    }
}