{
    "AS_ListBox_g62e17fbdd004b5b8f60794f72b275db": {
        "id": "AS_ListBox_g62e17fbdd004b5b8f60794f72b275db",
        "type": "ACTION_SEQUENCE",
        "name": "AS_onBankNameSelect",
        "params": [{
            "datatype": "collection",
            "name": "eventobject"
        }],
        "contextObj": {
            "name": "frmAddExternalAccountKA",
            "type": "forms",
            "platform": "",
            "KUID": "4943cca5d62d4f0ca6f2e9ab47274db5"
        },
        "language": "js",
        "actions": [{
            "id": "ADD_SNIPPET__j774b0f8c4ac4db78d571a81486f44e5",
            "type": "ADD_SNIPPET",
            "codeSnippet": "frmAddExternalAccountKA.tbxBankName.text = frmAddExternalAccountKA.ListBankName.selectedKeyValue[1];\nkony.boj.addBeneNextStatus();",
            "parentId": null,
            "callbackType": null
        }]
    }
}