{
    "AS_FlexContainer_ib64fe9547ba4c459001fea39b27a5a2": {
        "id": "AS_FlexContainer_ib64fe9547ba4c459001fea39b27a5a2",
        "type": "ACTION_SEQUENCE",
        "name": "AS_onClickDebitCardTextBox",
        "params": [{
            "datatype": "collection",
            "name": "eventobject"
        }],
        "contextObj": {
            "name": "frmRegisterUser",
            "type": "forms",
            "platform": "",
            "KUID": "cd7432ec5087404590338186c94e35d2"
        },
        "language": "js",
        "actions": [{
            "id": "ADD_SNIPPET__ac9b9ac772f64409a6f72899672d61e3",
            "type": "ADD_SNIPPET",
            "codeSnippet": "frmRegisterUser.txtCardNum.setFocus(true);\nfrmRegisterUser.flxLine.skin = \"sknFlxBlueLine\";\nalert(\"in On clik\");",
            "parentId": null,
            "callbackType": null
        }]
    }
}