{
    "AS_Button_a1b6481b8fb448d5aedd5800b105e99d": {
        "id": "AS_Button_a1b6481b8fb448d5aedd5800b105e99d",
        "type": "ACTION_SEQUENCE",
        "name": "AS_onclicknavbacktocardslandingKA",
        "params": [{
            "datatype": "collection",
            "name": "eventobject"
        }],
        "contextObj": {
            "name": "frmManageCardsKA",
            "type": "forms",
            "platform": "",
            "KUID": "75db60b6b4944b7faf9c556f4dbcaf8d"
        },
        "language": "js",
        "actions": [{
            "id": "ADD_SNIPPET__d02b643a4d374456893cbf54104d6058",
            "type": "ADD_SNIPPET",
            "codeSnippet": "frmCardsLandingKA.show();",
            "parentId": null,
            "callbackType": null
        }]
    }
}