{
    "AS_TextField_d3dd672ec38c42e5a966fee9709bd264": {
        "id": "AS_TextField_d3dd672ec38c42e5a966fee9709bd264",
        "type": "ACTION_SEQUENCE",
        "name": "AS_onEndEditingDescA2",
        "params": [{
            "datatype": "collection",
            "name": "eventobject"
        }, {
            "datatype": "string",
            "name": "changedtext"
        }],
        "contextObj": {
            "name": "frmNewTransferKA",
            "type": "forms",
            "platform": "",
            "KUID": "2ac343500306428da0ceef91a3b44d18"
        },
        "language": "js",
        "actions": [{
            "id": "ADD_SNIPPET__ie761fcead474d1dbe4574cad1263db8",
            "type": "ADD_SNIPPET",
            "codeSnippet": "animateLabel(\"DOWN\",\"lblDescription\",frmNewTransferKA.txtDesc.text);",
            "parentId": null,
            "callbackType": null
        }]
    }
}