{
    "AS_FlexContainer_h7875446afef460b9bbe2ae4626fb49b": {
        "id": "AS_FlexContainer_h7875446afef460b9bbe2ae4626fb49b",
        "type": "ACTION_SEQUENCE",
        "name": "AS_onClickBillerNameAddBiller",
        "params": [{
            "datatype": "collection",
            "name": "eventobject"
        }],
        "contextObj": {
            "name": "frmAddNewPayeeKA",
            "type": "forms",
            "platform": "",
            "KUID": "22b994296d374ff48427012b2b05feb7"
        },
        "language": "js",
        "actions": [{
            "id": "ADD_SNIPPET__b6474b39764e4d8cbb475c1060cd40e3",
            "type": "ADD_SNIPPET",
            "codeSnippet": "if(JSON.stringify(kony.boj.Biller[kony.boj.selectedBillerType].selectedBillerCategory) == '{}'){\n  frmAddNewPayeeKA.flxUnderlineBillerCategory.skin = \"sknFlxOrangeLine\";\n  frmAddNewPayeeKA.flxUnderlineBillerName.skin = \"sknFlxOrangeLine\";\n}\nelse\n  kony.boj.callService(\"GetEfwBillerList\");",
            "parentId": null,
            "callbackType": null
        }]
    }
}