{
    "AS_FlexContainer_a3407852f85443838ff9f243ec611264": {
        "id": "AS_FlexContainer_a3407852f85443838ff9f243ec611264",
        "type": "ACTION_SEQUENCE",
        "name": "AS_onclickorderchecktoshowBranchList",
        "params": [{
            "datatype": "collection",
            "name": "eventobject"
        }],
        "language": "js",
        "actions": [{
            "id": "ADD_SNIPPET_ide_onClick_gc606df4649144a1a61462f899a07aa8",
            "type": "ADD_SNIPPET",
            "codeSnippet": "gblsubaccBranchList=true;\n kony.boj.showSelectedDetailsFromBene(\"Branch\", \"lblBankBranch\");",
            "callbackType": null
        }]
    }
}