{
    "AS_TextField_j04bc1fa45c3471bbc58b1bcef410787": {
        "id": "AS_TextField_j04bc1fa45c3471bbc58b1bcef410787",
        "type": "ACTION_SEQUENCE",
        "name": "AS_onTouchEndCityBank",
        "params": [{
            "datatype": "collection",
            "name": "eventobject"
        }, {
            "datatype": "string",
            "name": "x"
        }, {
            "datatype": "string",
            "name": "y"
        }],
        "contextObj": {
            "name": "frmAddExternalAccountKA",
            "type": "forms",
            "platform": "",
            "KUID": "4943cca5d62d4f0ca6f2e9ab47274db5"
        },
        "language": "js",
        "actions": [{
            "id": "ADD_SNIPPET__b2a88097953d465ca09c870d20aea64a",
            "type": "ADD_SNIPPET",
            "codeSnippet": "kony.boj.addBeneficiaryAnimation(\"lblCityBank\");\nfrmAddExternalAccountKA.flxUnderlineCityBank.skin = \"sknFlxBlueLine\";",
            "parentId": null,
            "callbackType": null
        }]
    }
}