{
    "AS_Button_b1d62137c69140809a577d4b788b93f2": {
        "id": "AS_Button_b1d62137c69140809a577d4b788b93f2",
        "type": "ACTION_SEQUENCE",
        "name": "AS_onClickDOMShowBene",
        "params": [{
            "datatype": "collection",
            "name": "eventobject"
        }],
        "contextObj": {
            "name": "frmShowAllBeneficiary",
            "type": "forms",
            "platform": "",
            "KUID": "da135140bfd946caa325afeee19e7e04"
        },
        "language": "js",
        "actions": [{
            "id": "ADD_SNIPPET__f2ebaf616ed14276a14b5da3c34f0f88",
            "type": "ADD_SNIPPET",
            "codeSnippet": "kony.boj.addBeneVar.selectedType = \"DOM\";\nkony.boj.setBeneData(\"DTB\");\nfrmShowAllBeneficiary.btnAll.skin = \"slButtonWhiteTabDisabled\";\nfrmShowAllBeneficiary.btnBOJ.skin = \"slButtonWhiteTabDisabled\";\nfrmShowAllBeneficiary.btnDomestic.skin = \"slButtonWhiteTab\";\nfrmShowAllBeneficiary.btnInternational.skin = \"slButtonWhiteTabDisabled\";",
            "parentId": null,
            "callbackType": null
        }]
    }
}