{
    "AS_FlexContainer_e46177579d944181acb70558283e40a7": {
        "id": "AS_FlexContainer_e46177579d944181acb70558283e40a7",
        "type": "ACTION_SEQUENCE",
        "name": "AS_RegisterBack",
        "params": [{
            "datatype": "collection",
            "name": "eventobject"
        }, {
            "datatype": "string",
            "name": "x"
        }, {
            "datatype": "string",
            "name": "y"
        }],
        "contextObj": {
            "name": "frmEnrolluserLandingKA",
            "type": "forms",
            "platform": "",
            "KUID": "de724966138b4e7c9bfdd35033a0bdb3"
        },
        "language": "js",
        "actions": [{
            "id": "ADD_SNIPPET__g3973dfc301644ef82368abb9ac70b2b",
            "type": "ADD_SNIPPET",
            "codeSnippet": "if(gblFromModule == \"RegisterUser\"){\n\tfrmRegisterUser.show();\n}\nelse if(gblFromModule == \"ChangeUsername\"){\n  frmSettingsKA.show();\n}\nelse if(gblFromModule == \"ChangePassword\"){\n  frmSettingsKA.show();\n}\nelse{\n  frmEnrolluserLandingKA.lblFlag.text=\"F\";\n  if(gblReqField == \"Username\"){\n    frmLoginKA.show();\n  }\n  else{\n    frmRegisterUser.show();\n  }\n}\nfrmNewUserOnboardVerificationKA.destroy();\n//frmEnrolluserLandingKA.destroy();",
            "parentId": null,
            "callbackType": null
        }]
    }
}