{
    "AS_RadioButtonGroup_c0a48fa4728441f79f76796011e8cfbf": {
        "id": "AS_RadioButtonGroup_c0a48fa4728441f79f76796011e8cfbf",
        "type": "ACTION_SEQUENCE",
        "params": [{
            "datatype": "collection",
            "name": "eventobject"
        }],
        "contextObj": {
            "type": "forms",
            "platform": "",
            "KUID": "ac09c32a534449b3b0961f8e48e26015"
        },
        "language": "js",
        "actions": [{
            "id": "ADD_SNIPPET__2ed1b1f99b614262b945a9b46f52c8f1",
            "type": "ADD_SNIPPET",
            "codeSnippet": "getTransactionFilterForIphone(frmSearchKA.searchSegmentedController.selectedKey);",
            "parentId": null,
            "callbackType": null
        }]
    }
}