{
    "AS_Segment_fc74875e92474b48b2e93be92f613cfb": {
        "id": "AS_Segment_fc74875e92474b48b2e93be92f613cfb",
        "type": "ACTION_SEQUENCE",
        "params": [{
            "datatype": "collection",
            "name": "eventobject"
        }, {
            "datatype": "string",
            "name": "x"
        }, {
            "datatype": "string",
            "name": "y"
        }],
        "contextObj": {
            "type": "forms",
            "platform": "",
            "KUID": "2e63134c7cd34ec9801fa53d362efd33"
        },
        "language": "js",
        "actions": [{
            "id": "ADD_SNIPPET__619467d9df5946f49433332b9432e192",
            "type": "ADD_SNIPPET",
            "codeSnippet": "kony.print(\"Deleted\");",
            "parentId": null,
            "callbackType": null
        }]
    }
}