{
    "AS_Segment_dd252b3da767456c8c183d651656ec9a": {
        "id": "AS_Segment_dd252b3da767456c8c183d651656ec9a",
        "type": "ACTION_SEQUENCE",
        "params": [{
            "datatype": "collection",
            "name": "eventobject"
        }, {
            "datatype": "number",
            "name": "sectionNumber"
        }, {
            "datatype": "number",
            "name": "rowNumber"
        }],
        "language": "js",
        "actions": [{
            "id": "ADD_SNIPPET_ide_onRowClick_18d4f50e70664236910ac583f7b749d4",
            "type": "ADD_SNIPPET",
            "codeSnippet": "//onclicksegment(\"from\");\n//selectAccountCard(frmNewTransferKA, \"from\", 1);\nvar index = getSegInternalAccountsKARecordClick(\"segInternalFromAccountsKA\",\"frmNewBillKA\", frmNewBillKA, \"from\");\n//setToTransferAccountsAfterSelectionOfFromAccount(\"frmNewTransferKA\",\"segInternalTOAccountsKA\",index);\nsetContainerState(frmNewBillKA,\"from\",\"ANIMATION_COLLAPSE\", defaultCardHeight);\n//unSelectSameAccount();",
            "callbackType": null
        }]
    }
}