{
    "AS_Segment_b2c56b89f37747a7b5990131126c0008": {
        "id": "AS_Segment_b2c56b89f37747a7b5990131126c0008",
        "type": "ACTION_SEQUENCE",
        "params": [{
            "datatype": "collection",
            "name": "eventobject"
        }, {
            "datatype": "number",
            "name": "sectionNumber"
        }, {
            "datatype": "number",
            "name": "rowNumber"
        }],
        "language": "js",
        "actions": [{
            "id": "ADD_SNIPPET_ide_onRowClick_ca8348587ddb4069a195d258fd5f5af0",
            "type": "ADD_SNIPPET",
            "codeSnippet": "frmTransferMoneyToKAsegInternalTOAccountsKAOnRowClick();",
            "callbackType": null
        }]
    }
}