{
    "AS_Segment_11f1faaf686e41c9a88efaace4864577": {
        "id": "AS_Segment_11f1faaf686e41c9a88efaace4864577",
        "type": "ACTION_SEQUENCE",
        "params": [{
            "datatype": "collection",
            "name": "eventobject"
        }],
        "language": "js",
        "actions": [{
            "id": "ADD_SNIPPET_ide_onReachingEnd_62f9bc3508d5444aaef30a1909909cf1",
            "type": "ADD_SNIPPET",
            "codeSnippet": "searchResults(frmSearchResultsKA[\"segSearchResultsKA\"].data.length);",
            "callbackType": null
        }]
    }
}