{
    "AS_Switch_5b48725842cb4297bb08c9333a8462b5": {
        "id": "AS_Switch_5b48725842cb4297bb08c9333a8462b5",
        "type": "ACTION_SEQUENCE",
        "params": [{
            "datatype": "collection",
            "name": "eventobject"
        }],
        "language": "js",
        "actions": [{
            "id": "ADD_SNIPPET_ide_onSlide_da6ef2c92b8640e39421034002f46b7e",
            "type": "ADD_SNIPPET",
            "codeSnippet": "updateDealsAlertStatus(\"newDealsAvailable\");",
            "callbackType": null
        }]
    }
}