{
    "AS_Segment_c9d6f1fe94404e4f80a19487b49277c2": {
        "id": "AS_Segment_c9d6f1fe94404e4f80a19487b49277c2",
        "type": "ACTION_SEQUENCE",
        "params": [{
            "datatype": "collection",
            "name": "eventobject"
        }, {
            "datatype": "number",
            "name": "sectionNumber"
        }, {
            "datatype": "number",
            "name": "rowNumber"
        }],
        "contextObj": {
            "name": "frmNewTransferKA",
            "type": "forms",
            "platform": "",
            "KUID": "2ac343500306428da0ceef91a3b44d18"
        },
        "language": "js",
        "actions": [{
            "id": "ADD_SNIPPET__3cc17abfcfb14bbe9bbd49b53699bd15",
            "type": "ADD_SNIPPET",
            "codeSnippet": "selectAccountCard(frmNewTransferKA,\"to\",1);",
            "parentId": null,
            "callbackType": null
        }]
    }
}