{
    "AS_Segment_cbf0797a7ca64ce3ab10ea13b903301e": {
        "id": "AS_Segment_cbf0797a7ca64ce3ab10ea13b903301e",
        "type": "ACTION_SEQUENCE",
        "params": [{
            "datatype": "collection",
            "name": "eventobject"
        }, {
            "datatype": "number",
            "name": "sectionNumber"
        }, {
            "datatype": "number",
            "name": "rowNumber"
        }],
        "language": "js",
        "actions": [{
            "id": "ADD_SNIPPET_ide_onRowClick_i96d0d6a64cc43acb016cfcdec848bd0",
            "type": "ADD_SNIPPET",
            "codeSnippet": "kony.print(\"Perf Log: Details page form - start\");\n    var INSTANCE = kony.sdk.mvvm.KonyApplicationContext.getAppInstance();\n    var listController = INSTANCE.getFormController(\"frmAccountsLandingKA\");\n    listController.performAction(\"navigateToAccountsDetails\");",
            "callbackType": null,
            "disabled": true
        }, {
            "id": "INVOKE_FUNCTION___fb561ac7929f4eb090032db2a891144b",
            "type": "INVOKE_FUNCTION",
            "sequenceKUID": "onrowclickDashboard",
            "display": "onrowclickDashboard",
            "inputparams": [{
                "name": "data",
                "value": " eventobject"
            }, {
                "name": "section",
                "value": " sectionNumber"
            }, {
                "name": "row",
                "value": " rowNumber"
            }],
            "parentId": null,
            "disabled": false,
            "source": "module"
        }]
    }
}