{
    "AS_Segment_j2f97faeda7c414783430fbf699726d7": {
        "id": "AS_Segment_j2f97faeda7c414783430fbf699726d7",
        "type": "ACTION_SEQUENCE",
        "params": [{
            "datatype": "collection",
            "name": "eventobject"
        }, {
            "datatype": "number",
            "name": "sectionNumber"
        }, {
            "datatype": "number",
            "name": "rowNumber"
        }],
        "contextObj": {
            "name": "frmAccountType",
            "type": "forms",
            "platform": null,
            "KUID": "g66cdae5633b442dbe43e8cfa5f5a5a6"
        },
        "language": "js",
        "actions": [{
            "id": "ADD_SNIPPET_ide_onRowClick_h1ab9070d13c4b0d9d5480968cc31124",
            "type": "ADD_SNIPPET",
            "codeSnippet": "selectFrequency();",
            "callbackType": null
        }]
    }
}