{
    "AS_Segment_b1344d1356494b8f81219ce12b97079d": {
        "id": "AS_Segment_b1344d1356494b8f81219ce12b97079d",
        "type": "ACTION_SEQUENCE",
        "params": [{
            "datatype": "collection",
            "name": "eventobject"
        }, {
            "datatype": "string",
            "name": "x"
        }, {
            "datatype": "string",
            "name": "y"
        }],
        "contextObj": {
            "type": "forms",
            "platform": "",
            "KUID": "2e63134c7cd34ec9801fa53d362efd33"
        },
        "language": "js",
        "actions": [{
            "id": "ADD_SNIPPET__73196aa022d54a5cac0b7569db55335f",
            "type": "ADD_SNIPPET",
            "codeSnippet": "kony.print(\"Deleted\");",
            "parentId": null,
            "callbackType": null
        }]
    }
}