{
    "AS_Segment_aae2b1aa35dc464082b4c2955a66212f": {
        "id": "AS_Segment_aae2b1aa35dc464082b4c2955a66212f",
        "type": "ACTION_SEQUENCE",
        "params": [{
            "datatype": "collection",
            "name": "eventobject"
        }, {
            "datatype": "number",
            "name": "sectionNumber"
        }, {
            "datatype": "number",
            "name": "rowNumber"
        }],
        "language": "js",
        "actions": [{
            "id": "ADD_SNIPPET__86eb7a82dff84dc3ae04abb954d2de20",
            "type": "ADD_SNIPPET",
            "codeSnippet": "var phNum = frmContactUsKA.contactSegmentList.selectedItems[0].phoneNum;\nfunction onClickCall(response){\nif(response){\n  try\n\t{\n          kony.phone.dial(phNum);\n\t} \n\tcatch(err)\n\t{\n\t\talert(i18n_dailError+\" \"+err);\n\t}\n }\n}\nkony.ui.Alert({\n        \"alertType\": constants.ALERT_TYPE_CONFIRMATION,\n        \"alertTitle\": i18n_call,\n        \"yesLabel\": i18n_call,\n        \"noLabel\": i18n_cancel,\n        \"alertIcon\": \"phone_icon_inactive.png\",\n        \"message\": phNum,\n        \"alertHandler\": onClickCall \n    }, {\n        \"iconPosition\": constants.ALERT_ICON_POSITION_LEFT\n    })",
            "parentId": null,
            "callbackType": null
        }]
    }
}