{
    "AS_TextField_a47a540d44684d0f99eb0ce952ec724c": {
        "id": "AS_TextField_a47a540d44684d0f99eb0ce952ec724c",
        "type": "ACTION_SEQUENCE",
        "name": "AS_TextField_OnTextChangeIBANAddress",
        "params": [{
            "datatype": "collection",
            "name": "eventobject"
        }, {
            "datatype": "string",
            "name": "changedtext"
        }],
        "contextObj": {
            "name": "frmEPS",
            "type": "forms",
            "platform": "",
            "KUID": "c49bbb3175be499d86d933cee301b3c4"
        },
        "language": "js",
        "actions": [{
            "id": "ADD_SNIPPET__h60f873a0d6f433289c3182cad534f58",
            "type": "ADD_SNIPPET",
            "codeSnippet": "validateLblNext();",
            "parentId": null,
            "callbackType": null
        }]
    }
}