{
    "AS_TextField_fe7a4151238f4911a5287755b8d10448": {
        "id": "AS_TextField_fe7a4151238f4911a5287755b8d10448",
        "type": "ACTION_SEQUENCE",
        "params": [{
            "datatype": "collection",
            "name": "eventobject"
        }, {
            "datatype": "string",
            "name": "changedtext"
        }],
        "contextObj": {
            "name": "frmLoginKA",
            "type": "forms",
            "platform": "",
            "KUID": "7b1aa8fceb6b4070833e9eab879b0e5e"
        },
        "language": "js",
        "actions": [{
            "id": "ADD_SNIPPET__d91866f4ba404686a96375744d33472c",
            "type": "ADD_SNIPPET",
            "codeSnippet": "//frmLoginKA.borderBottom.skin=\"skntextFieldDividerGreen\";\nkony.print(\"Commented for testing by Afwan\");",
            "parentId": null,
            "callbackType": null
        }]
    }
}