{
    "AS_TextField_d8cdd3859f5642199390893ce04a9da9": {
        "id": "AS_TextField_d8cdd3859f5642199390893ce04a9da9",
        "type": "ACTION_SEQUENCE",
        "params": [{
            "datatype": "collection",
            "name": "eventobject"
        }, {
            "datatype": "string",
            "name": "changedtext"
        }],
        "contextObj": {
            "name": "frmAddExternalAccountKA",
            "type": "forms",
            "platform": "",
            "KUID": "4943cca5d62d4f0ca6f2e9ab47274db5"
        },
        "language": "js",
        "actions": [{
            "id": "ADD_SNIPPET_ide_onDone_h6fc71409d4c4f2ea70232fb48b84cff",
            "type": "ADD_SNIPPET",
            "codeSnippet": "animateLabel(\"DOWN\", \"lblUsername\", frmEnrolluserLandingKA.tbxUsernameKA.text);\nanimateLabel(\"UP\", \"lblPassword\", frmEnrolluserLandingKA.tbxPasswordKA.text);",
            "callbackType": null
        }]
    }
}