{
    "AS_TextField_a5c0cc1c31ef489fa322228e439c8c2b": {
        "id": "AS_TextField_a5c0cc1c31ef489fa322228e439c8c2b",
        "type": "ACTION_SEQUENCE",
        "name": "AS_TextField_NationalIDRegistration_FileName_onBeginEditingIOS",
        "params": [{
            "datatype": "collection",
            "name": "eventobject"
        }, {
            "datatype": "string",
            "name": "changedtext"
        }],
        "contextObj": {
            "name": "frmRegisterUser",
            "type": "forms",
            "platform": "",
            "KUID": "cd7432ec5087404590338186c94e35d2"
        },
        "language": "js",
        "actions": [{
            "id": "ADD_SNIPPET__d18fd343a9824251b6f30aeb7f6746ff",
            "type": "ADD_SNIPPET",
            "codeSnippet": "animateLabel(\"UP\", \"lblCSPDFileNubmerTitle\", frmRegisterUser.txtCSPDFileNumber.text);",
            "parentId": null,
            "callbackType": null
        }]
    }
}