{
    "AS_TextField_c6e8b3cae8f4423dbe4fa7887077d546": {
        "id": "AS_TextField_c6e8b3cae8f4423dbe4fa7887077d546",
        "type": "ACTION_SEQUENCE",
        "params": [{
            "datatype": "collection",
            "name": "eventobject"
        }, {
            "datatype": "string",
            "name": "changedtext"
        }],
        "language": "js",
        "actions": [{
            "id": "ADD_SNIPPET_ide_onBeginEditing_267136890bc545828b670dc3abb77e40",
            "type": "ADD_SNIPPET",
            "codeSnippet": "frmLoginKA.lblInvalidCredentialsKA.isVisible = false;",
            "callbackType": null
        }]
    }
}