{
    "AS_TextField_cd3137cef8164b77943a077a8d790a05": {
        "id": "AS_TextField_cd3137cef8164b77943a077a8d790a05",
        "type": "ACTION_SEQUENCE",
        "params": [{
            "datatype": "collection",
            "name": "eventobject"
        }, {
            "datatype": "string",
            "name": "changedtext"
        }],
        "contextObj": {
            "name": "frmEPS",
            "type": "forms",
            "platform": "",
            "KUID": "c49bbb3175be499d86d933cee301b3c4"
        },
        "language": "js",
        "actions": [{
            "id": "ADD_SNIPPET__be3df3252a974c7c8925045800b4590c",
            "type": "ADD_SNIPPET",
            "codeSnippet": "var gblAliasType = null;\nkony.sdk.mvvm.KonyApplicationContext.showLoadingScreen(\"\");\ngblAliasType = frmEPS.txtAliasNameMob.text;\nGetAliasInfo(gblAliasType);",
            "parentId": null,
            "callbackType": null
        }]
    }
}