{
    "AS_TextField_jf749b25d9514717832aec0314ca581a": {
        "id": "AS_TextField_jf749b25d9514717832aec0314ca581a",
        "type": "ACTION_SEQUENCE",
        "params": [{
            "datatype": "collection",
            "name": "eventobject"
        }, {
            "datatype": "string",
            "name": "changedtext"
        }],
        "language": "js",
        "actions": [{
            "id": "ADD_SNIPPET_ide_onEndEditing_ja638822e38b477e9f0c85869c69d1fe",
            "type": "ADD_SNIPPET",
            "codeSnippet": "frmJoMoPay.flxBorderAmount.skin=\"skntextFieldDividerGreen\";\n/*if(frmJoMoPay.lblCurrency.text===\"JOD\")\n{\nif (frmJoMoPay.txtFieldAmount.text !== \"\" && frmJoMoPay.txtFieldAmount.text !== \"0\" && frmJoMoPay.txtFieldAmount.text !== 0) \n\t{\n        var amount = Number.parseFloat(frmJoMoPay.txtFieldAmount.text).toFixed(3);\n        frmJoMoPay.txtFieldAmount.text = amount;\n  \t}\n}\nelse\n  {*/\n    if (frmJoMoPay.txtFieldAmount.text !== \"\" && frmJoMoPay.txtFieldAmount.text !== \"0\" && frmJoMoPay.txtFieldAmount.text !== 0) \n\t{\n        var amount = Number.parseFloat(frmJoMoPay.txtFieldAmount.text).toFixed(3);\n        frmJoMoPay.txtFieldAmount.text = amount;\n  \t}\n // }",
            "callbackType": null
        }]
    }
}