{
    "AS_TextField_jaacaadd54ed4fd5a190a9b884609885": {
        "id": "AS_TextField_jaacaadd54ed4fd5a190a9b884609885",
        "type": "ACTION_SEQUENCE",
        "name": "AS_TextField_AmountFldCardLessOnEndEditingAndroid",
        "params": [{
            "datatype": "collection",
            "name": "eventobject"
        }, {
            "datatype": "string",
            "name": "changedtext"
        }],
        "language": "js",
        "actions": [{
            "id": "ADD_SNIPPET_ide_onEndEditing_e12d51e36cc442fb916fc39da7020d3e",
            "type": "ADD_SNIPPET",
            "codeSnippet": "onendeditingCaredless();\nfrmCardlessTransaction.txtFieldAmount.maxTextLength = 20;\nfrmCardlessTransaction.txtFieldAmount.text=formatAmountwithcomma(frmCardlessTransaction.lblHiddenAmount.text,getDecimalNumForCurr(frmCardlessTransaction.lblCurrencyCode.text));",
            "callbackType": null
        }]
    }
}