{
    "AS_TextField_befe30a8b7244a3aacbc059876e70664": {
        "id": "AS_TextField_befe30a8b7244a3aacbc059876e70664",
        "type": "ACTION_SEQUENCE",
        "params": [{
            "datatype": "collection",
            "name": "eventobject"
        }, {
            "datatype": "string",
            "name": "changedtext"
        }],
        "language": "js",
        "actions": [{
            "id": "ADD_SNIPPET_ide_onTextChange_i7d10896213f4b74b177805040d49fab",
            "type": "ADD_SNIPPET",
            "codeSnippet": "if(frmJoMoPay.txtAliasDetail!==null&&frmJoMoPay.txtAliasDetail!==\"\"&&frmJoMoPay.txtFieldAmount.text!=null&&frmJoMoPay.txtFieldAmount.text!=\"\"&&frmJoMoPay.txtFieldAmount.text!==\"0\"&&frmJoMoPay.txtPhoneNo.text!=null&&frmJoMoPay.txtPhoneNo.text!=\"\")\n  {\n    frmJoMoPay.btnNext.skin=\"jomopaynextEnabled\";\n    frmJoMoPay.btnNext.focusSkin=\"jomopaynextEnabled\";\n  }\nelse\n  {\n    frmJoMoPay.btnNext.skin=\"jomopaynextDisabled\";\n    frmJoMoPay.btnNext.focusSkin=\"jomopaynextDisabled\";\n  }",
            "callbackType": null
        }]
    }
}