{
    "AS_TextField_e4105892ad5149deba2a6d7b9a135926": {
        "id": "AS_TextField_e4105892ad5149deba2a6d7b9a135926",
        "type": "ACTION_SEQUENCE",
        "params": [{
            "datatype": "collection",
            "name": "eventobject"
        }, {
            "datatype": "string",
            "name": "changedtext"
        }],
        "language": "js",
        "actions": [{
            "id": "ADD_SNIPPET_ide_onEndEditing_d87ac0986484446b93eef2513eda640a",
            "type": "ADD_SNIPPET",
            "codeSnippet": "animateLabel(\"DOWN\",\"lblAddressMail\",frmRequestStatementAccounts.txtAddressMail.text);",
            "callbackType": null
        }]
    }
}