{
    "AS_TextField_e4be5b1149714d6f988cbab786ec3316": {
        "id": "AS_TextField_e4be5b1149714d6f988cbab786ec3316",
        "type": "ACTION_SEQUENCE",
        "params": [{
            "datatype": "collection",
            "name": "eventobject"
        }, {
            "datatype": "string",
            "name": "changedtext"
        }],
        "contextObj": {
            "name": "frmLanguageChange",
            "type": "forms",
            "platform": "",
            "KUID": "gf87c4f80b864112b53423e6a7ad3af8"
        },
        "language": "js",
        "actions": [{
            "id": "ADD_SNIPPET_ide_onEndEditing_dfab14801b984060b79fdfb46bbbc03a",
            "type": "ADD_SNIPPET",
            "codeSnippet": "if(frmLanguageChange.v.text!==null&&frmLanguageChange.tbxusernameTextField.text!==\"\")\n{\n  frmLanguageChange.borderBottom.skin=\"skntextFieldDividerGreen\";\n}\nelse\n  {\n    frmLanguageChange.borderBottom.skin=\"skntextFieldDivider\";\n  }\nanimateLabel(\"DOWN\",\"lblUserName\",frmLanguageChange.tbxusernameTextField.text);\nanimateLabel(\"UP\",\"lblPassword\",frmLanguageChange.passwordTextField.text);",
            "callbackType": null
        }]
    }
}