{
    "AS_TextField_f7622948d8544ff9b1c52f4693e5c646": {
        "id": "AS_TextField_f7622948d8544ff9b1c52f4693e5c646",
        "type": "ACTION_SEQUENCE",
        "name": "AS_TextField_OnDoneAmountAliasTextEPSScreen",
        "params": [{
            "datatype": "collection",
            "name": "eventobject"
        }, {
            "datatype": "string",
            "name": "changedtext"
        }],
        "language": "js",
        "actions": [{
            "id": "ADD_SNIPPET_ide_onDone_ec9f396e41ce4de397677255bc75dc74",
            "type": "ADD_SNIPPET",
            "codeSnippet": "validateLblNext();",
            "callbackType": null
        }]
    }
}