{
    "AS_TextField_b9f01ff3820d4c44abba1f5095592e34": {
        "id": "AS_TextField_b9f01ff3820d4c44abba1f5095592e34",
        "type": "ACTION_SEQUENCE",
        "params": [{
            "datatype": "collection",
            "name": "eventobject"
        }, {
            "datatype": "string",
            "name": "changedtext"
        }],
        "language": "js",
        "actions": [{
            "id": "ADD_SNIPPET_ide_onDone_b5bb9910407545e584d916c19252644a",
            "type": "ADD_SNIPPET",
            "codeSnippet": "if(kony.boj.addBeneVar.selectedType === \"BOJ\")\n  kony.boj.addBeneficiaryAnimation(\"lblAccountNumber\");\nelse\n  kony.boj.addBeneficiaryAnimation(\"lblAddressBene\");",
            "callbackType": null
        }]
    }
}