{
    "AS_TextField_5c66d105551e418094afd5b69fcf5784": {
        "id": "AS_TextField_5c66d105551e418094afd5b69fcf5784",
        "type": "ACTION_SEQUENCE",
        "params": [{
            "datatype": "collection",
            "name": "eventobject"
        }, {
            "datatype": "string",
            "name": "changedtext"
        }],
        "language": "js",
        "actions": [{
            "id": "ADD_SNIPPET_ide_onTextChange_6326138f48ce4f71957d9448f59c84ed",
            "type": "ADD_SNIPPET",
            "codeSnippet": "kony.print(\"Deleted\");",
            "callbackType": null
        }]
    }
}