{
    "AS_TextField_aae984473edd4eca9ea97a13516c1bd4": {
        "id": "AS_TextField_aae984473edd4eca9ea97a13516c1bd4",
        "type": "ACTION_SEQUENCE",
        "params": [{
            "datatype": "collection",
            "name": "eventobject"
        }, {
            "datatype": "string",
            "name": "changedtext"
        }],
        "language": "js",
        "actions": [{
            "id": "ADD_SNIPPET_ide_onBeginEditing_f6f30df54cf64def83c23589947802c9",
            "type": "ADD_SNIPPET",
            "codeSnippet": "try{\n  animateLabel(\"UP\",\"lblEmail1\",frmUserSettingsSIRILIMIT.txtEmail1.text); \n}catch(err){\n  kony.print( \"err in pwd::\"+err);\n}",
            "callbackType": null
        }]
    }
}