{
    "AS_TextField_becbec46852b42c1b8564238ffe6bd02": {
        "id": "AS_TextField_becbec46852b42c1b8564238ffe6bd02",
        "type": "ACTION_SEQUENCE",
        "params": [{
            "datatype": "collection",
            "name": "eventobject"
        }, {
            "datatype": "string",
            "name": "changedtext"
        }],
        "language": "js",
        "actions": [{
            "id": "ADD_SNIPPET_ide_onDone_dc1676a6ccc44d5cb2c5eea42b76bd4b",
            "type": "ADD_SNIPPET",
            "codeSnippet": "animateLabel(\"DOWN\",\"lblAddressMail\",frmRequestStatementAccounts.txtAddressMail.text);",
            "callbackType": null
        }]
    }
}