{
    "AS_Form_cf6b6d5d09544b57a668bc3773fce7a2": {
        "id": "AS_Form_cf6b6d5d09544b57a668bc3773fce7a2",
        "type": "ACTION_SEQUENCE",
        "name": "AuthorizationAlternativePreShow",
        "params": [{
            "datatype": "collection",
            "name": "eventobject"
        }],
        "contextObj": {
            "name": "frmAuthorizationAlternatives",
            "type": "forms",
            "platform": "",
            "KUID": "d410b4cb8325465eb5a9cb0f8e472aec"
        },
        "language": "js",
        "actions": [{
            "id": "ADD_SNIPPET__e47db4407f174311a77bc4bc25348a47",
            "type": "ADD_SNIPPET",
            "codeSnippet": "if(frmAuthorizationAlternatives.btnSaveQuickBal.isVisible){\nfnauthorizationAlternativePreShow(\"frmSettingsKA\");\n}else{\n  fnauthorizationAlternativePreShow(\"frmAlternative\");\n}\nfrmAuthorizationAlternatives.flxAccounts.accessibilityConfig = {\n\t\n\t\t\"a11yValue\": geti18Value(\"i18n.login.next\"),\n\t\t\"a11yLabel\": \"\",\n\t\t\"a11yHint\": \"\"\n\t\t};\nfrmAuthorizationAlternatives.flxSwitchOffTouchLogin.accessibilityConfig = {\n\t\n\t\t\"a11yValue\": geti18Value(\"i18n.common.touchIDEnable\"),\n\t\t\"a11yLabel\": \"\",\n\t\t\"a11yHint\": \"\"\n\t\t};\nfrmAuthorizationAlternatives.flxSwitchOnTouchLogin.accessibilityConfig = {\n\t\n\t\t\"a11yValue\": geti18Value(\"i18n.common.touchIDUnable\"),\n\t\t\"a11yLabel\": \"\",\n\t\t\"a11yHint\": \"\"\n\t\t};",
            "parentId": null,
            "callbackType": null,
            "disabled": false
        }]
    }
}