{
    "AS_FlexContainer_d6391a3265a44b8588c478bb1d3d842a": {
        "id": "AS_FlexContainer_d6391a3265a44b8588c478bb1d3d842a",
        "type": "ACTION_SEQUENCE",
        "name": "backOnReasonsList",
        "params": [{
            "datatype": "collection",
            "name": "eventobject"
        }],
        "contextObj": {
            "name": "frmReasonsListScreen",
            "type": "forms",
            "platform": null,
            "KUID": "a632c7af93a742b199502020ddeb0a01"
        },
        "language": "js",
        "actions": [{
            "id": "ADD_SNIPPET__cbcf63c3db85466292756de1fa214d20",
            "type": "ADD_SNIPPET",
            "codeSnippet": "backFromReasonsList();",
            "parentId": null,
            "callbackType": null
        }]
    }
}