{
    "AS_FlexContainer_e39b25b037dc42eda374ea8b255bf681": {
        "id": "AS_FlexContainer_e39b25b037dc42eda374ea8b255bf681",
        "type": "ACTION_SEQUENCE",
        "name": "backfromaccAlerts",
        "params": [{
            "datatype": "collection",
            "name": "eventobject"
        }],
        "contextObj": {
            "name": "frmAccountAlertsKA",
            "type": "forms",
            "platform": "",
            "KUID": "bbe7fc072c444a808e3b02f2d737512c"
        },
        "language": "js",
        "actions": [{
            "id": "ADD_SNIPPET__e30da4e18b1d4eecbc7d250ab4d77cd8",
            "type": "ADD_SNIPPET",
            "codeSnippet": "showAlertsForm();",
            "parentId": null,
            "callbackType": null
        }]
    }
}