{
    "AS_Button_a09ea0eef99d45bc9495aabdd528af4b": {
        "id": "AS_Button_a09ea0eef99d45bc9495aabdd528af4b",
        "type": "ACTION_SEQUENCE",
        "name": "deletePayeeConfirmation",
        "params": [{
            "datatype": "collection",
            "name": "eventobject"
        }],
        "language": "js",
        "actions": [{
            "id": "SHOW_ALERT__7fe8c28ecc414395bb9566a0d1502922",
            "type": "SHOW_ALERT",
            "alertType": "constants.ALERT_TYPE_CONFIRMATION",
            "alertTitle": "Delete Payee",
            "yesLabel": "Yes",
            "noLabel": "No",
            "alertMessage": "Do you want to delete the payee?",
            "messageType": "constant",
            "parentId": null,
            "callbackType": null,
            "alertTitlei18n": null,
            "yesLabeli18n": null,
            "noLabeli18n": null,
            "iconPosition": "constants.ALERT_ICON_POSITION_LEFT"
        }, {
            "id": "ADD_SNIPPET__7b3a90042100452ba3061cd58086767d",
            "type": "ADD_SNIPPET",
            "codeSnippet": "    var INSTANCE = kony.sdk.mvvm.KonyApplicationContext.getAppInstance();\n    var listController = INSTANCE.getFormController(\"frmEditPayeeKA\");\n    listController.performAction(\"deleteData\");",
            "parentId": "SHOW_ALERT__7fe8c28ecc414395bb9566a0d1502922",
            "callbackType": "True"
        }]
    }
}