{
    "AS_Form_d3dbaa8b103d4f1c8fa39d8192161a8a": {
        "id": "AS_Form_d3dbaa8b103d4f1c8fa39d8192161a8a",
        "type": "ACTION_SEQUENCE",
        "name": "DevBackCCn",
        "params": [{
            "datatype": "collection",
            "name": "eventobject"
        }],
        "contextObj": {
            "name": "frmCreditCardNumber",
            "type": "forms",
            "platform": "",
            "KUID": "a036edc0edf6449ebfdbd2bf3d6667cd"
        },
        "language": "js",
        "actions": [{
            "id": "ADD_SNIPPET__eb7f79d53bea4a40b4e119a60b3e5f18",
            "type": "ADD_SNIPPET",
            "codeSnippet": "if(gblRequestStatementCrediCards){\n  frmRequestStatementAccounts.show();\n}else{\nif(kony.newCARD.applyCardsOption === true){\n\tfrmApplyNewCardsKA.show();\n}else{\nfrmCreditCardPayment.show();\n}\n}",
            "parentId": null,
            "callbackType": null
        }]
    }
}