{
    "AS_Form_ba917091d83c4e1dacaa94b4d38037f6": {
        "id": "AS_Form_ba917091d83c4e1dacaa94b4d38037f6",
        "type": "ACTION_SEQUENCE",
        "name": "DevBackFilterSi",
        "params": [{
            "datatype": "collection",
            "name": "eventobject"
        }],
        "contextObj": {
            "name": "frmFilterSI",
            "type": "forms",
            "platform": "",
            "KUID": "ic4b1b46f1f740f3aa18d23b3648b743"
        },
        "language": "js",
        "actions": [{
            "id": "ADD_SNIPPET__c28511a35d5c40548a08385b88554752",
            "type": "ADD_SNIPPET",
            "codeSnippet": "frmStandingInstructions.show();",
            "parentId": null,
            "callbackType": null
        }]
    }
}