{
    "AS_Button_e71f09233b624895b90d0a671fab2e61": {
        "id": "AS_Button_e71f09233b624895b90d0a671fab2e61",
        "type": "ACTION_SEQUENCE",
        "name": "dropDownJomoPayType",
        "params": [{
            "datatype": "collection",
            "name": "eventobject"
        }],
        "contextObj": {
            "name": "frmJoMoPay",
            "type": "forms",
            "platform": "",
            "KUID": "d41a38dfc97d4e0a8f3b1db96d6a1ca0"
        },
        "language": "js",
        "actions": [{
            "id": "ADD_SNIPPET__e6f96d37779f4466970f6c0ad5c48d88",
            "type": "ADD_SNIPPET",
            "codeSnippet": "var flag = \"jmp\";\nkony.boj.jomopaytype(flag);\n//frmJoMoPay.flxPopupOuter.setVisibility(true);",
            "parentId": null,
            "callbackType": null
        }]
    }
}