{
    "AS_TextField_e59acce6858d4d25892c636c96ef4cd4": {
        "id": "AS_TextField_e59acce6858d4d25892c636c96ef4cd4",
        "type": "ACTION_SEQUENCE",
        "name": "endEdtingofpwdIos",
        "params": [{
            "datatype": "collection",
            "name": "eventobject"
        }, {
            "datatype": "string",
            "name": "changedtext"
        }],
        "contextObj": {
            "name": "frmLoginKA",
            "type": "forms",
            "platform": "",
            "KUID": "7b1aa8fceb6b4070833e9eab879b0e5e"
        },
        "language": "js",
        "actions": [{
            "id": "ADD_SNIPPET__ef51890186c8462e85d1e582ce395eb0",
            "type": "ADD_SNIPPET",
            "codeSnippet": "try{\n  if(frmLoginKA.passwordTextField.text!==null&&frmLoginKA.passwordTextField.text!==\"\")\n  {\n    frmLoginKA.flxbdrpwd.skin=\"skntextFieldDividerGreen\";\n  }\n  else\n  {\n    frmLoginKA.flxbdrpwd.skin=\"skntextFieldDivider\";\n  }\n  animateLabel(\"DOWN\",\"lblPassword\",frmLoginKA.passwordTextField.text);\n}catch(err){\n  kony.print( \"err in pwd::\"+err);\n}",
            "parentId": null
        }]
    }
}