{
    "AS_Form_f84e23ff31774fe1a63b997c7d7112e4": {
        "id": "AS_Form_f84e23ff31774fe1a63b997c7d7112e4",
        "type": "ACTION_SEQUENCE",
        "name": "frmacntstatementdetailsKAdeviceback",
        "params": [{
            "datatype": "collection",
            "name": "eventobject"
        }],
        "contextObj": {
            "type": "forms",
            "platform": "",
            "KUID": "d066038f86554fd3807d8730ae9a9b23"
        },
        "language": "js",
        "actions": [{
            "id": "ADD_SNIPPET__8f9ce26426ae433c908852aa58cfb42b",
            "type": "ADD_SNIPPET",
            "codeSnippet": "kony.print(\"Device back\");",
            "parentId": null,
            "callbackType": null
        }]
    }
}