{
    "AS_Form_300d1f2a2937428591ba5639b482f2dd": {
        "id": "AS_Form_300d1f2a2937428591ba5639b482f2dd",
        "type": "ACTION_SEQUENCE",
        "name": "frmAccountInfoEditdeviceBack",
        "params": [{
            "datatype": "collection",
            "name": "eventobject"
        }],
        "contextObj": {
            "type": "forms",
            "platform": "",
            "KUID": "d632c1724f9840698e446fcf7c83b2ca"
        },
        "language": "js",
        "actions": [{
            "id": "ADD_SNIPPET__5aee2ff011244232929d98e8414a2275",
            "type": "ADD_SNIPPET",
            "codeSnippet": "kony.print(\"device back\");",
            "parentId": null,
            "callbackType": null
        }]
    }
}