{
    "AS_Form_f73604e1824b44dbab530d4b72db6950": {
        "id": "AS_Form_f73604e1824b44dbab530d4b72db6950",
        "type": "ACTION_SEQUENCE",
        "name": "frmDeviceRegistrationOptionsKApreshow",
        "params": [{
            "datatype": "collection",
            "name": "eventobject"
        }],
        "contextObj": {
            "name": "frmDeviceRegistrationOptionsKA",
            "type": "forms",
            "platform": "",
            "KUID": "24f3bbc2ed074c75a9b6604d9e48a90c"
        },
        "language": "js",
        "actions": [{
            "id": "ADD_SNIPPET__f975b13ee5ca453faf93fc7f29109e12",
            "type": "ADD_SNIPPET",
            "codeSnippet": "diffFlowFlag = \"LOGINFLOW\";\nshow_DEVICEREGISTRATIONOPTIONCONTENT();\nfrmDeviceRegistrationOptionsKA.enableTouchID.accessibilityConfig = {\n\t\n\t\t\"a11yValue\": geti18Value(\"i18n.login.cRegisterDevice\"),\n\t\t\"a11yLabel\": \"\",\n\t\t\"a11yHint\": \"\"\n\t\t}\nfrmDeviceRegistrationOptionsKA.noThanks.accessibilityConfig = {\n\t\n\t\t\"a11yValue\": geti18Value(\"i18n.common.noThanks\"),\n\t\t\"a11yLabel\": \"\",\n\t\t\"a11yHint\": \"\"\n\t\t}\n",
            "parentId": null,
            "callbackType": null
        }]
    }
}