{
    "AS_Form_c178a8a53fd64652a31293d1a9547e45": {
        "id": "AS_Form_c178a8a53fd64652a31293d1a9547e45",
        "type": "ACTION_SEQUENCE",
        "name": "frmInformationKA_preShow",
        "params": [{
            "datatype": "collection",
            "name": "eventobject"
        }],
        "contextObj": {
            "name": "frmInformationKA",
            "type": "forms",
            "platform": "",
            "KUID": "f18169832ba24ba09c8780278abfc207"
        },
        "language": "js",
        "actions": [{
            "id": "ADD_SNIPPET__a75e37630a7d46419eea802cc8477c99",
            "type": "ADD_SNIPPET",
            "codeSnippet": "frmInformationKA.flcContentSivaram.showFadingEdges = false;\nfrmInformationKA.flxNewsSivaram.showFadingEdges = false;\nfrmInformationKA.flxNewsAndBankInfo.showFadingEdges = false;\nfrmInformationKA.flxContactUsSivaram.showFadingEdges = false;\nfrmInformationKA.mainContent.showFadingEdges = false;\nfrmInformationKA.flxFAQInfo.showFadingEdges = false;\nfrmInformationKA.flxFAQMainContent.showFadingEdges = false;\nfrmInformationKA.flxSearchInfo.showFadingEdges = false;\nfrmInformationKA.flxFAQ.showFadingEdges = false;\nfrmInformationKA.flxFAQSearch.showFadingEdges = false;\nvar currentAppVersion = appConfig.appVersion;\nfrmInformationKA.lblMobile.text = bojcontactnumber;\nfrmInformationKA.lblEmail.text = bojemailID;\nfrmInformationKA.lblVersionCode.text = \"V \" + currentAppVersion;",
            "parentId": null,
            "callbackType": null
        }]
    }
}