{
    "AS_Form_b83b869f88684d768caf00545b527b5a": {
        "id": "AS_Form_b83b869f88684d768caf00545b527b5a",
        "type": "ACTION_SEQUENCE",
        "name": "frmNewTransferKAdeviceback",
        "params": [{
            "datatype": "collection",
            "name": "eventobject"
        }],
        "contextObj": {
            "name": "frmNewTransferKA",
            "type": "forms",
            "platform": "",
            "KUID": "2ac343500306428da0ceef91a3b44d18"
        },
        "language": "js",
        "actions": [{
            "id": "ADD_SNIPPET__19644c9f313548d29444633798774f41",
            "type": "ADD_SNIPPET",
            "codeSnippet": "kony.print(\"Device Back1\");\ncustomAlertPopup(geti18Value(\"i18n.cards.Confirmation\"), \n                 geti18Value(\"i18n.transfers.eraseAllAlert\"),\n                 userResponseback, onClickNoBackTransfer, \n                 geti18Value(\"i18n.common.YES\"),\n                 geti18Value(\"i18n.common.NO\"));\n\nfunction onClickNoBackTransfer(){\n  popupCommonAlertDimiss();\n}\n\nfunction userResponseback(){\n   gblLaunchModeOBJ.lauchMode = false;\n  if(gblTModule===\"own\"){\n    frmPaymentDashboard.show();;\n  }\n  else{\n    frmShowAllBeneficiary.show();\n  }\n  removeDatafrmTransfersform();\n  makeInlineErrorsTransfersInvisible();\n  popupCommonAlertDimiss();\n  frmNewTransferKA.destroy();\n}",
            "parentId": null,
            "callbackType": null
        }]
    }
}