{
    "AS_Form_a56edfe74d9a42f6b9b94825df104b20": {
        "id": "AS_Form_a56edfe74d9a42f6b9b94825df104b20",
        "type": "ACTION_SEQUENCE",
        "name": "frmPinEntryStep1_preShow",
        "params": [{
            "datatype": "collection",
            "name": "eventobject"
        }],
        "contextObj": {
            "name": "frmPinEntryStep1",
            "type": "forms",
            "platform": "",
            "KUID": "ad1414e8a4dc485fbf6846bf2cbeaf84"
        },
        "language": "js",
        "actions": [{
            "id": "ADD_SNIPPET__8a5695675a1043f7bc24611bbe8ca608",
            "type": "ADD_SNIPPET",
            "codeSnippet": "pinEntry1PreShow();",
            "parentId": null,
            "callbackType": null
        }]
    }
}