{
    "AS_FlexContainer_d1ea91157aa4431c8c002da4b74e7280": {
        "id": "AS_FlexContainer_d1ea91157aa4431c8c002da4b74e7280",
        "type": "ACTION_SEQUENCE",
        "name": "frmUserSettingsTouchIdKASwitchOffClick",
        "params": [{
            "datatype": "collection",
            "name": "eventobject"
        }],
        "language": "js",
        "actions": [{
            "id": "ADD_SNIPPET_ide_onClick_cd03398c4dfd4110987c1ea100d00b1c",
            "type": "ADD_SNIPPET",
            "codeSnippet": "showTouchEnableFlex();"
        }]
    }
}