{
    "AS_Form_fbe6842601814da9b8b3619742765083": {
        "id": "AS_Form_fbe6842601814da9b8b3619742765083",
        "type": "ACTION_SEQUENCE",
        "name": "frmUserSettingsPinLoginBack",
        "params": [{
            "datatype": "collection",
            "name": "eventobject"
        }],
        "contextObj": {
            "name": "frmUserSettingsPinLoginKA",
            "type": "forms",
            "platform": null,
            "KUID": "d6efcea46d734da8bf7a8f21578e100d"
        },
        "language": "js",
        "actions": [{
            "id": "ADD_SNIPPET_ide_onDeviceBack_c09f60afdd9f469cb5b8a8712fc7894a",
            "type": "ADD_SNIPPET",
            "codeSnippet": "var preForm = kony.application.getPreviousForm().id;\nkony.print(\"frmUserSettingspinLoginKA preForm : \"+ preForm);\nif(preForm == \"frmAuthorizationAlternatives\"){\n  frmAuthorizationAlternatives.show();\n}else{\nfrmSettingsKA.show();\n}",
            "callbackType": null
        }]
    }
}