{
    "AS_FlexContainer_a5e271f14bcc439e9a72cde792ebd091": {
        "id": "AS_FlexContainer_a5e271f14bcc439e9a72cde792ebd091",
        "type": "ACTION_SEQUENCE",
        "name": "IPSReturnPayment_BAck_onClick",
        "params": [{
            "datatype": "collection",
            "name": "eventobject"
        }],
        "language": "js",
        "actions": [{
            "id": "ADD_SNIPPET_ide_onClick_f97fa53a5c8647e083bb39324120360e",
            "type": "ADD_SNIPPET",
            "codeSnippet": "//Mai 11/12/2020\n//   removeDatafrmTransfersformEPS();\ncustomAlertPopup(geti18Value(\"i18n.cards.Confirmation\"), \n                 geti18Value(\"i18n.transfers.eraseAllAlert\"),\n                 userResponseIPSReturn, onClickNoBackIPSReturn, \n                 geti18Value(\"i18n.common.YES\"),\n                 geti18Value(\"i18n.common.NO\"));\n\nfunction userResponseIPSReturn(){\n  frmIPSRequests.lblNextRP.skin=\"CopysknLblNextDisabled\";\n  ResetFormIPSData();\n  popupCommonAlertDimiss();\n  //frmPaymentDashboard.show();\n  frmIPSRequests.show();\n  gblTModule = \"\";\n  frmIPSRequests.flxReturnPayment.setVisibility(false);\n  frmIPSRequests.flxRequestToPay.setVisibility(false);\n  frmIPSRequests.flxConfirmEPS.setVisibility(false);\n  frmIPSRequests.flxPaymentHistory.setVisibility(true);\n    frmIPSRequests.skin = \"CopyslFormCommon0aaa3928efb3d48\";\n\n}\nfunction onClickNoBackIPSReturn(){\n  popupCommonAlertDimiss();\n}",
            "callbackType": null
        }]
    }
}