{
    "AS_TextField_ffca27a708f546d6b9220914d2fea901": {
        "id": "AS_TextField_ffca27a708f546d6b9220914d2fea901",
        "type": "ACTION_SEQUENCE",
        "name": "onBeginEditingAliasJoMoPayRegistrationAndroid",
        "params": [{
            "datatype": "collection",
            "name": "eventobject"
        }, {
            "datatype": "string",
            "name": "changedtext"
        }],
        "language": "js",
        "actions": [{
            "id": "ADD_SNIPPET_ide_onBeginEditing_b97e144d44024dd1a37705e95caec3fa",
            "type": "ADD_SNIPPET",
            "codeSnippet": "frmJoMoPayRegistration.CopyflxBorderjomopayID0b6963ff7a40e46.skin=\"skntextFieldDividerBlue\";",
            "callbackType": null
        }]
    }
}