{
    "AS_TextField_j58877c71f6249b1a1f0c16e115fbaca": {
        "id": "AS_TextField_j58877c71f6249b1a1f0c16e115fbaca",
        "type": "ACTION_SEQUENCE",
        "name": "onBEAndroidJIDRegJP",
        "params": [{
            "datatype": "collection",
            "name": "eventobject"
        }, {
            "datatype": "string",
            "name": "changedtext"
        }],
        "language": "js",
        "actions": [{
            "id": "ADD_SNIPPET_ide_onBeginEditing_a46ca94956b04cf7bbf5ffcf3690ef0e",
            "type": "ADD_SNIPPET",
            "codeSnippet": "frmJoMoPayRegistration.flxBorderjomopayID.skin=\"skntextFieldDividerBlue\";",
            "callbackType": null
        }]
    }
}