{
    "AS_TextField_e0eece500e49410ca656cf027d2e8a73": {
        "id": "AS_TextField_e0eece500e49410ca656cf027d2e8a73",
        "type": "ACTION_SEQUENCE",
        "name": "onBeginEditingAliasJoMoPayRegistrationiPhone",
        "params": [{
            "datatype": "collection",
            "name": "eventobject"
        }, {
            "datatype": "string",
            "name": "changedtext"
        }],
        "language": "js",
        "actions": [{
            "id": "ADD_SNIPPET_ide_onBeginEditing_c58eceac4fce4dc1b6267f688e2b63d3",
            "type": "ADD_SNIPPET",
            "codeSnippet": "frmJoMoPayRegistration.CopyflxBorderjomopayID0b6963ff7a40e46.skin=\"skntextFieldDividerBlue\";",
            "callbackType": null
        }]
    }
}