{
    "AS_Button_fc9a052b4171486e92240db2f2cbe8d6": {
        "id": "AS_Button_fc9a052b4171486e92240db2f2cbe8d6",
        "type": "ACTION_SEQUENCE",
        "name": "onclickLoansDeals",
        "params": [{
            "datatype": "collection",
            "name": "eventobject"
        }],
        "contextObj": {
            "name": "frmAccountsLandingKA",
            "type": "forms",
            "platform": "",
            "KUID": "d62a2a0906c64d2281addc95893a6544"
        },
        "language": "js",
        "actions": [{
            "id": "ADD_SNIPPET__gc2e45a62d164ed388e7d1caaf32a06a",
            "type": "ADD_SNIPPET",
            "codeSnippet": "frmAccountsLandingKA.btnNewAccount.setVisibility(false);//hide open sub account\nif(frmAccountsLandingKA.segAccountsKALoans.data !== null && frmAccountsLandingKA.segAccountsKALoans.data.length === 1){\n         LoanOnetimeCall();        \n      }else{\n        loansAnimation();\n      }",
            "parentId": null,
            "callbackType": null
        }]
    }
}