{
    "AS_Button_e502a7ef8828435bbd0e4ff2e45d03b8": {
        "id": "AS_Button_e502a7ef8828435bbd0e4ff2e45d03b8",
        "type": "ACTION_SEQUENCE",
        "name": "onClickTransferCategoryNewTransfer",
        "params": [{
            "datatype": "collection",
            "name": "eventobject"
        }],
        "contextObj": {
            "name": "frmNewTransferKA",
            "type": "forms",
            "platform": "",
            "KUID": "2ac343500306428da0ceef91a3b44d18"
        },
        "language": "js",
        "actions": [{
            "id": "ADD_SNIPPET__f23921823ffc48b2887bd18d86b2adad",
            "type": "ADD_SNIPPET",
            "codeSnippet": "purposeList(\"\");",
            "parentId": null,
            "callbackType": null
        }]
    }
}