{
    "AS_Button_a26f82ea3a26403bafd64cfd8229ee6b": {
        "id": "AS_Button_a26f82ea3a26403bafd64cfd8229ee6b",
        "type": "ACTION_SEQUENCE",
        "name": "onclickofhistory",
        "params": [{
            "datatype": "collection",
            "name": "eventobject"
        }],
        "contextObj": {
            "name": "frmPaymentDashboard",
            "type": "forms",
            "platform": "",
            "KUID": "j5584f57cd764e66adb4087c6fc15f67"
        },
        "language": "js",
        "actions": [{
            "id": "ADD_SNIPPET__f2824f3225a442218472925b1afc07ca",
            "type": "ADD_SNIPPET",
            "codeSnippet": "frmCreditCardPayment.show();",
            "parentId": null,
            "callbackType": null
        }]
    }
}