{
    "AS_FlexContainer_e842dbce171445b2b3eed7ab8cf42267": {
        "id": "AS_FlexContainer_e842dbce171445b2b3eed7ab8cf42267",
        "type": "ACTION_SEQUENCE",
        "name": "onClickServiceTypeQuickPay",
        "params": [{
            "datatype": "collection",
            "name": "eventobject"
        }],
        "contextObj": {
            "name": "frmNewBillKA",
            "type": "forms",
            "platform": "",
            "KUID": "94b57de480514c9f98e1f6979b71a37b"
        },
        "language": "js",
        "actions": [{
            "id": "ADD_SNIPPET__g01ad99007ab4a008b07d94eeb82f214",
            "type": "ADD_SNIPPET",
            "codeSnippet": "/*if(gblQuickFlow != \"post\"){\n\tgblBiller = \"SerType\";\n\tfrmBillerListForm.show();\n}*/\nif(JSON.stringify(kony.boj.Biller[kony.boj.selectedBillerType].selectedBiller) == '{}'){\n  frmNewBillKA.flxUnderlineServiceType.skin = \"sknFlxOrangeLine\";\n  frmNewBillKA.flxUnderlineBillerName.skin = \"sknFlxOrangeLine\";\n  if(JSON.stringify(kony.boj.Biller[kony.boj.selectedBillerType].selectedBillerCategory) == '{}')\n    frmNewBillKA.flxUnderlineBillerCategory.skin = \"sknFlxOrangeLine\";\n}\nelse{\n  if(kony.boj.selectedBillerType === \"PostPaid\")\n    kony.boj.callService(\"GetEfwServiceType\");\n  else\n  {\n    kony.boj.callService(\"GetPPServiceType\");\n\n  }\n}",
            "parentId": null,
            "callbackType": null
        }]
    }
}