{
    "AS_Button_a001f2d9bfb44ceb9108eec7d5c31ca3": {
        "id": "AS_Button_a001f2d9bfb44ceb9108eec7d5c31ca3",
        "type": "ACTION_SEQUENCE",
        "name": "onClickIPSRequestToPay",
        "params": [{
            "datatype": "collection",
            "name": "eventobject"
        }],
        "language": "js",
        "actions": [{
            "id": "ADD_SNIPPET_ide_onClick_e85922d41fff439c929b2386352562fb",
            "type": "ADD_SNIPPET",
            "codeSnippet": "gblModule=\"CLIQRequest\";\nfrmEPS.Label0g6814cba9e7841.text=geti18Value(\"i18n.CLIQ.RequestToPay\");\nfrmEPS.show();",
            "callbackType": null
        }]
    }
}