{
    "AS_Button_jae5f50f7e734727a419bfc67a58d388": {
        "id": "AS_Button_jae5f50f7e734727a419bfc67a58d388",
        "type": "ACTION_SEQUENCE",
        "name": "onClickPostPaidfrmQuickPay",
        "params": [{
            "datatype": "collection",
            "name": "eventobject"
        }],
        "contextObj": {
            "name": "frmNewBillKA",
            "type": "forms",
            "platform": "",
            "KUID": "94b57de480514c9f98e1f6979b71a37b"
        },
        "language": "js",
        "actions": [{
            "id": "ADD_SNIPPET__c60c57e2bf6147d6a4406cb57fa5d09a",
            "type": "ADD_SNIPPET",
            "codeSnippet": "nextFromNewBillScreen();\nkony.boj.selectedBillerType = \"PostPaid\";\nrestoreBillerTabDetails();\nonClickPostPaidQuickPay();\nchangeUnderlineskin();",
            "parentId": null,
            "callbackType": null
        }]
    }
}