{
    "AS_FlexContainer_e9536625a0424c6db54e1618cbfdab1b": {
        "id": "AS_FlexContainer_e9536625a0424c6db54e1618cbfdab1b",
        "type": "ACTION_SEQUENCE",
        "name": "onClickEnableChequeClearedAlert",
        "params": [{
            "datatype": "collection",
            "name": "eventobject"
        }],
        "contextObj": {
            "name": "frmAlertsKA",
            "type": "forms",
            "platform": "",
            "KUID": "8f4fb6ef80f34f5f861f12908e1a5309"
        },
        "language": "js",
        "actions": [{
            "id": "ADD_SNIPPET__h7e5aa3e384349d0b19d453ccdb0b4e8",
            "type": "ADD_SNIPPET",
            "codeSnippet": "show_optalert(\"chequecleared\",frmAlertsKA.lblChequeClearedFlag);",
            "parentId": null
        }]
    }
}