{
    "AS_Button_e064dc4537214511bee4705c4f350d57": {
        "id": "AS_Button_e064dc4537214511bee4705c4f350d57",
        "type": "ACTION_SEQUENCE",
        "name": "onclickidtypeRegJP",
        "params": [{
            "datatype": "collection",
            "name": "eventobject"
        }],
        "contextObj": {
            "name": "frmJoMoPayRegistration",
            "type": "forms",
            "platform": null,
            "KUID": "h0b4f51069c74c7bbbbd6798301d77d6"
        },
        "language": "js",
        "actions": [{
            "id": "ADD_SNIPPET__f4a2267ac34d4e20a9422fbe88a9a452",
            "type": "ADD_SNIPPET",
            "codeSnippet": "kony.boj.Idtype();",
            "parentId": null,
            "callbackType": null
        }]
    }
}