{
    "AS_FlexContainer_h7764010e6804466b14a29571c910a9b": {
        "id": "AS_FlexContainer_h7764010e6804466b14a29571c910a9b",
        "type": "ACTION_SEQUENCE",
        "name": "onClickDeliveryBranch",
        "params": [{
            "datatype": "collection",
            "name": "eventobject"
        }, {
            "datatype": "string",
            "name": "x"
        }, {
            "datatype": "string",
            "name": "y"
        }],
        "contextObj": {
            "name": "frmCancelCardKA",
            "type": "forms",
            "platform": "",
            "KUID": "h9147b91e9434f428264b7f811fa0f0c"
        },
        "language": "js",
        "actions": [{
            "id": "ADD_SNIPPET__c0956d4e88ea487c953e5553b9eb7264",
            "type": "ADD_SNIPPET",
            "codeSnippet": "//onClickDeliveryBranch();",
            "parentId": null,
            "callbackType": null
        }]
    }
}