{
    "AS_Button_c1b74c9dfe3749998145d9ce68687a24": {
        "id": "AS_Button_c1b74c9dfe3749998145d9ce68687a24",
        "type": "ACTION_SEQUENCE",
        "name": "onClickApplyWebChargeCard",
        "params": [{
            "datatype": "collection",
            "name": "eventobject"
        }],
        "contextObj": {
            "name": "frmApplyNewCardsKA",
            "type": "forms",
            "platform": "",
            "KUID": "a05ce8d2e4404e40bfbc8dad585d28dc"
        },
        "language": "js",
        "actions": [{
            "id": "ADD_SNIPPET__c03333bd10474b42a04e6c1fccfb8f38",
            "type": "ADD_SNIPPET",
            "codeSnippet": "onClick_RADIOBUTTON_APPLYNEWCARDSTYPE(frmApplyNewCardsKA.btnWebChargeCard,frmApplyNewCardsKA.lblWebChargeCardTitle,\"WebchargeCard\");",
            "parentId": null,
            "callbackType": null
        }]
    }
}