{
    "AS_FlexContainer_c376c1c740df40bcb9b9bd5514e6918c": {
        "id": "AS_FlexContainer_c376c1c740df40bcb9b9bd5514e6918c",
        "type": "ACTION_SEQUENCE",
        "name": "onClickSwitchOffTouchLogin",
        "params": [{
            "datatype": "collection",
            "name": "eventobject"
        }],
        "language": "js",
        "actions": [{
            "id": "ADD_SNIPPET_ide_onClick_abf64712562c453d884173c3d99de05e",
            "type": "ADD_SNIPPET",
            "codeSnippet": "//frmsetPinSwitchOff();\n frmPinEntryStep1.show();\nkony.print(\"THis is \");"
        }]
    }
}