{
    "AS_Button_b69d381620454245959a43e0016ea246": {
        "id": "AS_Button_b69d381620454245959a43e0016ea246",
        "type": "ACTION_SEQUENCE",
        "name": "onclickconfirmRegJP",
        "params": [{
            "datatype": "collection",
            "name": "eventobject"
        }],
        "contextObj": {
            "name": "frmJoMoPayRegistration",
            "type": "forms",
            "platform": null,
            "KUID": "h0b4f51069c74c7bbbbd6798301d77d6"
        },
        "language": "js",
        "actions": [{
            "id": "ADD_SNIPPET__b63c68d6d49d4431b3d514bf45871a40",
            "type": "ADD_SNIPPET",
            "codeSnippet": "confirmjomopayreg();",
            "parentId": null,
            "callbackType": null
        }]
    }
}