{
    "AS_Button_acbaabc80eae4ba9a13c874d1d49ed9e": {
        "id": "AS_Button_acbaabc80eae4ba9a13c874d1d49ed9e",
        "type": "ACTION_SEQUENCE",
        "name": "onClickBackIOSDeviceRegistraion",
        "params": [{
            "datatype": "collection",
            "name": "eventobject"
        }],
        "contextObj": {
            "name": "frmDeviceRegistration",
            "type": "forms",
            "platform": "",
            "KUID": "d3f5bb6d97f641aa9040a4a3bbbb5f11"
        },
        "language": "js",
        "actions": [{
            "id": "ADD_SNIPPET__gfdf1be707f34227b482858940cb7cec",
            "type": "ADD_SNIPPET",
            "codeSnippet": "frmSettingsKA.show();",
            "parentId": null,
            "callbackType": null
        }]
    }
}