{
    "AS_FlexContainer_j237f1abd6494c2ca284693a683c55d4": {
        "id": "AS_FlexContainer_j237f1abd6494c2ca284693a683c55d4",
        "type": "ACTION_SEQUENCE",
        "name": "onClickAlertHistorySettings",
        "params": [{
            "datatype": "collection",
            "name": "eventobject"
        }],
        "contextObj": {
            "name": "frmSettingsKA",
            "type": "forms",
            "platform": "",
            "KUID": "hb0fb66c0c224ed284a1334d78669bfa"
        },
        "language": "js",
        "actions": [{
            "id": "ADD_SNIPPET__gb59359c5ea248d3a9475cfc7e6433c9",
            "type": "ADD_SNIPPET",
            "codeSnippet": "//frmAlertHistory.show();\ngetAlertsHistoryList();",
            "parentId": null,
            "callbackType": null
        }]
    }
}