{
    "AS_RichText_bdaab2e8395944479944d9dace61806b": {
        "id": "AS_RichText_bdaab2e8395944479944d9dace61806b",
        "type": "ACTION_SEQUENCE",
        "name": "onClickTermsandConditionsNewSubAccounts",
        "params": [{
            "datatype": "collection",
            "name": "eventobject"
        }, {
            "datatype": "string",
            "name": "linktext"
        }, {
            "datatype": "string",
            "name": "attributes"
        }],
        "contextObj": {
            "name": "frmNewSubAccountConfirm",
            "type": "forms",
            "platform": "",
            "KUID": "had87411f0e7475b88178a427b6e7299"
        },
        "language": "js",
        "actions": [{
            "id": "ADD_SNIPPET__fdc88c0f90bd4e13be0fb2f803d3b377",
            "type": "ADD_SNIPPET",
            "codeSnippet": "navigate_TERMSANDCONDITIONS_INTERNAL(kony.application.getCurrentForm(),geti18Value(\"i18n.account.subCheck1\"));",
            "parentId": null,
            "callbackType": null
        }]
    }
}