{
    "AS_Button_c1ae6da33af24b71b610f614e42820e8": {
        "id": "AS_Button_c1ae6da33af24b71b610f614e42820e8",
        "type": "ACTION_SEQUENCE",
        "name": "onclicknothanksenroll",
        "params": [{
            "datatype": "collection",
            "name": "eventobject"
        }],
        "contextObj": {
            "type": "forms",
            "platform": null,
            "KUID": "4b4204e832a54ea3abf1cbb0a2c48717"
        },
        "language": "js",
        "actions": [{
            "id": "NAVIGATE_TO_FORM___5e09929b9b554ee88643c2d023ca5ca8",
            "type": "NAVIGATE_TO_FORM",
            "formId": "frmLoginKA",
            "formKUID": "7b1aa8fceb6b4070833e9eab879b0e5e",
            "mappings": {},
            "mappingsOrder": [],
            "parentId": "",
            "callbackType": null,
            "enableMappingEditor": true,
            "package": "",
            "navigationObj": "{\n    \"_meta_\": {\n        \"eventName\": \"\",\n        \"widgetId\": \"\"\n    }\n}",
            "isCustomInput": false
        }]
    }
}