{
    "AS_TextField_e9766bcb83ec4c5e8537e028cb5e94fe": {
        "id": "AS_TextField_e9766bcb83ec4c5e8537e028cb5e94fe",
        "type": "ACTION_SEQUENCE",
        "name": "onDoneAmntNBD",
        "params": [{
            "datatype": "collection",
            "name": "eventobject"
        }, {
            "datatype": "string",
            "name": "changedtext"
        }],
        "contextObj": {
            "name": "frmNewBillDetails",
            "type": "forms",
            "platform": "",
            "KUID": "c2132c3b91ec4677ab952b729de9fc0e"
        },
        "language": "js",
        "actions": [{
            "id": "ADD_SNIPPET__ff8e48d71ce04f29a40e27c50624c998",
            "type": "ADD_SNIPPET",
            "codeSnippet": "var amount = frmNewBillDetails.tbxAmount.text;\nfrmNewBillDetails.lblHiddenAmount.text =  frmNewBillDetails.tbxAmount.text;\nif (amount === null || amount === \"\" || amount == \".\" || (Number(amount) < 0.01) || amount === 0.00) {\n}\nelse{\n  frmNewBillDetails.tbxAmount.text = restrictoThreeDecimals(frmNewBillDetails.tbxAmount.text);\n  gblQuickFlow = \"postBillAcc\";\n  serv_BILLSCOMISSIONCHARGE(frmNewBillDetails.tbxAmount.text.replace(/,/g,\"\"));\n}\n",
            "parentId": null,
            "callbackType": null
        }]
    }
}