{
    "AS_TextField_fc8cf52d3b9c45b98b76d05ddc5bbb91": {
        "id": "AS_TextField_fc8cf52d3b9c45b98b76d05ddc5bbb91",
        "type": "ACTION_SEQUENCE",
        "name": "onDoneFilterTransactionAmountMax",
        "params": [{
            "datatype": "collection",
            "name": "eventobject"
        }, {
            "datatype": "string",
            "name": "changedtext"
        }],
        "contextObj": {
            "name": "frmFilterTransaction",
            "type": "forms",
            "platform": "",
            "KUID": "ff5ea79e22414b03ba4cca716d18a58c"
        },
        "language": "js",
        "actions": [{
            "id": "ADD_SNIPPET__d1db23b1e5aa41ef92b6fc7d0e543bc3",
            "type": "ADD_SNIPPET",
            "codeSnippet": "check_AmountDecimal(frmFilterTransaction.txtAmountRangeTo,frmFilterTransaction.lblCurrency.text,frmFilterTransaction.flxAmountMaxLine);",
            "parentId": null,
            "callbackType": null
        }]
    }
}