{
    "AS_Button_3545532619f94109828c67c8898d703c": {
        "id": "AS_Button_3545532619f94109828c67c8898d703c",
        "type": "ACTION_SEQUENCE",
        "name": "onPinSet",
        "params": [{
            "datatype": "collection",
            "name": "eventobject"
        }],
        "contextObj": {
            "name": "frmSetUpPinSettings",
            "type": "forms",
            "platform": null,
            "KUID": "6ebea87c8b5546a49f1f308f1cf84489"
        },
        "language": "js",
        "actions": [{
            "id": "ADD_SNIPPET__c4c529c63a3b420d9d31c3bc6655f64c",
            "type": "ADD_SNIPPET",
            "codeSnippet": "kony.print(\"removed\");",
            "parentId": null,
            "callbackType": null
        }]
    }
}