{
    "AS_Form_g251867b754b4bf98b08dfb16c1291f5": {
        "id": "AS_Form_g251867b754b4bf98b08dfb16c1291f5",
        "type": "ACTION_SEQUENCE",
        "name": "onPreshowfrmUnauthFacialResult",
        "params": [{
            "datatype": "collection",
            "name": "eventobject"
        }],
        "contextObj": {
            "type": "forms",
            "platform": "",
            "KUID": "dc40cdecfb07451c9c0d7c4fde59b453"
        },
        "language": "js",
        "actions": [{
            "id": "ADD_SNIPPET__b7090c94bb824aa59faed18b50487241",
            "type": "ADD_SNIPPET",
            "codeSnippet": "kony.print(\"Removed\");",
            "parentId": null,
            "callbackType": null
        }]
    }
}