{
    "AS_Segment_a42914fbf38b4218a2cc87e861aba52e": {
        "id": "AS_Segment_a42914fbf38b4218a2cc87e861aba52e",
        "type": "ACTION_SEQUENCE",
        "name": "onRowClickFrmDefaultLoginMethod",
        "params": [{
            "datatype": "collection",
            "name": "eventobject"
        }, {
            "datatype": "number",
            "name": "sectionNumber"
        }, {
            "datatype": "number",
            "name": "rowNumber"
        }],
        "contextObj": {
            "name": "frmDefaultLoginMethodKA",
            "type": "forms",
            "platform": "",
            "KUID": "e739ce9a81be420593090d683fadc9e7"
        },
        "language": "js",
        "actions": [{
            "id": "ADD_SNIPPET__cedb79557ac542abb2ad946be0dd599d",
            "type": "ADD_SNIPPET",
            "codeSnippet": "///onSelectDefaultLogin(frmDefaultLoginMethodKA);\nkony.print(\"Removed\");",
            "parentId": null,
            "callbackType": null
        }]
    }
}