{
    "AS_ListBox_a84637181ee847d18d9d9716e125161c": {
        "id": "AS_ListBox_a84637181ee847d18d9d9716e125161c",
        "type": "ACTION_SEQUENCE",
        "name": "onselectioncard",
        "params": [{
            "datatype": "collection",
            "name": "eventobject"
        }],
        "contextObj": {
            "name": "frmCreditCardPayment",
            "type": "forms",
            "platform": "",
            "KUID": "ifc6e17e00ef473bb51f2718c349cfba"
        },
        "language": "js",
        "actions": [{
            "id": "ADD_SNIPPET__c293624a483e4e40bdb4185f964826ee",
            "type": "ADD_SNIPPET",
            "codeSnippet": "// alert(\"TextFieldAmont Data: \"+frmCreditCardPayment.txtFieldAmount.text);\n// alert(\"Textof Other Card: \"+frmCreditCardPayment.txtBoxOtherCard.text);\nif(frmCreditCardPayment.txtFieldAmount.text!==null &&frmCreditCardPayment.txtFieldAmount.text!==\"\" && frmCreditCardPayment.txtBoxOtherCard.text!==\"\")\n  {\n    frmCreditCardPayment.btnNext.skin=\"jomopaynextEnabled\";\n    frmCreditCardPayment.btnNext.focusSkin=\"jomopaynextEnabled\";\n  }\nelse\n  {\n     frmCreditCardPayment.btnNext.skin=\"jomopaynextDisabled\";\n    frmCreditCardPayment.btnNext.focusSkin=\"jomopaynextDisabled\";\n  }",
            "parentId": null,
            "callbackType": null
        }]
    }
}