{
    "AS_ListBox_af8ea77150e54c6088563ea19b34efc7": {
        "id": "AS_ListBox_af8ea77150e54c6088563ea19b34efc7",
        "type": "ACTION_SEQUENCE",
        "name": "onSelcetionReasonToCancel",
        "params": [{
            "datatype": "collection",
            "name": "eventobject"
        }],
        "contextObj": {
            "name": "frmCancelCardKA",
            "type": "forms",
            "platform": "",
            "KUID": "h9147b91e9434f428264b7f811fa0f0c"
        },
        "language": "js",
        "actions": [{
            "id": "ADD_SNIPPET__gdce515f0f354a1da7ad61c91cbbe223",
            "type": "ADD_SNIPPET",
            "codeSnippet": "frmCancelCardKA.lblReason.text = frmCancelCardKA.lstCardReason.selectedKey[0];",
            "parentId": null,
            "callbackType": null
        }]
    }
}