{
    "AS_TextField_ba3c0072c98548999d04c32196197606": {
        "id": "AS_TextField_ba3c0072c98548999d04c32196197606",
        "type": "ACTION_SEQUENCE",
        "name": "OntbxAmountouchstart",
        "params": [{
            "datatype": "collection",
            "name": "eventobject"
        }, {
            "datatype": "string",
            "name": "x"
        }, {
            "datatype": "string",
            "name": "y"
        }],
        "contextObj": {
            "name": "frmNewTransferKA",
            "type": "forms",
            "platform": "",
            "KUID": "2ac343500306428da0ceef91a3b44d18"
        },
        "language": "js",
        "actions": [{
            "id": "ADD_SNIPPET__h405a2df5886401b815de1e28067801b",
            "type": "ADD_SNIPPET",
            "codeSnippet": "var x = getNumberfromcommma(frmNewTransferKA.txtBox.text);\nfrmNewTransferKA.txtBox.text=x;",
            "parentId": null,
            "callbackType": null
        }]
    }
}