{
    "AS_TextField_a125f69b88174470a998be56345fd45a": {
        "id": "AS_TextField_a125f69b88174470a998be56345fd45a",
        "type": "ACTION_SEQUENCE",
        "name": "onTextChangeJomoPaySearch",
        "params": [{
            "datatype": "collection",
            "name": "eventobject"
        }, {
            "datatype": "string",
            "name": "changedtext"
        }],
        "contextObj": {
            "name": "frmJomopayContacts",
            "type": "forms",
            "platform": "",
            "KUID": "e87eb38e1ea54c6586c26f1aee3e02d4"
        },
        "language": "js",
        "actions": [{
            "id": "ADD_SNIPPET__ebe639e4deee4eb1894cd349ee8a184f",
            "type": "ADD_SNIPPET",
            "codeSnippet": "search_JOMOPAY_CONTACTS(frmJomopayContacts.txtSearch.text);",
            "parentId": null,
            "callbackType": null
        }]
    }
}