{
    "AS_Label_bbfdbe89bff844e481082a2c0de71dd2": {
        "id": "AS_Label_bbfdbe89bff844e481082a2c0de71dd2",
        "type": "ACTION_SEQUENCE",
        "name": "onTouchEndNextBulkPayment",
        "params": [{
            "datatype": "collection",
            "name": "eventobject"
        }, {
            "datatype": "string",
            "name": "x"
        }, {
            "datatype": "string",
            "name": "y"
        }],
        "contextObj": {
            "name": "frmBulkPaymentKA",
            "type": "forms",
            "platform": "",
            "KUID": "a03d9f2c684c4a609513e3446a2ec3e9"
        },
        "language": "js",
        "actions": [{
            "id": "ADD_SNIPPET__b141ff4261be4504aa36a4bcf7492a2c",
            "type": "ADD_SNIPPET",
            "codeSnippet": "if(frmBulkPaymentKA.lblNext.skin !== \"sknLblNextDisabled\"){\n\tvar amount = frmBulkPaymentKA.lblHiddenSelBillsAmt.text.replace(/,/g,\"\");\n\tif (parseFloat(amount) > 0){\n    /*frmBulkPaymentKA.tbxAmount.text = frmBulkPaymentKA.lblHiddenSelBillsAmt.text;\n    frmBulkPaymentKA.tbxAmount.setEnabled(false);\n    frmBulkPaymentKA.flxConfirmPayment.isVisible = true;\n    frmBulkPaymentKA.flxMainContainer.isVisible = false;\n    frmBulkPaymentKA.lblNextPayNow.setEnabled(true);*/\n    if(frmBulkPaymentKA.lblNext.skin !== \"sknLblNextDisabled\")\n      navigate_BULKPAYMENT_CONFIRMATON();\n    else\n      frmBulkPaymentKA.flxUnderlinePaymentModeBulk.skin = \"sknFlxOrangeLine\";\n  }\n  else\n    customAlertPopup(geti18Value(\"i18n.common.alert\"), geti18Value(\"i18n.bills.bulkPaymentPay\"),popupCommonAlertDimiss,\"\", geti18nkey(\"i18n.settings.ok\"), \"\");\n\n/*if (frmBulkPaymentKA.lblHiddenSelBillsAmt.text === '0' || frmBulkPaymentKA.lblHiddenSelBillsAmt.text === 0)\n  {\n    customAlertPopup(\"\", kony.i18n.getLocalizedString(\"i18n.bills.bulkPaymentPay\"), popupCommonAlertDimiss, \"\");\n  }*/\n\n}",
            "parentId": null
        }]
    }
}