{
    "AS_Label_je233ee9db9341e39e05354259db6866": {
        "id": "AS_Label_je233ee9db9341e39e05354259db6866",
        "type": "ACTION_SEQUENCE",
        "name": "onTouchEndTncChequeBookRequestCards",
        "params": [{
            "datatype": "collection",
            "name": "eventobject"
        }, {
            "datatype": "string",
            "name": "x"
        }, {
            "datatype": "string",
            "name": "y"
        }],
        "contextObj": {
            "type": "forms",
            "platform": "",
            "KUID": "ib2e03e5c6294f6f8a03b02f75dedd07"
        },
        "language": "js",
        "actions": [{
            "id": "ADD_SNIPPET__i2298250c8a64b1e926823fff32edb54",
            "type": "ADD_SNIPPET",
            "codeSnippet": "accept_TNC_CREDTICARD_CHEQUEBOOKREQUEST();",
            "parentId": null,
            "callbackType": null
        }]
    }
}