{
    "AS_CheckBoxGroup_e07a215a84ee49eb95b248f9bdc113d8": {
        "id": "AS_CheckBoxGroup_e07a215a84ee49eb95b248f9bdc113d8",
        "type": "ACTION_SEQUENCE",
        "name": "ontouchEndtouchIdsettings",
        "params": [{
            "datatype": "collection",
            "name": "eventobject"
        }, {
            "datatype": "string",
            "name": "x"
        }, {
            "datatype": "string",
            "name": "y"
        }],
        "language": "js",
        "actions": [{
            "id": "ADD_SNIPPET_ide_onTouchEnd_295432fbb4774abba13a0b472e3e7fbd",
            "type": "ADD_SNIPPET",
            "codeSnippet": "touchIdCheckBoxSelectTouchEnd();",
            "callbackType": null
        }]
    }
}