{
    "AS_TextField_e9c775f7d8374b8d87422d9d5f11c1cf": {
        "id": "AS_TextField_e9c775f7d8374b8d87422d9d5f11c1cf",
        "type": "ACTION_SEQUENCE",
        "name": "onTouchEndAgeApplyNewCards",
        "params": [{
            "datatype": "collection",
            "name": "eventobject"
        }, {
            "datatype": "string",
            "name": "x"
        }, {
            "datatype": "string",
            "name": "y"
        }],
        "contextObj": {
            "name": "frmApplyNewCardsKA",
            "type": "forms",
            "platform": "",
            "KUID": "a05ce8d2e4404e40bfbc8dad585d28dc"
        },
        "language": "js",
        "actions": [{
            "id": "ADD_SNIPPET__ff6dc3673ec54098b20eeaf955c1eb8a",
            "type": "ADD_SNIPPET",
            "codeSnippet": "animate_NEWCARDSOPTIOS(\"UP\",kony.newCARD.fields.Age[0],frmApplyNewCardsKA[kony.newCARD.fields.Age[1]].text);",
            "parentId": null,
            "callbackType": null
        }]
    }
}