{
    "AS_Label_f404d10e250f4b60b7f9676211bed896": {
        "id": "AS_Label_f404d10e250f4b60b7f9676211bed896",
        "type": "ACTION_SEQUENCE",
        "name": "onTouchEndPaymentHistorySort",
        "params": [{
            "datatype": "collection",
            "name": "eventobject"
        }, {
            "datatype": "string",
            "name": "x"
        }, {
            "datatype": "string",
            "name": "y"
        }],
        "contextObj": {
            "name": "frmJoMoPayLanding",
            "type": "forms",
            "platform": "",
            "KUID": "d298f6fe5af04a4dbf76c2b5625a9f8c"
        },
        "language": "js",
        "actions": [{
            "id": "ADD_SNIPPET__af9add2e48004a218f7521a22026f9d4",
            "type": "ADD_SNIPPET",
            "codeSnippet": "animatePopup_Sort();",
            "parentId": null
        }]
    }
}