{
    "AS_Label_ebf90b93b2f2410a85d5ad278e8631dc": {
        "id": "AS_Label_ebf90b93b2f2410a85d5ad278e8631dc",
        "type": "ACTION_SEQUENCE",
        "name": "onTouchEndCardStatement",
        "params": [{
            "datatype": "collection",
            "name": "eventobject"
        }, {
            "datatype": "string",
            "name": "x"
        }, {
            "datatype": "string",
            "name": "y"
        }],
        "contextObj": {
            "name": "frmCardStatementKA",
            "type": "forms",
            "platform": null,
            "KUID": "ebef3c7798e64ac49c7cc83d9df0b4f2"
        },
        "language": "js",
        "actions": [{
            "id": "ADD_SNIPPET__b336916765bd4975b71d10cc66386686",
            "type": "ADD_SNIPPET",
            "codeSnippet": "if(frmCardStatementKA.flxCardStatement.isVisible === false){\n  if(frmCardStatementKA.flxCardsSegmentOption.top === \"8%\")\n  \tanimate_cardsFilterOption();\n  frmCardStatementKA.flxCardStatement.isVisible = true;\n  frmCardStatementKA.flxCardsFilterScreen.isVisible = false;\n  frmCardStatementKA.flxFilterDone.isVisible = false;\n}else{\n\tif(frmCardStatementKA.flxAccountdetailsSortContainer.top === \"8%\")\n\t\tanimatePopup_Sort();\n\tkony.application.getPreviousForm().show();\n}",
            "parentId": null,
            "callbackType": null
        }]
    }
}