{
    "AS_FlexContainer_f9dd2a4fa0424d289d5610b6e2c54657": {
        "id": "AS_FlexContainer_f9dd2a4fa0424d289d5610b6e2c54657",
        "type": "ACTION_SEQUENCE",
        "name": "RequestToPayNextOnClick",
        "params": [{
            "datatype": "collection",
            "name": "eventobject"
        }],
        "language": "js",
        "actions": [{
            "id": "ADD_SNIPPET_ide_onClick_j8c0b8b3357343f2812b07e7bf3a89aa",
            "type": "ADD_SNIPPET",
            "codeSnippet": "if(frmIPSRequests.lblNextRP.skin === \"sknLblNextEnabled\"){\n  gblTModule==\"IPSReturn\";\n  // Mai 26/11/2020 if IPSRequest\n  kony.sdk.mvvm.KonyApplicationContext.showLoadingScreen(\"\");\n  SetupIPSRetunrConfirmationScreen();\n  //   GetAliasInfo();\n  frmEPS.flxMain.setVisibility(false);\n  // frmEPS.flxReturnPayment.setVisibility(false);\n  frmEPS.flxConfirmEPS.setVisibility(true);\n  kony.sdk.mvvm.KonyApplicationContext.dismissLoadingScreen();\n\n\n}else{\n  customAlertPopup(geti18Value(\"i18n.maps.Info\"), geti18Value(\"i18n.jomopay.fillDetails\"), popupCommonAlertDimiss, \"\");\n}",
            "callbackType": null
        }]
    }
}