{
    "AS_Button_0840d11fc87e4b0780b637668f4dd831": {
        "id": "AS_Button_0840d11fc87e4b0780b637668f4dd831",
        "type": "ACTION_SEQUENCE",
        "name": "setDefaultPageIphoneBack",
        "params": [{
            "datatype": "collection",
            "name": "eventobject"
        }],
        "contextObj": {
            "name": "frmSetDefaultPageKA",
            "type": "forms",
            "platform": "",
            "KUID": "0a1abaac7705448e8ce085a947508e2c"
        },
        "language": "js",
        "actions": []
    }
}