{
    "@class": "com.kony.gen.viz.model.component.KVizButton",
    "DNDConfig": null,
    "__parentReadjusting__": false,
    "_height_": {
        "type": "string",
        "value": "100%"
    },
    "_margin_": [
        6,
        6,
        6,
        6
    ],
    "_padding_": [
        0,
        0,
        0,
        0
    ],
    "_right_": {
        "type": "string",
        "value": "0%"
    },
    "_skin_": "sbce0cd255d64060839560beafaac506",
    "_text_": "u",
    "_top_": {
        "type": "string",
        "value": "0%"
    },
    "_width_": {
        "type": "string",
        "value": "20%"
    },
    "canUpdateUI": true,
    "containerweight": 100,
    "contentalignment": 5,
    "disabledSkins": {},
    "displaytext": true,
    "focusskin": "sbce0cd255d64060839560beafaac506",
    "id": "btnAdd",
    "info": null,
    "iscustomlayout": true,
    "isvisible": false,
    "kuid": "a2f38704e030439f9d73074c1791e077",
    "name": "kony.ui.Button",
    "paddinginpixel": false,
    "parent": "flxHeaderMain1",
    "pf": "frmStandingInstructions",
    "retaincontentalignment": true,
    "retainflexpositionproperties": true,
    "wType": "Button",
    "zindex": 2
}