{
    "@class": "com.kony.gen.viz.model.component.KVizListBox",
    "DNDConfig": null,
    "_margin_": [
        0,
        0,
        0,
        0
    ],
    "_padding_": [
        0,
        0,
        0,
        0
    ],
    "_skin_": "s89eb521a8664df69d428f4b5f59ab90",
    "canUpdateUI": true,
    "containerweight": 100,
    "contentalignment": 4,
    "context": {
        "channel": "mobile",
        "ispercent": true,
        "platform": "android",
        "templateType": "popups",
        "topLevelBox": false
    },
    "dropdownimage": "dropdownlist.png",
    "groupcells": false,
    "id": "lstbxCardDeliveryBranch",
    "info": null,
    "isvisible": true,
    "kuid": "f581163476724363868127bab43ba659",
    "masterdata": [
        [
            "lb1",
            "Select delivery branch for the card"
        ],
        [
            "lb2",
            "Branch1"
        ],
        [
            "Key938",
            "Branch2"
        ]
    ],
    "name": "kony.ui.ListBox",
    "paddInPixel": [
        0,
        0,
        0,
        0
    ],
    "parent": "HBxCardDeliveryBranch",
    "pf": "PopupCancelAndReplaceCard",
    "selectedkey": "lb1",
    "selectedkeys": null,
    "selectedkeyvalue": [
        "lb1",
        "Select delivery branch for the card"
    ],
    "selectedkeyvalues": null,
    "size": 18,
    "viewconfig": {
        "toggleViewConfig": {
            "viewStyle": 0
        }
    },
    "viewtype": 0,
    "wType": "ListBox"
}