{
    "DNDConfig": null,
    "__parentReadjusting__": false,
    "_height_": {
        "type": "string",
        "value": "8%"
    },
    "_margin_": [
        0,
        0,
        0,
        0
    ],
    "_orientation_": 6,
    "_padding_": [
        0,
        0,
        0,
        0
    ],
    "_percent_": true,
    "_skin_": "s388f0c575ef4d08ac3a5ed0a4b90085",
    "_top_": {
        "type": "string",
        "value": "35%"
    },
    "_width_": {
        "type": "string",
        "value": "60%"
    },
    "allboxes": [],
    "autogrowmode": 0,
    "canUpdateUI": true,
    "centerx": {
        "type": "string",
        "value": "50.00%"
    },
    "children": [
        "txtOTP1",
        "lblTxt1",
        "lblTxt2",
        "lblTxt3",
        "lblTxt4",
        "lblTxt5",
        "lblTxt6",
        "flxLine1",
        "flxLine2",
        "flxLine3",
        "flxLine4",
        "flxLine5",
        "flxLine6",
        "txtOTP"
    ],
    "clipbounds": true,
    "containerweight": 100,
    "enablescrolling": true,
    "id": "flxEnterOTP",
    "ide_onClick": "AS_FlexContainer_a09b232801f74be3b044fa655fb40c4a",
    "info": null,
    "isvisible": true,
    "kuid": "aa90e8d8e9a643cb96fb80158d002810",
    "layouttype": 2,
    "name": "kony.ui.FlexContainer",
    "parent": "flxOTP",
    "pf": "frmNewUserOnboardVerificationKA",
    "snapgridsize": 10,
    "snaptogrid": true,
    "wType": "FlexContainer",
    "widgetalignment": 1,
    "zindex": 1
}