{
    "@class": "com.kony.gen.viz.model.component.KVizLabel",
    "DNDConfig": null,
    "__parentReadjusting__": false,
    "_height_": {
        "type": "ref",
        "value": "preferred"
    },
    "_margin_": [
        1,
        1,
        1,
        1
    ],
    "_padding_": [
        0,
        0,
        0,
        0
    ],
    "_skin_": "s4e677bdfea24c2a8781ff7ed7267943",
    "_text_": "Security Code",
    "_top_": {
        "type": "string",
        "value": "3%"
    },
    "_width_": {
        "type": "ref",
        "value": "preferred"
    },
    "_wrapping_": 2,
    "android": {
        "textStyle": {
            "letterSpacing": 0,
            "strikeThrough": false
        }
    },
    "canUpdateUI": true,
    "centerx": {
        "type": "string",
        "value": "50%"
    },
    "containerweight": 100,
    "contentalignment": 4,
    "id": "lblOTPKA",
    "info": null,
    "ipad": {
        "psp": {
            "wrapping": 2
        }
    },
    "iphone": {
        "psp": {
            "wrapping": 2
        }
    },
    "isvisible": true,
    "kuid": "d5fbafb1c22c444da7400a80dd22e5dd",
    "name": "kony.ui.Label",
    "parent": "flxMainKA",
    "pf": "frmNewUserOnboardVerificationKA",
    "texti18n": "i18n.NUO.SecurityCode",
    "tooltip": "",
    "wType": "Label",
    "zindex": 1
}