{
    "DNDConfig": null,
    "__parentReadjusting__": false,
    "_height_": {
        "type": "string",
        "value": "100%"
    },
    "_left_": {
        "type": "string",
        "value": "0dp"
    },
    "_margin_": [
        0,
        0,
        0,
        0
    ],
    "_orientation_": 6,
    "_padding_": [
        0,
        0,
        0,
        0
    ],
    "_percent_": true,
    "_skin_": "s63b37b6ac604fda8936d512a5f40fa0",
    "_top_": {
        "type": "string",
        "value": "0dp"
    },
    "_width_": {
        "type": "string",
        "value": "100%"
    },
    "allboxes": [],
    "autogrowmode": 0,
    "canUpdateUI": true,
    "children": [
        "flxNavSegment1"
    ],
    "clipbounds": true,
    "containerweight": 100,
    "enablescrolling": true,
    "id": "flxCheckDepositNavOptKA",
    "ide_onClick": "AS_FlexContainer_be08217dfeea4ccf90df6d2e53ccb590",
    "info": null,
    "isvisible": false,
    "kuid": "a056bf9218844e3f90f5f7f45e4a20cf",
    "layouttype": 2,
    "name": "kony.ui.FlexContainer",
    "parent": "frmDepositPayLandingKA",
    "pf": "frmDepositPayLandingKA",
    "snapgridsize": 10,
    "snaptogrid": true,
    "wType": "FlexContainer",
    "widgetalignment": 1,
    "zindex": 1
}