{
    "@class": "com.kony.gen.viz.model.component.KVizButton",
    "DNDConfig": null,
    "__parentReadjusting__": false,
    "_height_": {
        "type": "string",
        "value": "15%"
    },
    "_left_": {
        "type": "string",
        "value": "20dp"
    },
    "_margin_": [
        6,
        6,
        6,
        6
    ],
    "_padding_": [
        0,
        0,
        0,
        0
    ],
    "_skin_": "sf4eb9eb430a4c2da3cd5dd1e3572c42",
    "_text_": "Reserve Queue",
    "_top_": {
        "type": "string",
        "value": "48%"
    },
    "_width_": {
        "type": "string",
        "value": "85%"
    },
    "canUpdateUI": true,
    "containerId": true,
    "containerweight": 100,
    "contentalignment": 5,
    "disabledSkins": {
        "focusSkin": "s10149300144466da99cbf92f4fdacc8"
    },
    "displaytext": true,
    "id": "btnReserveQueue",
    "info": null,
    "isvisible": false,
    "kuid": "e502c5aad4a642d0814e614e3f2a1abd",
    "name": "kony.ui.Button",
    "parent": "flxTopDetails",
    "pf": "mapATMBranchWithoutLocation",
    "wType": "Button",
    "zindex": 2
}