{
    "@class": "com.kony.gen.viz.model.component.KVizLabel",
    "DNDConfig": null,
    "__parentReadjusting__": false,
    "_height_": {
        "type": "string",
        "value": "100%"
    },
    "_margin_": [
        1,
        1,
        1,
        1
    ],
    "_padding_": [
        0,
        0,
        0,
        0
    ],
    "_skin_": "s9a7da7a54fa4c06afcd3d0e831da759",
    "_text_": "Label",
    "_width_": {
        "type": "string",
        "value": "50%"
    },
    "_wrapping_": 2,
    "android": {
        "textStyle": {
            "letterSpacing": 0,
            "strikeThrough": false
        }
    },
    "canUpdateUI": true,
    "containerweight": 100,
    "contentalignment": 5,
    "id": "CopyLabel0f8052486d28c4e",
    "info": null,
    "ipad": {
        "psp": {
            "wrapping": 2
        }
    },
    "iphone": {
        "psp": {
            "wrapping": 2
        }
    },
    "iscustomlayout": false,
    "isvisible": true,
    "kuid": "g26156638dab4fa6a6e5726441fb370b",
    "name": "kony.ui.Label",
    "parent": "flxContent",
    "pf": "frmSmartInfo",
    "retaincontentalignment": false,
    "retainflexpositionproperties": false,
    "texti18n": "ii18n.account.newSubInterestRate",
    "textstyle": {},
    "tooltip": "",
    "wType": "Label",
    "zindex": 1
}