{
    "DNDConfig": null,
    "__parentReadjusting__": false,
    "_height_": {
        "type": "string",
        "value": "100%"
    },
    "_left_": {
        "type": "string",
        "value": "0%"
    },
    "_margin_": [
        0,
        0,
        0,
        0
    ],
    "_orientation_": 6,
    "_padding_": [
        0,
        0,
        0,
        0
    ],
    "_percent_": true,
    "_skin_": "s3f548bda3524e0388552e16122dc6fa",
    "_top_": {
        "type": "string",
        "value": "0%"
    },
    "_width_": {
        "type": "string",
        "value": "100%"
    },
    "allboxes": [],
    "allowhorizontalbounce": false,
    "allowverticalbounce": true,
    "bounces": false,
    "canUpdateUI": true,
    "children": [
        "flxCreditCardStatus",
        "flxLineInfo",
        "flxStatusInfo",
        "flxLineInfo1",
        "flxAccountNumberInfo",
        "flxLineInfo2",
        "flxOpeningDate",
        "flxLineInfo3",
        "flxOpenedIn",
        "flxLineInfo4",
        "flxIBAN",
        "flxLineInfo5",
        "CopyflxIBAN0hd4c5a6edeee48",
        "flxLineInfo6",
        "CopyflxOpenedIn0b6e2187bba4f41",
        "flxnewEPN"
    ],
    "clipbounds": true,
    "containerweight": 100,
    "decelerat": false,
    "dragg": false,
    "enablescrolling": true,
    "horizontalscrollindicator": true,
    "id": "flxaccountdetailsfordeposits",
    "info": null,
    "isvisible": true,
    "kuid": "a8d1853efae442da8e3a915f9a134d6d",
    "layouttype": 4,
    "name": "kony.ui.FlexScrollContainer",
    "pagingenabled": false,
    "parent": "flxInfo",
    "pf": "frmManageCardsKA",
    "scrolldirection": 2,
    "snapgridsize": 10,
    "snaptogrid": true,
    "track": false,
    "verticalscrollindicator": true,
    "vizProps": {},
    "wType": "FlexScrollContainer",
    "widgetalignment": 1,
    "zindex": 5
}