{
    "DNDConfig": null,
    "__parentReadjusting__": false,
    "_height_": {
        "type": "string",
        "value": "22%"
    },
    "_left_": {
        "type": "string",
        "value": "0%"
    },
    "_margin_": [
        0,
        0,
        0,
        0
    ],
    "_orientation_": 6,
    "_padding_": [
        0,
        0,
        0,
        0
    ],
    "_percent_": true,
    "_skin_": "s388f0c575ef4d08ac3a5ed0a4b90085",
    "_top_": {
        "type": "string",
        "value": "0%"
    },
    "_width_": {
        "type": "string",
        "value": "100%"
    },
    "allboxes": [],
    "autogrowmode": 0,
    "canUpdateUI": true,
    "children": [
        "CopylblCcPaynowIcon0c0a0da7811a942",
        "CopylblStaticPayCredit0ebc58860502542",
        "Copydivider0e838796d961342"
    ],
    "clipbounds": true,
    "containerweight": 100,
    "enablescrolling": true,
    "id": "flxPinManagement",
    "ide_onClick": "AS_FlexContainer_d3193ec00cd34e9294cac8b6f679259d",
    "info": null,
    "isvisible": true,
    "kuid": "fafe9926f9774152b68afca4a04053a5",
    "layouttype": 2,
    "name": "kony.ui.FlexContainer",
    "parent": "accountsOuterScroll",
    "pf": "frmManageCardsKA",
    "snapgridsize": 10,
    "snaptogrid": true,
    "wType": "FlexContainer",
    "widgetalignment": 1,
    "zindex": 1
}