{
    "DNDConfig": null,
    "_height_": {
        "type": "ref",
        "value": "preferred"
    },
    "_margin_": [
        0,
        0,
        0,
        0
    ],
    "_orientation_": 6,
    "_padding_": [
        0,
        0,
        0,
        0
    ],
    "_percent_": true,
    "_skin_": "s388f0c575ef4d08ac3a5ed0a4b90085",
    "allboxes": [],
    "autogrowmode": 1,
    "canUpdateUI": true,
    "children": [
        "lblTime",
        "lblBiller",
        "flxLine"
    ],
    "clipbounds": true,
    "containerId": true,
    "containerweight": 100,
    "enablescrolling": true,
    "id": "flxTransactionDetail",
    "info": null,
    "isTemplate": true,
    "isvisible": true,
    "kuid": "idd92e4143da48fba9accfcd99a81902",
    "layouttype": 4,
    "name": "kony.ui.FlexContainer",
    "parent": "tmpTransactionBiller",
    "pf": "tmpTransactionBiller",
    "snapgridsize": 10,
    "snaptogrid": true,
    "wType": "FlexContainer",
    "widgetalignment": 1
}