{
    "DNDConfig": null,
    "__parentReadjusting__": false,
    "_height_": {
        "type": "string",
        "value": "60%"
    },
    "_margin_": [
        0,
        0,
        0,
        0
    ],
    "_orientation_": 6,
    "_padding_": [
        0,
        0,
        0,
        0
    ],
    "_percent_": true,
    "_skin_": "s420934ed2134aa9b083e885bb19d080",
    "_top_": {
        "type": "string",
        "value": "20%"
    },
    "_width_": {
        "type": "string",
        "value": "80%"
    },
    "allboxes": [],
    "autogrowmode": 0,
    "canUpdateUI": true,
    "centerx": {
        "type": "string",
        "value": "50%"
    },
    "children": [
        "flxTouchIdheader",
        "flxTouchIdImage",
        "coseTouchId",
        "lblTouchText"
    ],
    "clipbounds": true,
    "containerweight": 100,
    "enablescrolling": true,
    "id": "flxAndrdTouchAlert",
    "info": null,
    "isvisible": true,
    "kuid": "d6d2a782ec4b470281a1182b628fbb7e",
    "layouttype": 2,
    "name": "kony.ui.FlexContainer",
    "parent": "flxtouchIdAndrd",
    "pf": "frmUserSettingsTouchIdKA",
    "snapgridsize": 10,
    "snaptogrid": true,
    "wType": "FlexContainer",
    "widgetalignment": 1,
    "zindex": 1
}