{
    "@class": "com.kony.gen.viz.model.container.KVizSegment2",
    "DNDConfig": null,
    "__parentReadjusting__": false,
    "_data_": [
        {
            "CardHolder": {
                "@class": "com.viz.ide.model.segment.SimpleTextSegmentData",
                "text": ""
            },
            "CopylblIncommingRing0db621a02819242": {
                "@class": "com.viz.ide.model.segment.SimpleTextSegmentData",
                "text": ""
            },
            "CopylblIncommingRing0h6f8267705004b": {
                "@class": "com.viz.ide.model.segment.SimpleTextSegmentData",
                "text": ""
            },
            "ValidThru": {
                "@class": "com.viz.ide.model.segment.SimpleTextSegmentData",
                "text": ""
            },
            "accountNumber": {
                "text": ""
            },
            "btnNav": {
                "@class": "com.viz.ide.model.segment.SimpleTextSegmentData",
                "text": ""
            },
            "cardImage": {
                "@class": "com.viz.ide.model.segment.ImageSegmentData",
                "src": ""
            },
            "cardNumber": {
                "@class": "com.viz.ide.model.segment.SimpleTextSegmentData",
                "text": ""
            },
            "cardType": {
                "@class": "com.viz.ide.model.segment.SimpleTextSegmentData",
                "text": ""
            },
            "cardTypeFlag": {
                "@class": "com.viz.ide.model.segment.SimpleTextSegmentData",
                "text": ""
            },
            "lblIncommingRing": {
                "@class": "com.viz.ide.model.segment.SimpleTextSegmentData",
                "text": ""
            },
            "reference_no": {
                "text": ""
            }
        }
    ],
    "_height_": {
        "type": "ref",
        "value": "preferred"
    },
    "_indicator_": "none",
    "_left_": {
        "type": "string",
        "value": "0dp"
    },
    "_margin_": [
        0,
        0,
        0,
        0
    ],
    "_orientation_": 2,
    "_padding_": [
        0,
        0,
        0,
        0
    ],
    "_top_": {
        "type": "string",
        "value": "0%"
    },
    "_width_": {
        "type": "string",
        "value": "100%"
    },
    "autogrowmode": 1,
    "canUpdateUI": true,
    "centerx": {
        "type": "string",
        "value": "50%"
    },
    "containerweight": 100,
    "counter": "00",
    "disabledSkins": {
        "sectionHeaderSkin": "sfa7f115d30e4183ab3e347ebe6185c6"
    },
    "focusedindex": null,
    "focuseditem": null,
    "groupcells": false,
    "hasSections": false,
    "hiddencolumns": {
        "accountNumber": "text",
        "reference_no": "text"
    },
    "id": "segCardsLanding",
    "ide_onRowClick": "AS_Segment_d6dda1de5c674a6481ff4c6914d16d8e",
    "info": null,
    "ipad": {
        "psp": {
            "indicator": "rowselect"
        }
    },
    "iphone": {
        "psp": {
            "bounces": false,
            "indicator": "none",
            "showProgressIndicator": false
        }
    },
    "isvisible": true,
    "kuid": "f3a3a5f0bbd74c03854c4d3b481b96b7",
    "masterdata": {},
    "name": "kony.ui.SegmentedUI2",
    "needpageindicator": true,
    "pageoffdotimage": "pageoffdot.png",
    "pageondotimage": "pageondot.png",
    "paginationconfig": {
        "position": "bottom"
    },
    "parent": "flxScrollMain",
    "pf": "frmCardsLandingKA",
    "retainselection": false,
    "rowTemplateId": "e30a20b0502143d2b876d6b64e99cd29",
    "rowcounter": 0,
    "rowfocusskin": "s27c76e85b844e03945d12f1113a8f87",
    "rowskin": "s27c76e85b844e03945d12f1113a8f87",
    "rowtemplate": "flxCardsLandingTemplate",
    "screenlevelwidget": false,
    "seccounter": 0,
    "sectionHeaderTemplateId": null,
    "selectedRows": null,
    "selectedState": false,
    "selectedindex": null,
    "selectedindices": null,
    "selecteditems": null,
    "selectedsectionindex": 0,
    "selectionbehavior": "default",
    "separatorcolor": "ffffff64",
    "separatorrequired": true,
    "separatorthickness": 0,
    "showprogressindicator": false,
    "showscrollbars": true,
    "viewtype": "tableview",
    "vizProps": {},
    "wType": "Segment",
    "widgetalignment": 5,
    "widgetdatamap": {
        "CardHolder": "CardHolder",
        "CopybtnNav0b0169acff9c84a": "CopybtnNav0b0169acff9c84a",
        "CopylblIncommingRing0db621a02819242": "CopylblIncommingRing0db621a02819242",
        "CopylblIncommingRing0h6f8267705004b": "CopylblIncommingRing0h6f8267705004b",
        "ValidThru": "ValidThru",
        "btnNav": "btnNav",
        "btnNav1": "btnNav1",
        "cardImage": "cardImage",
        "cardNumber": "cardNumber",
        "cardType": "cardType",
        "cardTypeFlag": "cardTypeFlag",
        "flxCardDetails": "flxCardDetails",
        "flxCardsLandingTemplate": "flxCardsLandingTemplate",
        "lblIncommingRing": "lblIncommingRing"
    },
    "zindex": 1
}