{
    "@class": "com.kony.gen.viz.model.component.KVizLabel",
    "DNDConfig": null,
    "__parentReadjusting__": false,
    "_height_": {
        "type": "ref",
        "value": "preferred"
    },
    "_left_": {
        "type": "string",
        "value": "5%"
    },
    "_margin_": [
        1,
        1,
        1,
        1
    ],
    "_padding_": [
        0,
        0,
        0,
        0
    ],
    "_skin_": "sfb91c7009cd4993840c6e18084d40c1",
    "_text_": "Do you want to register?",
    "_top_": {
        "type": "string",
        "value": "6%"
    },
    "_width_": {
        "type": "string",
        "value": "90%"
    },
    "_wrapping_": 2,
    "canUpdateUI": true,
    "containerweight": 100,
    "contentalignment": 4,
    "enabled": false,
    "id": "Label07b268452752c4c",
    "info": null,
    "ipad": {
        "psp": {
            "wrapping": 2
        }
    },
    "iphone": {
        "psp": {
            "wrapping": 2
        }
    },
    "isvisible": true,
    "kuid": "cdc88523608546558db5cc7d263674ca",
    "name": "kony.ui.Label",
    "parent": "FlexContainer00a3c07fadcbf4b",
    "pf": "frmDeviceRegistrationOptionsKA",
    "texti18n": "i18n.DeviceReg,Question",
    "tooltip": "",
    "wType": "Label"
}