{
    "@class": "com.kony.gen.viz.model.container.KVizSegment2",
    "DNDConfig": null,
    "__parentReadjusting__": false,
    "_bounces_": false,
    "_data_": [
        {
            "accountnumber": {
                "@class": "com.viz.ide.model.segment.SimpleTextSegmentData",
                "text": ""
            },
            "btnBillsPayAccounts": {
                "@class": "com.viz.ide.model.segment.SimpleTextSegmentData",
                "text": "0"
            },
            "btnDelete": {
                "@class": "com.viz.ide.model.segment.SimpleTextSegmentData",
                "text": ""
            },
            "btnEditBillerDetails": {
                "@class": "com.viz.ide.model.segment.SimpleTextSegmentData",
                "text": ""
            },
            "dueAmount": {
                "@class": "com.viz.ide.model.segment.SimpleTextSegmentData",
                "text": "Account Number"
            },
            "lblBillerType": {
                "@class": "com.viz.ide.model.segment.SimpleTextSegmentData",
                "text": ""
            },
            "lblBulkSelection": {
                "@class": "com.viz.ide.model.segment.SimpleTextSegmentData",
                "text": "Label"
            },
            "lblInitial": {
                "@class": "com.viz.ide.model.segment.SimpleTextSegmentData",
                "text": ""
            },
            "lblTick": {
                "@class": "com.viz.ide.model.segment.SimpleTextSegmentData",
                "text": "r"
            },
            "payeename": {
                "@class": "com.viz.ide.model.segment.SimpleTextSegmentData",
                "text": ""
            },
            "payeenickname": {
                "@class": "com.viz.ide.model.segment.SimpleTextSegmentData",
                "text": ""
            }
        }
    ],
    "_height_": {
        "type": "string",
        "value": "61.50%"
    },
    "_indicator_": "none",
    "_left_": {
        "type": "string",
        "value": "0dp"
    },
    "_margin_": [
        0,
        0,
        0,
        0
    ],
    "_orientation_": 2,
    "_padding_": [
        0,
        0,
        0,
        0
    ],
    "_top_": {
        "type": "string",
        "value": "0.00%"
    },
    "_width_": {
        "type": "string",
        "value": "100%"
    },
    "autogrowmode": 0,
    "canUpdateUI": true,
    "containerweight": 100,
    "counter": "00",
    "editstyle": "swipe",
    "focusedindex": null,
    "focuseditem": null,
    "groupcells": false,
    "hasSections": false,
    "id": "managepayeesegment",
    "info": null,
    "invokedProperty": "pageOnDotImage",
    "ipad": {
        "psp": {
            "indicator": "rowselect"
        }
    },
    "iphone": {
        "psp": {
            "bounces": true,
            "editStyle": "swipe",
            "indicator": "none",
            "showProgressIndicator": true
        }
    },
    "isvisible": true,
    "kuid": "664944267aa44ac1b67d14aaeea3b03d",
    "masterdata": {},
    "name": "kony.ui.SegmentedUI2",
    "needpageindicator": true,
    "paddinginpixel": false,
    "pageoffdotimage": "pageoffdot.png",
    "pageondotimage": "pageondot.png",
    "paginationconfig": {
        "position": "bottom",
        "vdistance": 1
    },
    "parent": "mainContainer",
    "pf": "frmManagePayeeKA",
    "retainselection": false,
    "rowTemplateId": "16a264b35c494e74a2589ee452044566",
    "rowcounter": 0,
    "rowfocusskin": "s5fa38be22fb4f22b7c642b08276ab82",
    "rowskin": "s2f8c2eae708447a964b0b1a68fc57aa",
    "rowtemplate": "flxManagePayeeNormal",
    "screenlevelwidget": false,
    "seccounter": 0,
    "sectionHeaderTemplateId": null,
    "sectionheaderskin": "s67621b8a82d49f285da06b4f5a0c993",
    "selectedRows": null,
    "selectedState": false,
    "selectedindex": null,
    "selectedindices": null,
    "selecteditems": null,
    "selectedsectionindex": 0,
    "selectionbehavior": "default",
    "separatorrequired": false,
    "separatorthickness": 0,
    "showprogressindicator": true,
    "showscrollbars": false,
    "swipeContext": {
        "currentPage": 0,
        "imageWidth": 750,
        "widthRatio": 0
    },
    "viewtype": "tableview",
    "vizProps": {},
    "wType": "Segment",
    "widgetalignment": 5,
    "widgetdatamap": {
        "accountnumber": "accountnumber",
        "btnBillsPayAccounts": "btnBillsPayAccounts",
        "btnDelete": "btnDelete",
        "btnEditBillerDetails": "btnEditBillerDetails",
        "contactListDivider": "contactListDivider",
        "dueAmount": "dueAmount",
        "flxAnimate": "flxAnimate",
        "flxButtonHolder": "flxButtonHolder",
        "flxDetails": "flxDetails",
        "flxIcon1": "flxIcon1",
        "flxIconContainer": "flxIconContainer",
        "flxManagePayeeNormal": "flxManagePayeeNormal",
        "flxToAnimate": "flxToAnimate",
        "lblBillerType": "lblBillerType",
        "lblBulkSelection": "lblBulkSelection",
        "lblInitial": "lblInitial",
        "lblTick": "lblTick",
        "payeename": "payeename",
        "payeenickname": "payeenickname",
        "verticalDivider": "verticalDivider"
    },
    "zindex": 2
}