{
  "operationConfig" : {
    "name" : "ChangeSMSNo3264",
    "type" : "MappedToBackend",
    "cachable" : false,
    "smsEnabled" : false,
    "security" : "public",
    "responseEncoding" : "UTF-8",
    "httpMethod" : "GET",
    "decodeResponseBody" : false,
    "iMapping" : "<?xml version=\"1.0\" encoding=\"UTF-8\" standalone=\"yes\"?><mapper xmlns=\"http://www.kony.com/ns/mapper\">      <map inputpath=\"request_in\" outputpath=\"request_out\">            <set-param inputpath=\"FlowFlag\" outputpath=\"FlowFlag\"/>            <set-param inputpath=\"pin\" outputpath=\"pin\"/>            <set-param inputpath=\"creditCardNum\" outputpath=\"creditCardNum\"/>            <set-param inputpath=\"countryCode\" outputpath=\"countryCode\"/>            <set-param inputpath=\"custId\" outputpath=\"custId\"/>            <set-param inputpath=\"CardNum\" outputpath=\"CardNum\"/>            <set-param inputpath=\"cardkey\" outputpath=\"cardkey\"/>            <set-param inputpath=\"smsno\" outputpath=\"smsno\"/>      </map></mapper>",
    "oMapping" : "<?xml version=\"1.0\" encoding=\"UTF-8\" standalone=\"yes\"?><mapper xmlns=\"http://www.kony.com/ns/mapper\">          <map inputpath=\"response_in\" outputpath=\"response_out\">                    <set-param inputpath=\"result\" outputpath=\"result\"/>          </map></mapper>",
    "applyCommonMapping" : false,
    "backendMeta" : {
      "serviceVersion" : "1.0",
      "operationName" : "ChangeSMSNo",
      "serviceName" : "BOJChangeSMSNo"
    },
    "relationshipHierarchyMapping" : {
      "children" : [ ],
      "name" : "Cards",
      "selected" : true
    },
    "requestXmlMappingOverride" : true,
    "responseXmlMappingOverride" : true
  }
}